[gd_scene load_steps=11 format=3 uid="uid://c6r3itgsq6x3n"]

[ext_resource type="TileSet" uid="uid://8k7uaaxt1ves" path="res://resources/maps/Desert1/desert1.tres" id="1_ah61y"]
[ext_resource type="PackedScene" uid="uid://b7un72jhbkp8j" path="res://scenes/components/trail_path_2d/trail_path_2d.tscn" id="2_vak48"]
[ext_resource type="PackedScene" uid="uid://dnj7svfx3qgcn" path="res://scenes/components/global_light.tscn" id="3_gf8rq"]

[sub_resource type="Curve2D" id="Curve2D_l1ohj"]
_data = {
"points": PackedVector2Array(0, 0, 0, 0, 141, 205, 0, 0, 0, 0, 195, 207, -6.69577, 11.4803, 6.69577, -11.4803, 233, 189, 2.48031, 2.57953, -2.48031, -2.57953, 233, 171, 15.1873, 3.1156, -15.1873, -3.1156, 222, 164, 0, 0, 0, 0, 205, 166, -5.03968, -17.0089, 5.03968, 17.0089, 198, 188, -14.4891, -0.971893, 14.4891, 0.971893, 232, 204, -5.25827, -0.39685, 5.25827, 0.39685, 268, 205, -1.68661, 0, 1.68661, 0, 290, 207, 0, 0, 0, 0, 290, 207)
}
point_count = 11

[sub_resource type="Curve" id="Curve_cut3g"]
min_value = 1.0
max_value = 5.0
_data = [Vector2(0, 1), 0.0, 5.6, 0, 0, Vector2(0.534965, 4.14591), 0.0, 0.0, 0, 0, Vector2(1, 1.69751), 0.0, 0.0, 0, 0]
point_count = 3

[sub_resource type="Gradient" id="Gradient_ol163"]
colors = PackedColorArray(0.658341, 0.65834, 0.65834, 0.415686, 1, 1, 1, 0.180392)

[sub_resource type="Curve2D" id="Curve2D_wqj72"]
_data = {
"points": PackedVector2Array(0, 0, 0, 0, -47, 52, -28.3653, -0.66742, 28.3653, 0.66742, 28, 29, -28.0316, 1.00113, 28.0316, -1.00113, 93, 47, -6.34049, -3.67081, 6.34049, 3.67081, 182, 35)
}
point_count = 4

[sub_resource type="Curve" id="Curve_7ud8r"]
min_value = 1.0
max_value = 5.0
_data = [Vector2(0, 1), 0.0, 5.6, 0, 0, Vector2(0.318182, 4.14591), 0.0, 0.0, 0, 0, Vector2(0.541958, 2.09609), 0.0, 0.0, 0, 0, Vector2(0.730769, 4.14591), 0.0, 0.0, 0, 0, Vector2(1, 1.24199), 0.0, 0.0, 0, 0]
point_count = 5

[sub_resource type="Curve2D" id="Curve2D_42kiq"]
_data = {
"points": PackedVector2Array(0, 0, 0, 0, -47, 52, -28.3653, -0.66742, 28.3653, 0.66742, 28, 29, -28.0316, 1.00113, 28.0316, -1.00113, 93, 47, -6.34049, -3.67081, 6.34049, 3.67081, 182, 35)
}
point_count = 4

[sub_resource type="Curve2D" id="Curve2D_a2t2d"]
_data = {
"points": PackedVector2Array(0, 0, 0, 0, -47, 52, -28.3653, -0.66742, 28.3653, 0.66742, 28, 29, -28.0316, 1.00113, 28.0316, -1.00113, 93, 47, -6.34049, -3.67081, 6.34049, 3.67081, 182, 35)
}
point_count = 4

[node name="TileMap" type="TileMap"]
y_sort_enabled = true
tile_set = ExtResource("1_ah61y")
format = 2
layer_0/name = "ground"
layer_0/z_index = -2
layer_0/tile_data = PackedInt32Array(1441831, 2031617, 24, 1376295, 1835009, 22, 1310759, 1835009, 22, 1245223, 2031617, 21, 1179687, 1835009, 22, 1114151, 2031617, 23, 1048615, 2031617, 23, 983079, 2031617, 23, 917543, 2031617, 23, 852007, 2031617, 22, 786471, 1835009, 22, 720935, 2031617, 22, 655399, 2031617, 21, 589863, 1835009, 22, 524327, 1835009, 22, 458791, 2031617, 21, 393255, 2031617, 22, 327719, 2031617, 21, 262183, 1835009, 22, 196647, 2031617, 22, 131111, 2031617, 22, 65575, 2031617, 23, 39, 2031617, 20, 1441830, 1966081, 24, 1376294, 1638401, 32, 1310758, 1638401, 32, 1245222, 1638401, 32, 1179686, 1638401, 32, 1114150, 1638401, 32, 1048614, 1638401, 32, 983078, 1638401, 32, 917542, 1638401, 32, 852006, 1638401, 32, 786470, 1638401, 32, 720934, 1638401, 32, 655398, 1638401, 32, 589862, 1638401, 32, 524326, 1638401, 32, 458790, 1638401, 32, 393254, 1638401, 32, 327718, 1638401, 32, 262182, 1638401, 32, 196646, 1638401, 32, 131110, 1638401, 32, 65574, 1638401, 32, 38, 1966081, 20, 1441829, 1900545, 24, 1376293, 1638401, 32, 1310757, 1638401, 32, 1245221, 1638401, 32, 1179685, 1638401, 32, 1114149, 1638401, 32, 1048613, 1638401, 32, 983077, 1638401, 32, 917541, 1638401, 32, 852005, 1638401, 32, 786469, 1638401, 32, 720933, 1638401, 32, 655397, 1638401, 32, 589861, 1638401, 32, 524325, 1638401, 32, 458789, 1638401, 32, 393253, 1638401, 32, 327717, 1638401, 32, 262181, 1638401, 32, 196645, 1638401, 32, 131109, 1638401, 32, 65573, 1638401, 32, 37, 1835009, 20, 1441828, 1966081, 24, 1376292, 1638401, 32, 1310756, 1638401, 32, 1245220, 1638401, 32, 1179684, 1638401, 32, 1114148, 1638401, 32, 1048612, 1638401, 32, 983076, 1638401, 32, 917540, 1638401, 32, 852004, 1638401, 32, 786468, 1638401, 32, 720932, 1638401, 32, 655396, 1638401, 32, 589860, 1638401, 32, 524324, 1638401, 32, 458788, 1638401, 32, 393252, 1638401, 32, 327716, 1638401, 32, 262180, 1638401, 32, 196644, 1638401, 32, 131108, 1638401, 32, 65572, 1638401, 32, 36, 1900545, 20, 1441827, 1835009, 24, 1376291, 1638401, 32, 1310755, 1638401, 32, 1245219, 1638401, 32, 1179683, 1638401, 32, 1114147, 1638401, 32, 1048611, 1638401, 32, 983075, 1638401, 32, 917539, 1638401, 32, 852003, 1638401, 32, 786467, 1638401, 32, 720931, 1638401, 32, 655395, 1638401, 32, 589859, 1638401, 32, 524323, 1638401, 32, 458787, 1638401, 32, 393251, 1638401, 32, 327715, 1638401, 32, 262179, 1638401, 32, 196643, 1638401, 32, 131107, 1638401, 32, 65571, 1638401, 32, 35, 1900545, 20, 1441826, 1835009, 24, 1376290, 1638401, 32, 1310754, 1638401, 32, 1245218, 1638401, 32, 1179682, 1638401, 32, 1114146, 1638401, 32, 1048610, 1638401, 32, 983074, 1638401, 32, 917538, 1638401, 32, 852002, 1638401, 32, 786466, 1638401, 32, 720930, 1638401, 32, 655394, 1638401, 32, 589858, 1638401, 32, 524322, 1638401, 32, 458786, 1638401, 32, 393250, 1638401, 32, 327714, 1638401, 32, 262178, 1638401, 32, 196642, 1638401, 32, 131106, 1638401, 32, 65570, 1638401, 32, 34, 1835009, 20, 1441825, 1835009, 24, 1376289, 1638401, 32, 1310753, 1638401, 32, 1245217, 1638401, 32, 1179681, 1638401, 32, 1114145, 1638401, 32, 1048609, 1638401, 32, 983073, 1638401, 32, 917537, 1638401, 32, 852001, 1638401, 32, 786465, 1638401, 32, 720929, 1638401, 32, 655393, 1638401, 32, 589857, 1638401, 32, 524321, 1638401, 32, 458785, 1638401, 32, 393249, 1638401, 32, 327713, 1638401, 32, 262177, 1638401, 32, 196641, 1638401, 32, 131105, 1638401, 32, 65569, 1638401, 32, 33, 1966081, 20, 1441824, 1900545, 24, 1376288, 1638401, 32, 1310752, 1638401, 32, 1245216, 1638401, 32, 1179680, 1638401, 32, 1114144, 1638401, 32, 1048608, 1638401, 32, 983072, 1638401, 32, 917536, 1638401, 32, 852000, 1638401, 32, 786464, 1638401, 32, 720928, 1638401, 32, 655392, 1638401, 32, 589856, 1638401, 32, 524320, 1638401, 32, 458784, 1638401, 32, 393248, 1638401, 32, 327712, 1638401, 32, 262176, 1638401, 32, 196640, 1638401, 32, 131104, 1638401, 32, 65568, 1638401, 32, 32, 1900545, 20, 1441823, 1966081, 24, 1376287, 1638401, 32, 1310751, 1638401, 32, 1245215, 1638401, 32, 1179679, 1638401, 32, 1114143, 1638401, 32, 1048607, 1638401, 32, 983071, 1638401, 32, 917535, 1638401, 32, 851999, 1638401, 32, 786463, 1638401, 32, 720927, 1638401, 32, 655391, 1638401, 32, 589855, 1638401, 32, 524319, 1638401, 32, 458783, 1638401, 32, 393247, 1638401, 32, 327711, 1638401, 32, 262175, 1638401, 32, 196639, 1638401, 32, 131103, 1638401, 32, 65567, 1638401, 32, 31, 1835009, 20, 1441822, 1835009, 24, 1376286, 1638401, 32, 1310750, 1638401, 32, 1245214, 1638401, 32, 1179678, 1638401, 32, 1114142, 1638401, 32, 1048606, 1638401, 32, 983070, 1638401, 32, 917534, 1638401, 32, 851998, 1638401, 32, 786462, 1638401, 32, 720926, 1638401, 32, 655390, 1638401, 32, 589854, 1638401, 32, 524318, 1638401, 32, 458782, 1638401, 32, 393246, 1638401, 32, 327710, 1638401, 32, 262174, 1638401, 32, 196638, 1638401, 32, 131102, 1638401, 32, 65566, 1638401, 32, 30, 1900545, 20, 1441821, 1966081, 24, 1376285, 1638401, 32, 1310749, 1638401, 32, 1245213, 1638401, 32, 1179677, 1638401, 32, 1114141, 1638401, 32, 1048605, 1638401, 32, 983069, 1638401, 32, 917533, 1638401, 32, 851997, 1638401, 32, 786461, 1638401, 32, 720925, 1638401, 32, 655389, 1638401, 32, 589853, 1638401, 32, 524317, 1638401, 32, 458781, 1638401, 32, 393245, 1638401, 32, 327709, 1638401, 32, 262173, 1638401, 32, 196637, 1638401, 32, 131101, 1638401, 32, 65565, 1638401, 32, 29, 1966081, 20, 1441820, 1900545, 24, 1376284, 1638401, 32, 1310748, 1638401, 32, 1245212, 1638401, 32, 1179676, 1638401, 32, 1114140, 1638401, 32, 1048604, 1638401, 32, 983068, 1638401, 32, 917532, 1638401, 32, 851996, 1638401, 32, 786460, 1638401, 32, 720924, 1638401, 32, 655388, 1638401, 32, 589852, 1638401, 32, 524316, 1638401, 32, 458780, 1638401, 32, 393244, 1638401, 32, 327708, 1638401, 32, 262172, 1638401, 32, 196636, 1638401, 32, 131100, 1638401, 32, 65564, 1638401, 32, 28, 1835009, 20, 1441819, 1835009, 24, 1376283, 1638401, 32, 1310747, 1638401, 32, 1245211, 1638401, 32, 1179675, 1638401, 32, 1114139, 1638401, 32, 1048603, 1638401, 32, 983067, 1638401, 32, 917531, 1638401, 32, 851995, 1638401, 32, 786459, 1638401, 32, 720923, 1638401, 32, 655387, 1638401, 32, 589851, 1638401, 32, 524315, 1638401, 32, 458779, 1638401, 32, 393243, 1638401, 32, 327707, 1638401, 32, 262171, 1638401, 32, 196635, 1638401, 32, 131099, 1638401, 32, 65563, 1638401, 32, 27, 1900545, 23, 1441818, 1966081, 24, 1376282, 1638401, 32, 1310746, 1638401, 32, 1245210, 1638401, 32, 1179674, 1638401, 32, 1114138, 1638401, 32, 1048602, 1638401, 32, 983066, 1638401, 32, 917530, 1638401, 32, 851994, 1638401, 32, 786458, 1638401, 32, 720922, 1638401, 32, 655386, 1638401, 32, 589850, 1638401, 32, 524314, 1638401, 32, 458778, 1638401, 32, 393242, 1638401, 32, 327706, 1638401, 32, 262170, 1638401, 32, 196634, 1638401, 32, 131098, 1638401, 32, 65562, 1638401, 32, 26, 1966081, 20, 1441817, 1966081, 24, 1376281, 1638401, 32, 1310745, 1638401, 32, 1245209, 1638401, 32, 1179673, 1638401, 32, 1114137, 1638401, 32, 1048601, 1638401, 32, 983065, 1638401, 32, 917529, 1638401, 32, 851993, 1638401, 32, 786457, 1638401, 32, 720921, 1638401, 32, 655385, 1638401, 32, 589849, 1638401, 32, 524313, 1638401, 32, 458777, 1638401, 32, 393241, 1638401, 32, 327705, 1638401, 32, 262169, 1638401, 32, 196633, 1638401, 32, 131097, 1638401, 32, 65561, 1638401, 32, 25, 1966081, 20, 1441816, 1900545, 21, 1376280, 1638401, 32, 1310744, 1638401, 32, 1245208, 1638401, 32, 1179672, 1638401, 32, 1114136, 1638401, 32, 1048600, 1638401, 32, 983064, 1638401, 32, 917528, 1638401, 32, 851992, 1638401, 32, 786456, 1638401, 32, 720920, 1638401, 32, 655384, 1638401, 32, 589848, 1638401, 32, 524312, 1638401, 32, 458776, 1638401, 32, 393240, 1638401, 32, 327704, 1638401, 32, 262168, 1638401, 32, 196632, 1638401, 32, 131096, 1638401, 32, 65560, 1638401, 32, 24, 1966081, 20, 1441815, 1966081, 24, 1376279, 1638401, 32, 1310743, 1638401, 32, 1245207, 1638401, 32, 1179671, 1638401, 32, 1114135, 1638401, 32, 1048599, 1638401, 32, 983063, 1638401, 32, 917527, 1638401, 32, 851991, 1638401, 32, 786455, 1638401, 32, 720919, 1638401, 32, 655383, 1638401, 32, 589847, 1638401, 32, 524311, 1638401, 32, 458775, 1638401, 32, 393239, 1638401, 32, 327703, 1638401, 32, 262167, 1638401, 32, 196631, 1638401, 32, 131095, 1638401, 32, 65559, 1638401, 32, 23, 1900545, 23, 1441814, 1900545, 24, 1376278, 1638401, 32, 1310742, 1638401, 32, 1245206, 1638401, 32, 1179670, 1638401, 32, 1114134, 1638401, 32, 1048598, 1638401, 32, 983062, 1638401, 32, 917526, 1638401, 32, 851990, 1638401, 32, 786454, 1638401, 32, 720918, 1638401, 32, 655382, 1638401, 32, 589846, 1638401, 32, 524310, 1638401, 32, 458774, 1638401, 32, 393238, 1638401, 32, 327702, 1638401, 32, 262166, 1638401, 32, 196630, 1638401, 32, 131094, 1638401, 32, 65558, 1638401, 32, 22, 1900545, 23, 1441813, 1835009, 24, 1376277, 1638401, 32, 1310741, 1638401, 32, 1245205, 1638401, 32, 1179669, 1638401, 32, 1114133, 1638401, 32, 1048597, 1638401, 32, 983061, 1638401, 32, 917525, 1638401, 32, 851989, 1638401, 32, 786453, 1638401, 32, 720917, 1638401, 32, 655381, 1638401, 32, 589845, 1638401, 32, 524309, 1638401, 32, 458773, 1638401, 32, 393237, 1638401, 32, 327701, 1638401, 32, 262165, 1638401, 32, 196629, 1638401, 32, 131093, 1638401, 32, 65557, 1638401, 32, 21, 1966081, 20, 1441812, 1900545, 24, 1376276, 1638401, 32, 1310740, 1638401, 32, 1245204, 1638401, 32, 1179668, 1638401, 32, 1114132, 1638401, 32, 1048596, 1638401, 32, 983060, 1638401, 32, 917524, 1638401, 32, 851988, 1638401, 32, 786452, 1638401, 32, 720916, 1638401, 32, 655380, 1638401, 32, 589844, 1638401, 32, 524308, 1638401, 32, 458772, 1638401, 32, 393236, 1638401, 32, 327700, 1638401, 32, 262164, 1638401, 32, 196628, 1638401, 32, 131092, 1638401, 32, 65556, 1638401, 32, 20, 1900545, 20, 1441811, 1835009, 24, 1376275, 1638401, 32, 1310739, 1638401, 32, 1245203, 1638401, 32, 1179667, 1638401, 32, 1114131, 1638401, 32, 1048595, 1638401, 32, 983059, 1638401, 32, 917523, 1638401, 32, 851987, 1638401, 32, 786451, 1638401, 32, 720915, 1638401, 32, 655379, 1638401, 32, 589843, 1638401, 32, 524307, 1638401, 32, 458771, 1638401, 32, 393235, 1638401, 32, 327699, 1638401, 32, 262163, 1638401, 32, 196627, 1638401, 32, 131091, 1638401, 32, 65555, 1638401, 32, 19, 1900545, 20, 1441810, 1835009, 24, 1376274, 1638401, 32, 1310738, 1638401, 32, 1245202, 1638401, 32, 1179666, 1638401, 32, 1114130, 1638401, 32, 1048594, 1638401, 32, 983058, 1638401, 32, 917522, 1638401, 32, 851986, 1638401, 32, 786450, 1638401, 32, 720914, 1638401, 32, 655378, 1638401, 32, 589842, 1638401, 32, 524306, 1638401, 32, 458770, 1638401, 32, 393234, 1638401, 32, 327698, 1638401, 32, 262162, 1638401, 32, 196626, 1638401, 32, 131090, 1638401, 32, 65554, 1638401, 32, 18, 1835009, 20, 1441809, 1835009, 24, 1376273, 1638401, 32, 1310737, 1638401, 32, 1245201, 1638401, 32, 1179665, 1638401, 32, 1114129, 1638401, 32, 1048593, 1638401, 32, 983057, 1638401, 32, 917521, 1638401, 32, 851985, 1638401, 32, 786449, 1638401, 32, 720913, 1638401, 32, 655377, 1638401, 32, 589841, 1638401, 32, 524305, 1638401, 32, 458769, 1638401, 32, 393233, 1638401, 32, 327697, 1638401, 32, 262161, 1638401, 32, 196625, 1638401, 32, 131089, 1638401, 32, 65553, 1638401, 32, 17, 1900545, 20, 1441808, 1835009, 24, 1376272, 1638401, 32, 1310736, 1638401, 32, 1245200, 1638401, 32, 1179664, 1638401, 32, 1114128, 1638401, 32, 1048592, 1638401, 32, 983056, 1638401, 32, 917520, 1638401, 32, 196624, 1638401, 32, 131088, 1638401, 32, 65552, 1638401, 32, 16, 1900545, 23, 1441807, 1835009, 24, 1376271, 1638401, 32, 1310735, 1638401, 32, 1245199, 1638401, 32, 1179663, 1638401, 32, 1114127, 1638401, 32, 1048591, 1638401, 32, 983055, 1638401, 32, 917519, 1638401, 32, 196623, 1638401, 32, 131087, 1638401, 32, 65551, 1638401, 32, 15, 1900545, 23, 1441806, 1900545, 24, 1376270, 1638401, 32, 1310734, 1638401, 32, 1245198, 1638401, 32, 1179662, 1638401, 32, 1114126, 1638401, 32, 1048590, 1638401, 32, 983054, 1638401, 32, 917518, 1638401, 32, 196622, 1638401, 32, 131086, 1638401, 32, 65550, 1638401, 32, 14, 1835009, 20, 1441805, 1900545, 21, 1376269, 1638401, 32, 1310733, 1638401, 32, 1245197, 1638401, 32, 1179661, 1638401, 32, 1114125, 1638401, 32, 1048589, 1638401, 32, 983053, 1638401, 32, 917517, 1638401, 32, 196621, 1638401, 32, 131085, 1638401, 32, 65549, 1638401, 32, 13, 1900545, 20, 1441804, 1900545, 21, 1376268, 1638401, 32, 1310732, 1638401, 32, 1245196, 1638401, 32, 1179660, 1638401, 32, 1114124, 1638401, 32, 1048588, 1638401, 32, 983052, 1638401, 32, 917516, 1638401, 32, 196620, 1638401, 32, 131084, 1638401, 32, 65548, 1638401, 32, 12, 1900545, 23, 1441803, 1900545, 24, 1376267, 1638401, 32, 1310731, 1638401, 32, 1245195, 1638401, 32, 1179659, 1638401, 32, 1114123, 1638401, 32, 1048587, 1638401, 32, 983051, 1638401, 32, 917515, 1638401, 32, 196619, 1638401, 32, 131083, 1638401, 32, 65547, 1638401, 32, 11, 1900545, 23, 1441802, 1900545, 21, 1376266, 1638401, 32, 1310730, 1638401, 32, 1245194, 1638401, 32, 1179658, 1638401, 32, 1114122, 1638401, 32, 1048586, 1638401, 32, 983050, 1638401, 32, 917514, 1638401, 32, 196618, 1638401, 32, 131082, 1638401, 32, 65546, 1638401, 32, 10, 1900545, 20, 1441801, 1966081, 24, 1376265, 1638401, 32, 1310729, 1638401, 32, 1245193, 1638401, 32, 1179657, 1638401, 32, 1114121, 1638401, 32, 1048585, 1638401, 32, 983049, 1638401, 32, 917513, 1638401, 32, 196617, 1638401, 32, 131081, 1638401, 32, 65545, 1638401, 32, 9, 1835009, 20, 1441800, 1966081, 24, 1376264, 1638401, 32, 1310728, 1638401, 32, 1245192, 1638401, 32, 1179656, 1638401, 32, 1114120, 1638401, 32, 1048584, 1638401, 32, 983048, 1638401, 32, 917512, 1638401, 32, 196616, 1638401, 32, 131080, 1638401, 32, 65544, 1638401, 32, 8, 1900545, 23, 1441799, 1900545, 21, 1376263, 1638401, 32, 1310727, 1638401, 32, 1245191, 1638401, 32, 1179655, 1638401, 32, 1114119, 1638401, 32, 1048583, 1638401, 32, 983047, 1638401, 32, 917511, 1638401, 32, 851975, 1638401, 32, 786439, 1638401, 32, 720903, 1638401, 32, 655367, 1638401, 32, 589831, 1638401, 32, 524295, 1638401, 32, 458759, 1638401, 32, 393223, 1638401, 32, 327687, 1638401, 32, 262151, 1638401, 32, 196615, 1638401, 32, 131079, 1638401, 32, 65543, 1638401, 32, 7, 1900545, 23, 1441798, 1900545, 24, 1376262, 1638401, 32, 1310726, 1638401, 32, 1245190, 1638401, 32, 1179654, 1638401, 32, 1114118, 1638401, 32, 1048582, 1638401, 32, 983046, 1638401, 32, 917510, 1638401, 32, 851974, 1638401, 32, 786438, 1638401, 32, 720902, 1638401, 32, 655366, 1638401, 32, 589830, 1638401, 32, 524294, 1638401, 32, 458758, 1638401, 32, 393222, 1638401, 32, 131078, 1638401, 32, 65542, 1638401, 32, 6, 1966081, 20, 1441797, 1900545, 21, 1376261, 1638401, 32, 1310725, 1638401, 32, 1245189, 1638401, 32, 1179653, 1638401, 32, 1114117, 1638401, 32, 1048581, 1638401, 32, 983045, 1638401, 32, 917509, 1638401, 32, 851973, 1638401, 32, 786437, 1638401, 32, 720901, 1638401, 32, 655365, 1638401, 32, 589829, 1638401, 32, 524293, 1638401, 32, 458757, 1638401, 32, 393221, 1638401, 32, 131077, 1638401, 32, 65541, 1638401, 32, 5, 1900545, 20, 1441796, 1900545, 21, 1376260, 1638401, 32, 1310724, 1638401, 32, 1245188, 1638401, 32, 1179652, 1638401, 32, 1114116, 1638401, 32, 1048580, 1638401, 32, 983044, 1638401, 32, 917508, 1638401, 32, 851972, 1638401, 32, 786436, 1638401, 32, 720900, 1638401, 32, 655364, 1638401, 32, 589828, 1638401, 32, 524292, 1638401, 32, 458756, 1638401, 32, 393220, 1638401, 32, 131076, 1638401, 32, 65540, 1638401, 32, 4, 1900545, 23, 1441795, 1835009, 24, 1376259, 1638401, 32, 1310723, 1638401, 32, 1245187, 1638401, 32, 1179651, 1638401, 32, 1114115, 1638401, 32, 1048579, 1638401, 32, 983043, 1638401, 32, 917507, 1638401, 32, 851971, 1638401, 32, 786435, 1638401, 32, 720899, 1638401, 32, 655363, 1638401, 32, 589827, 1638401, 32, 524291, 1638401, 32, 458755, 1638401, 32, 393219, 1638401, 32, 327683, 1638401, 32, 262147, 1638401, 32, 196611, 1638401, 32, 131075, 1638401, 32, 65539, 1638401, 32, 3, 1966081, 20, 1441794, 1835009, 24, 1376258, 1638401, 32, 1310722, 1638401, 32, 1245186, 1638401, 32, 1179650, 1638401, 32, 1114114, 1638401, 32, 1048578, 1638401, 32, 983042, 1638401, 32, 917506, 1638401, 32, 851970, 1638401, 32, 786434, 1638401, 32, 720898, 1638401, 32, 655362, 1638401, 32, 589826, 1638401, 32, 524290, 1638401, 32, 458754, 1638401, 32, 393218, 1638401, 32, 327682, 1638401, 32, 262146, 1638401, 32, 196610, 1638401, 32, 131074, 1638401, 32, 65538, 1638401, 32, 2, 1900545, 20, 1441793, 1900545, 24, 1376257, 1638401, 32, 1310721, 1638401, 32, 1245185, 1638401, 32, 1179649, 1638401, 32, 1114113, 1638401, 32, 1048577, 1638401, 32, 983041, 1638401, 32, 917505, 1638401, 32, 851969, 1638401, 32, 786433, 1638401, 32, 720897, 1638401, 32, 655361, 1638401, 32, 589825, 1638401, 32, 524289, 1638401, 32, 458753, 1638401, 32, 393217, 1638401, 32, 327681, 1638401, 32, 262145, 1638401, 32, 196609, 1638401, 32, 131073, 1638401, 32, 65537, 1638401, 32, 1, 1835009, 20, 1441792, 1769473, 24, 1376256, 1769473, 23, 1310720, 1769473, 21, 1245184, 1769473, 23, 1179648, 1769473, 23, 1114112, 1966081, 22, 1048576, 1966081, 22, 983040, 1966081, 22, 917504, 1769473, 23, 851968, 1769473, 22, 786432, 1769473, 22, 720896, 1966081, 22, 655360, 1966081, 22, 589824, 1769473, 21, 524288, 1966081, 22, 458752, 1966081, 22, 393216, 1769473, 21, 327680, 1769473, 23, 262144, 1769473, 22, 196608, 1769473, 21, 131072, 1769473, 21, 65536, 1769473, 21, 0, 1769473, 20, -524304, 1900545, 22, -458768, 1900545, 22, -393232, 1900545, 22, -327696, 1900545, 22, -262160, 1900545, 22, -196624, 1900545, 22, -131088, 1900545, 22, -65552, 1900545, 22, -16, 1900545, 22, 65520, 1900545, 22, 131056, 1900545, 22, 196592, 1900545, 22, 262128, 1900545, 22, 327664, 1900545, 22, 393200, 1900545, 22, 458736, 1900545, 22, 524272, 1900545, 22, 589808, 1900545, 22, 655344, 1900545, 22, 720880, 1900545, 22, 786416, 1900545, 22, 851952, 1900545, 22, 917488, 1900545, 22, 983024, 1900545, 22, 1048560, 1900545, 22, 1114096, 1900545, 22, 1179632, 1900545, 22, 1245168, 1900545, 22, 1310704, 1900545, 22, 1376240, 1900545, 22, 1441776, 1900545, 22, 1507312, 1900545, 22, 1572848, 1900545, 22, 1638384, 1900545, 22, 1703920, 1900545, 22, 1769456, 1900545, 22, 1834992, 1900545, 22, 1900528, 1900545, 22, -524303, 1900545, 22, -458767, 1900545, 22, -393231, 1900545, 22, -327695, 1900545, 22, -262159, 1900545, 22, -196623, 1900545, 22, -131087, 1900545, 22, -65551, 1900545, 22, -15, 1900545, 22, 65521, 1900545, 22, 131057, 1900545, 22, 196593, 1900545, 22, 262129, 1900545, 22, 327665, 1900545, 22, 393201, 1900545, 22, 458737, 1900545, 22, 524273, 1900545, 22, 589809, 1900545, 22, 655345, 1900545, 22, 720881, 1900545, 22, 786417, 1900545, 22, 851953, 1900545, 22, 917489, 1900545, 22, 983025, 1900545, 22, 1048561, 1900545, 22, 1114097, 1900545, 22, 1179633, 1900545, 22, 1245169, 1900545, 22, 1310705, 1900545, 22, 1376241, 1900545, 22, 1441777, 1900545, 22, 1507313, 1900545, 22, 1572849, 1900545, 22, 1638385, 1900545, 22, 1703921, 1900545, 22, 1769457, 1900545, 22, 1834993, 1900545, 22, 1900529, 1900545, 22, -524302, 1900545, 22, -458766, 1900545, 22, -393230, 1900545, 22, -327694, 1900545, 22, -262158, 1900545, 22, -196622, 1900545, 22, -131086, 1900545, 22, -65550, 1900545, 22, -14, 1900545, 22, 65522, 1900545, 22, 131058, 1900545, 22, 196594, 1900545, 22, 262130, 1900545, 22, 327666, 1900545, 22, 393202, 1900545, 22, 458738, 1900545, 22, 524274, 1900545, 22, 589810, 1900545, 22, 655346, 1900545, 22, 720882, 1900545, 22, 786418, 1900545, 22, 851954, 1900545, 22, 917490, 1900545, 22, 983026, 1900545, 22, 1048562, 1900545, 22, 1114098, 1900545, 22, 1179634, 1900545, 22, 1245170, 1900545, 22, 1310706, 1900545, 22, 1376242, 1900545, 22, 1441778, 1900545, 22, 1507314, 1900545, 22, 1572850, 1900545, 22, 1638386, 1900545, 22, 1703922, 1900545, 22, 1769458, 1900545, 22, 1834994, 1900545, 22, 1900530, 1900545, 22, -524301, 1900545, 22, -458765, 1900545, 22, -393229, 1900545, 22, -327693, 1900545, 22, -262157, 1900545, 22, -196621, 1900545, 22, -131085, 1900545, 22, -65549, 1900545, 22, -13, 1900545, 22, 65523, 1900545, 22, 131059, 1900545, 22, 196595, 1900545, 22, 262131, 1900545, 22, 327667, 1900545, 22, 393203, 1900545, 22, 458739, 1900545, 22, 524275, 1900545, 22, 589811, 1900545, 22, 655347, 1900545, 22, 720883, 1900545, 22, 786419, 1900545, 22, 851955, 1900545, 22, 917491, 1900545, 22, 983027, 1900545, 22, 1048563, 1900545, 22, 1114099, 1900545, 22, 1179635, 1900545, 22, 1245171, 1900545, 22, 1310707, 1900545, 22, 1376243, 1900545, 22, 1441779, 1900545, 22, 1507315, 1900545, 22, 1572851, 1900545, 22, 1638387, 1900545, 22, 1703923, 1900545, 22, 1769459, 1900545, 22, 1834995, 1900545, 22, 1900531, 1900545, 22, -524300, 1900545, 22, -458764, 1900545, 22, -393228, 1900545, 22, -327692, 1900545, 22, -262156, 1900545, 22, -196620, 1900545, 22, -131084, 1900545, 22, -65548, 1900545, 22, -12, 1900545, 22, 65524, 1900545, 22, 131060, 1900545, 22, 196596, 1900545, 22, 262132, 1900545, 22, 327668, 1900545, 22, 393204, 1900545, 22, 458740, 1900545, 22, 524276, 1900545, 22, 589812, 1900545, 22, 655348, 1900545, 22, 720884, 1900545, 22, 786420, 1900545, 22, 851956, 1900545, 22, 917492, 1900545, 22, 983028, 1900545, 22, 1048564, 1900545, 22, 1114100, 1900545, 22, 1179636, 1900545, 22, 1245172, 1900545, 22, 1310708, 1900545, 22, 1376244, 1900545, 22, 1441780, 1900545, 22, 1507316, 1900545, 22, 1572852, 1900545, 22, 1638388, 1900545, 22, 1703924, 1900545, 22, 1769460, 1900545, 22, 1834996, 1900545, 22, 1900532, 1900545, 22, -524299, 1900545, 22, -458763, 1900545, 22, -393227, 1900545, 22, -327691, 1900545, 22, -262155, 1900545, 22, -196619, 1900545, 22, -131083, 1900545, 22, -65547, 1900545, 22, -11, 1900545, 22, 65525, 1900545, 22, 131061, 1900545, 22, 196597, 1900545, 22, 262133, 1900545, 22, 327669, 1900545, 22, 393205, 1900545, 22, 458741, 1900545, 22, 524277, 1900545, 22, 589813, 1900545, 22, 655349, 1900545, 22, 720885, 1900545, 22, 786421, 1900545, 22, 851957, 1900545, 22, 917493, 1900545, 22, 983029, 1900545, 22, 1048565, 1900545, 22, 1114101, 1900545, 22, 1179637, 1900545, 22, 1245173, 1900545, 22, 1310709, 1900545, 22, 1376245, 1900545, 22, 1441781, 1900545, 22, 1507317, 1900545, 22, 1572853, 1900545, 22, 1638389, 1900545, 22, 1703925, 1900545, 22, 1769461, 1900545, 22, 1834997, 1900545, 22, 1900533, 1900545, 22, -524298, 1900545, 22, -458762, 1900545, 22, -393226, 1900545, 22, -327690, 1900545, 22, -262154, 1900545, 22, -196618, 1900545, 22, -131082, 1900545, 22, -65546, 1900545, 22, -10, 1900545, 22, 65526, 1900545, 22, 131062, 1900545, 22, 196598, 1900545, 22, 262134, 1900545, 22, 327670, 1900545, 22, 393206, 1900545, 22, 458742, 1900545, 22, 524278, 1900545, 22, 589814, 1900545, 22, 655350, 1900545, 22, 720886, 1900545, 22, 786422, 1900545, 22, 851958, 1900545, 22, 917494, 1900545, 22, 983030, 1900545, 22, 1048566, 1900545, 22, 1114102, 1900545, 22, 1179638, 1900545, 22, 1245174, 1900545, 22, 1310710, 1900545, 22, 1376246, 1900545, 22, 1441782, 1900545, 22, 1507318, 1900545, 22, 1572854, 1900545, 22, 1638390, 1900545, 22, 1703926, 1900545, 22, 1769462, 1900545, 22, 1834998, 1900545, 22, 1900534, 1900545, 22, -524297, 1900545, 22, -458761, 1900545, 22, -393225, 1900545, 22, -327689, 1900545, 22, -262153, 1900545, 22, -196617, 1900545, 22, -131081, 1900545, 22, -65545, 1900545, 22, -9, 1900545, 22, 65527, 1900545, 22, 131063, 1900545, 22, 196599, 1900545, 22, 262135, 1900545, 22, 327671, 1900545, 22, 393207, 1900545, 22, 458743, 1900545, 22, 524279, 1900545, 22, 589815, 1900545, 22, 655351, 1900545, 22, 720887, 1900545, 22, 786423, 1900545, 22, 851959, 1900545, 22, 917495, 1900545, 22, 983031, 1900545, 22, 1048567, 1900545, 22, 1114103, 1900545, 22, 1179639, 1900545, 22, 1245175, 1900545, 22, 1310711, 1900545, 22, 1376247, 1900545, 22, 1441783, 1900545, 22, 1507319, 1900545, 22, 1572855, 1900545, 22, 1638391, 1900545, 22, 1703927, 1900545, 22, 1769463, 1900545, 22, 1834999, 1900545, 22, 1900535, 1900545, 22, -524296, 1900545, 22, -458760, 1900545, 22, -393224, 1900545, 22, -327688, 1900545, 22, -262152, 1900545, 22, -196616, 1900545, 22, -131080, 1900545, 22, -65544, 1900545, 22, -8, 1900545, 22, 65528, 1900545, 22, 131064, 1900545, 22, 196600, 1900545, 22, 262136, 1900545, 22, 327672, 1900545, 22, 393208, 1900545, 22, 458744, 1900545, 22, 524280, 1900545, 22, 589816, 1900545, 22, 655352, 1900545, 22, 720888, 1900545, 22, 786424, 1900545, 22, 851960, 1900545, 22, 917496, 1900545, 22, 983032, 1900545, 22, 1048568, 1900545, 22, 1114104, 1900545, 22, 1179640, 1900545, 22, 1245176, 1900545, 22, 1310712, 1900545, 22, 1376248, 1900545, 22, 1441784, 1900545, 22, 1507320, 1900545, 22, 1572856, 1900545, 22, 1638392, 1900545, 22, 1703928, 1900545, 22, 1769464, 1900545, 22, 1835000, 1900545, 22, 1900536, 1900545, 22, -524295, 1900545, 22, -458759, 1900545, 22, -393223, 1900545, 22, -327687, 1900545, 22, -262151, 1900545, 22, -196615, 1900545, 22, -131079, 1900545, 22, -65543, 1900545, 22, -7, 1900545, 22, 65529, 1900545, 22, 131065, 1900545, 22, 196601, 1900545, 22, 262137, 1900545, 22, 327673, 1900545, 22, 393209, 1900545, 22, 458745, 1900545, 22, 524281, 1900545, 22, 589817, 1900545, 22, 655353, 1900545, 22, 720889, 1900545, 22, 786425, 1900545, 22, 851961, 1900545, 22, 917497, 1900545, 22, 983033, 1900545, 22, 1048569, 1900545, 22, 1114105, 1900545, 22, 1179641, 1900545, 22, 1245177, 1900545, 22, 1310713, 1900545, 22, 1376249, 1900545, 22, 1441785, 1900545, 22, 1507321, 1900545, 22, 1572857, 1900545, 22, 1638393, 1900545, 22, 1703929, 1900545, 22, 1769465, 1900545, 22, 1835001, 1900545, 22, 1900537, 1900545, 22, -524294, 1900545, 22, -458758, 1900545, 22, -393222, 1900545, 22, -327686, 1900545, 22, -262150, 1900545, 22, -196614, 1900545, 22, -131078, 1900545, 22, -65542, 1900545, 22, -6, 1900545, 22, 65530, 1900545, 22, 131066, 1900545, 22, 196602, 1900545, 22, 262138, 1900545, 22, 327674, 1900545, 22, 393210, 1900545, 22, 458746, 1900545, 22, 524282, 1900545, 22, 589818, 1900545, 22, 655354, 1900545, 22, 720890, 1900545, 22, 786426, 1900545, 22, 851962, 1900545, 22, 917498, 1900545, 22, 983034, 1900545, 22, 1048570, 1900545, 22, 1114106, 1900545, 22, 1179642, 1900545, 22, 1245178, 1900545, 22, 1310714, 1900545, 22, 1376250, 1900545, 22, 1441786, 1900545, 22, 1507322, 1900545, 22, 1572858, 1900545, 22, 1638394, 1900545, 22, 1703930, 1900545, 22, 1769466, 1900545, 22, 1835002, 1900545, 22, 1900538, 1900545, 22, -524293, 1900545, 22, -458757, 1900545, 22, -393221, 1900545, 22, -327685, 1900545, 22, -262149, 1900545, 22, -196613, 1900545, 22, -131077, 1900545, 22, -65541, 1900545, 22, -5, 1900545, 22, 65531, 1900545, 22, 131067, 1900545, 22, 196603, 1900545, 22, 262139, 1900545, 22, 327675, 1900545, 22, 393211, 1900545, 22, 458747, 1900545, 22, 524283, 1900545, 22, 589819, 1900545, 22, 655355, 1900545, 22, 720891, 1900545, 22, 786427, 1900545, 22, 851963, 1900545, 22, 917499, 1900545, 22, 983035, 1900545, 22, 1048571, 1900545, 22, 1114107, 1900545, 22, 1179643, 1900545, 22, 1245179, 1900545, 22, 1310715, 1900545, 22, 1376251, 1900545, 22, 1441787, 1900545, 22, 1507323, 1900545, 22, 1572859, 1900545, 22, 1638395, 1900545, 22, 1703931, 1900545, 22, 1769467, 1900545, 22, 1835003, 1900545, 22, 1900539, 1900545, 22, -524292, 1900545, 22, -458756, 1900545, 22, -393220, 1900545, 22, -327684, 1900545, 22, -262148, 1900545, 22, -196612, 1900545, 22, -131076, 1900545, 22, -65540, 1900545, 22, -4, 1900545, 22, 65532, 1900545, 22, 131068, 1900545, 22, 196604, 1900545, 22, 262140, 1900545, 22, 327676, 1900545, 22, 393212, 1900545, 22, 458748, 1900545, 22, 524284, 1900545, 22, 589820, 1900545, 22, 655356, 1900545, 22, 720892, 1900545, 22, 786428, 1900545, 22, 851964, 1900545, 22, 917500, 1900545, 22, 983036, 1900545, 22, 1048572, 1900545, 22, 1114108, 1900545, 22, 1179644, 1900545, 22, 1245180, 1900545, 22, 1310716, 1900545, 22, 1376252, 1900545, 22, 1441788, 1900545, 22, 1507324, 1900545, 22, 1572860, 1900545, 22, 1638396, 1900545, 22, 1703932, 1900545, 22, 1769468, 1900545, 22, 1835004, 1900545, 22, 1900540, 1900545, 22, -524291, 1900545, 22, -458755, 1900545, 22, -393219, 1900545, 22, -327683, 1900545, 22, -262147, 1900545, 22, -196611, 1900545, 22, -131075, 1900545, 22, -65539, 1900545, 22, -3, 1900545, 22, 65533, 1900545, 22, 131069, 1900545, 22, 196605, 1900545, 22, 262141, 1900545, 22, 327677, 1900545, 22, 393213, 1900545, 22, 458749, 1900545, 22, 524285, 1900545, 22, 589821, 1900545, 22, 655357, 1900545, 22, 720893, 1900545, 22, 786429, 1900545, 22, 851965, 1900545, 22, 917501, 1900545, 22, 983037, 1900545, 22, 1048573, 1900545, 22, 1114109, 1900545, 22, 1179645, 1900545, 22, 1245181, 1900545, 22, 1310717, 1900545, 22, 1376253, 1900545, 22, 1441789, 1900545, 22, 1507325, 1900545, 22, 1572861, 1900545, 22, 1638397, 1900545, 22, 1703933, 1900545, 22, 1769469, 1900545, 22, 1835005, 1900545, 22, 1900541, 1900545, 22, -524290, 1900545, 22, -458754, 1900545, 22, -393218, 1900545, 22, -327682, 1900545, 22, -262146, 1900545, 22, -196610, 1900545, 22, -131074, 1900545, 22, -65538, 1900545, 22, -2, 1900545, 22, 65534, 1900545, 22, 131070, 1900545, 22, 196606, 1900545, 22, 262142, 1900545, 22, 327678, 1900545, 22, 393214, 1900545, 22, 458750, 1900545, 22, 524286, 1900545, 22, 589822, 1900545, 22, 655358, 1900545, 22, 720894, 1900545, 22, 786430, 1900545, 22, 851966, 1900545, 22, 917502, 1900545, 22, 983038, 1900545, 22, 1048574, 1900545, 22, 1114110, 1900545, 22, 1179646, 1900545, 22, 1245182, 1900545, 22, 1310718, 1900545, 22, 1376254, 1900545, 22, 1441790, 1900545, 22, 1507326, 1900545, 22, 1572862, 1900545, 22, 1638398, 1900545, 22, 1703934, 1900545, 22, 1769470, 1900545, 22, 1835006, 1900545, 22, 1900542, 1900545, 22, -524289, 1900545, 22, -458753, 1900545, 22, -393217, 1900545, 22, -327681, 1900545, 22, -262145, 1900545, 22, -196609, 1900545, 22, -131073, 1900545, 22, -65537, 1900545, 22, -1, 1900545, 22, 65535, 1900545, 22, 131071, 1900545, 22, 196607, 1900545, 22, 262143, 1900545, 22, 327679, 1900545, 22, 393215, 1900545, 22, 458751, 1900545, 22, 524287, 1900545, 22, 589823, 1900545, 22, 655359, 1900545, 22, 720895, 1900545, 22, 786431, 1900545, 22, 851967, 1900545, 22, 917503, 1900545, 22, 983039, 1900545, 22, 1048575, 1900545, 22, 1114111, 1900545, 22, 1179647, 1900545, 22, 1245183, 1900545, 22, 1310719, 1900545, 22, 1376255, 1900545, 22, 1441791, 1900545, 22, 1507327, 1900545, 22, 1572863, 1900545, 22, 1638399, 1900545, 22, 1703935, 1900545, 22, 1769471, 1900545, 22, 1835007, 1900545, 22, 1900543, 1900545, 22, -589824, 1900545, 22, -524288, 1900545, 22, -458752, 1900545, 22, -393216, 1900545, 22, -327680, 1900545, 22, -262144, 1900545, 22, -196608, 1900545, 22, -131072, 1900545, 22, -65536, 1900545, 22, -589823, 1900545, 22, -524287, 1900545, 22, -458751, 1900545, 22, -393215, 1900545, 22, -327679, 1900545, 22, -262143, 1900545, 22, -196607, 1900545, 22, -131071, 1900545, 22, -65535, 1900545, 22, -589822, 1900545, 22, -524286, 1900545, 22, -458750, 1900545, 22, -393214, 1900545, 22, -327678, 1900545, 22, -262142, 1900545, 22, -196606, 1900545, 22, -131070, 1900545, 22, -65534, 1900545, 22, -589821, 1900545, 22, -524285, 1900545, 22, -458749, 1900545, 22, -393213, 1900545, 22, -327677, 1900545, 22, -262141, 1900545, 22, -196605, 1900545, 22, -131069, 1900545, 22, -65533, 1900545, 22, -589820, 1900545, 22, -524284, 1900545, 22, -458748, 1900545, 22, -393212, 1900545, 22, -327676, 1900545, 22, -262140, 1900545, 22, -196604, 1900545, 22, -131068, 1900545, 22, -65532, 1900545, 22, -589819, 1900545, 22, -524283, 1900545, 22, -458747, 1900545, 22, -393211, 1900545, 22, -327675, 1900545, 22, -262139, 1900545, 22, -196603, 1900545, 22, -131067, 1900545, 22, -65531, 1900545, 22, -589818, 1900545, 22, -524282, 1900545, 22, -458746, 1900545, 22, -393210, 1900545, 22, -327674, 1900545, 22, -262138, 1900545, 22, -196602, 1900545, 22, -131066, 1900545, 22, -65530, 1900545, 22, -589817, 1900545, 22, -524281, 1900545, 22, -458745, 1900545, 22, -393209, 1900545, 22, -327673, 1900545, 22, -262137, 1900545, 22, -196601, 1900545, 22, -131065, 1900545, 22, -65529, 1900545, 22, -589816, 1900545, 22, -524280, 1900545, 22, -458744, 1900545, 22, -393208, 1900545, 22, -327672, 1900545, 22, -262136, 1900545, 22, -196600, 1900545, 22, -131064, 1900545, 22, -65528, 1900545, 22, -589815, 1900545, 22, -524279, 1900545, 22, -458743, 1900545, 22, -393207, 1900545, 22, -327671, 1900545, 22, -262135, 1900545, 22, -196599, 1900545, 22, -131063, 1900545, 22, -65527, 1900545, 22, -589814, 1900545, 22, -524278, 1900545, 22, -458742, 1900545, 22, -393206, 1900545, 22, -327670, 1900545, 22, -262134, 1900545, 22, -196598, 1900545, 22, -131062, 1900545, 22, -65526, 1900545, 22, -589813, 1900545, 22, -524277, 1900545, 22, -458741, 1900545, 22, -393205, 1900545, 22, -327669, 1900545, 22, -262133, 1900545, 22, -196597, 1900545, 22, -131061, 1900545, 22, -65525, 1900545, 22, -589812, 1900545, 22, -524276, 1900545, 22, -458740, 1900545, 22, -393204, 1900545, 22, -327668, 1900545, 22, -262132, 1900545, 22, -196596, 1900545, 22, -131060, 1900545, 22, -65524, 1900545, 22, -589811, 1900545, 22, -524275, 1900545, 22, -458739, 1900545, 22, -393203, 1900545, 22, -327667, 1900545, 22, -262131, 1900545, 22, -196595, 1900545, 22, -131059, 1900545, 22, -65523, 1900545, 22, -589810, 1900545, 22, -524274, 1900545, 22, -458738, 1900545, 22, -393202, 1900545, 22, -327666, 1900545, 22, -262130, 1900545, 22, -196594, 1900545, 22, -131058, 1900545, 22, -65522, 1900545, 22, -589809, 1900545, 22, -524273, 1900545, 22, -458737, 1900545, 22, -393201, 1900545, 22, -327665, 1900545, 22, -262129, 1900545, 22, -196593, 1900545, 22, -131057, 1900545, 22, -65521, 1900545, 22, -589808, 1900545, 22, -524272, 1900545, 22, -458736, 1900545, 22, -393200, 1900545, 22, -327664, 1900545, 22, -262128, 1900545, 22, -196592, 1900545, 22, -131056, 1900545, 22, -65520, 1900545, 22, -589807, 1900545, 22, -524271, 1900545, 22, -458735, 1900545, 22, -393199, 1900545, 22, -327663, 1900545, 22, -262127, 1900545, 22, -196591, 1900545, 22, -131055, 1900545, 22, -65519, 1900545, 22, -589806, 1900545, 22, -524270, 1900545, 22, -458734, 1900545, 22, -393198, 1900545, 22, -327662, 1900545, 22, -262126, 1900545, 22, -196590, 1900545, 22, -131054, 1900545, 22, -65518, 1900545, 22, -589805, 1900545, 22, -524269, 1900545, 22, -458733, 1900545, 22, -393197, 1900545, 22, -327661, 1900545, 22, -262125, 1900545, 22, -196589, 1900545, 22, -131053, 1900545, 22, -65517, 1900545, 22, -589804, 1900545, 22, -524268, 1900545, 22, -458732, 1900545, 22, -393196, 1900545, 22, -327660, 1900545, 22, -262124, 1900545, 22, -196588, 1900545, 22, -131052, 1900545, 22, -65516, 1900545, 22, -589803, 1900545, 22, -524267, 1900545, 22, -458731, 1900545, 22, -393195, 1900545, 22, -327659, 1900545, 22, -262123, 1900545, 22, -196587, 1900545, 22, -131051, 1900545, 22, -65515, 1900545, 22, -589802, 1900545, 22, -524266, 1900545, 22, -458730, 1900545, 22, -393194, 1900545, 22, -327658, 1900545, 22, -262122, 1900545, 22, -196586, 1900545, 22, -131050, 1900545, 22, -65514, 1900545, 22, -589801, 1900545, 22, -524265, 1900545, 22, -458729, 1900545, 22, -393193, 1900545, 22, -327657, 1900545, 22, -262121, 1900545, 22, -196585, 1900545, 22, -131049, 1900545, 22, -65513, 1900545, 22, -589800, 1900545, 22, -524264, 1900545, 22, -458728, 1900545, 22, -393192, 1900545, 22, -327656, 1900545, 22, -262120, 1900545, 22, -196584, 1900545, 22, -131048, 1900545, 22, -65512, 1900545, 22, -589799, 1900545, 22, -524263, 1900545, 22, -458727, 1900545, 22, -393191, 1900545, 22, -327655, 1900545, 22, -262119, 1900545, 22, -196583, 1900545, 22, -131047, 1900545, 22, -65511, 1900545, 22, -589798, 1900545, 22, -524262, 1900545, 22, -458726, 1900545, 22, -393190, 1900545, 22, -327654, 1900545, 22, -262118, 1900545, 22, -196582, 1900545, 22, -131046, 1900545, 22, -65510, 1900545, 22, -589797, 1900545, 22, -524261, 1900545, 22, -458725, 1900545, 22, -393189, 1900545, 22, -327653, 1900545, 22, -262117, 1900545, 22, -196581, 1900545, 22, -131045, 1900545, 22, -65509, 1900545, 22, -589796, 1900545, 22, -524260, 1900545, 22, -458724, 1900545, 22, -393188, 1900545, 22, -327652, 1900545, 22, -262116, 1900545, 22, -196580, 1900545, 22, -131044, 1900545, 22, -65508, 1900545, 22, -589795, 1900545, 22, -524259, 1900545, 22, -458723, 1900545, 22, -393187, 1900545, 22, -327651, 1900545, 22, -262115, 1900545, 22, -196579, 1900545, 22, -131043, 1900545, 22, -65507, 1900545, 22, -589794, 1900545, 22, -524258, 1900545, 22, -458722, 1900545, 22, -393186, 1900545, 22, -327650, 1900545, 22, -262114, 1900545, 22, -196578, 1900545, 22, -131042, 1900545, 22, -65506, 1900545, 22, -589793, 1900545, 22, -524257, 1900545, 22, -458721, 1900545, 22, -393185, 1900545, 22, -327649, 1900545, 22, -262113, 1900545, 22, -196577, 1900545, 22, -131041, 1900545, 22, -65505, 1900545, 22, -589792, 1900545, 22, -524256, 1900545, 22, -458720, 1900545, 22, -393184, 1900545, 22, -327648, 1900545, 22, -262112, 1900545, 22, -196576, 1900545, 22, -131040, 1900545, 22, -65504, 1900545, 22, -589791, 1900545, 22, -524255, 1900545, 22, -458719, 1900545, 22, -393183, 1900545, 22, -327647, 1900545, 22, -262111, 1900545, 22, -196575, 1900545, 22, -131039, 1900545, 22, -65503, 1900545, 22, -589790, 1900545, 22, -524254, 1900545, 22, -458718, 1900545, 22, -393182, 1900545, 22, -327646, 1900545, 22, -262110, 1900545, 22, -196574, 1900545, 22, -131038, 1900545, 22, -65502, 1900545, 22, -589789, 1900545, 22, -524253, 1900545, 22, -458717, 1900545, 22, -393181, 1900545, 22, -327645, 1900545, 22, -262109, 1900545, 22, -196573, 1900545, 22, -131037, 1900545, 22, -65501, 1900545, 22, -589788, 1900545, 22, -524252, 1900545, 22, -458716, 1900545, 22, -393180, 1900545, 22, -327644, 1900545, 22, -262108, 1900545, 22, -196572, 1900545, 22, -131036, 1900545, 22, -65500, 1900545, 22, -589787, 1900545, 22, -524251, 1900545, 22, -458715, 1900545, 22, -393179, 1900545, 22, -327643, 1900545, 22, -262107, 1900545, 22, -196571, 1900545, 22, -131035, 1900545, 22, -65499, 1900545, 22, -589786, 1900545, 22, -524250, 1900545, 22, -458714, 1900545, 22, -393178, 1900545, 22, -327642, 1900545, 22, -262106, 1900545, 22, -196570, 1900545, 22, -131034, 1900545, 22, -65498, 1900545, 22, -589785, 1900545, 22, -524249, 1900545, 22, -458713, 1900545, 22, -393177, 1900545, 22, -327641, 1900545, 22, -262105, 1900545, 22, -196569, 1900545, 22, -131033, 1900545, 22, -65497, 1900545, 22, -589784, 1900545, 22, -524248, 1900545, 22, -458712, 1900545, 22, -393176, 1900545, 22, -327640, 1900545, 22, -262104, 1900545, 22, -196568, 1900545, 22, -131032, 1900545, 22, -65496, 1900545, 22, -589783, 1900545, 22, -524247, 1900545, 22, -458711, 1900545, 22, -393175, 1900545, 22, -327639, 1900545, 22, -262103, 1900545, 22, -196567, 1900545, 22, -131031, 1900545, 22, -65495, 1900545, 22, -589782, 1900545, 22, -524246, 1900545, 22, -458710, 1900545, 22, -393174, 1900545, 22, -327638, 1900545, 22, -262102, 1900545, 22, -196566, 1900545, 22, -131030, 1900545, 22, -65494, 1900545, 22, -589781, 1900545, 22, -524245, 1900545, 22, -458709, 1900545, 22, -393173, 1900545, 22, -327637, 1900545, 22, -262101, 1900545, 22, -196565, 1900545, 22, -131029, 1900545, 22, -65493, 1900545, 22, -589780, 1900545, 22, -524244, 1900545, 22, -458708, 1900545, 22, -393172, 1900545, 22, -327636, 1900545, 22, -262100, 1900545, 22, -196564, 1900545, 22, -131028, 1900545, 22, -65492, 1900545, 22, -589779, 1900545, 22, -524243, 1900545, 22, -458707, 1900545, 22, -393171, 1900545, 22, -327635, 1900545, 22, -262099, 1900545, 22, -196563, 1900545, 22, -131027, 1900545, 22, -65491, 1900545, 22, -589778, 1900545, 22, -524242, 1900545, 22, -458706, 1900545, 22, -393170, 1900545, 22, -327634, 1900545, 22, -262098, 1900545, 22, -196562, 1900545, 22, -131026, 1900545, 22, -65490, 1900545, 22, -589777, 1900545, 22, -524241, 1900545, 22, -458705, 1900545, 22, -393169, 1900545, 22, -327633, 1900545, 22, -262097, 1900545, 22, -196561, 1900545, 22, -131025, 1900545, 22, -65489, 1900545, 22, -589776, 1900545, 22, -524240, 1900545, 22, -458704, 1900545, 22, -393168, 1900545, 22, -327632, 1900545, 22, -262096, 1900545, 22, -196560, 1900545, 22, -131024, 1900545, 22, -65488, 1900545, 22, -589775, 1900545, 22, -524239, 1900545, 22, -458703, 1900545, 22, -393167, 1900545, 22, -327631, 1900545, 22, -262095, 1900545, 22, -196559, 1900545, 22, -131023, 1900545, 22, -65487, 1900545, 22, -589774, 1900545, 22, -524238, 1900545, 22, -458702, 1900545, 22, -393166, 1900545, 22, -327630, 1900545, 22, -262094, 1900545, 22, -196558, 1900545, 22, -131022, 1900545, 22, -65486, 1900545, 22, 40, 1900545, 22, 65576, 1900545, 22, 131112, 1900545, 22, 196648, 1900545, 22, 262184, 1900545, 22, 327720, 1900545, 22, 393256, 1900545, 22, 458792, 1900545, 22, 524328, 1900545, 22, 589864, 1900545, 22, 655400, 1900545, 22, 720936, 1900545, 22, 786472, 1900545, 22, 852008, 1900545, 22, 917544, 1900545, 22, 983080, 1900545, 22, 1048616, 1900545, 22, 1114152, 1900545, 22, 1179688, 1900545, 22, 1245224, 1900545, 22, 1310760, 1900545, 22, 1376296, 1900545, 22, 1441832, 1900545, 22, 1507368, 1900545, 22, 1572904, 1900545, 22, 1638440, 1900545, 22, 1703976, 1900545, 22, 1769512, 1900545, 22, 1835048, 1900545, 22, 1900584, 1900545, 22, 1966120, 1900545, 22, 2031656, 1900545, 22, 41, 1900545, 22, 65577, 1900545, 22, 131113, 1900545, 22, 196649, 1900545, 22, 262185, 1900545, 22, 327721, 1900545, 22, 393257, 1900545, 22, 458793, 1900545, 22, 524329, 1900545, 22, 589865, 1900545, 22, 655401, 1900545, 22, 720937, 1900545, 22, 786473, 1900545, 22, 852009, 1900545, 22, 917545, 1900545, 22, 983081, 1900545, 22, 1048617, 1900545, 22, 1114153, 1900545, 22, 1179689, 1900545, 22, 1245225, 1900545, 22, 1310761, 1900545, 22, 1376297, 1900545, 22, 1441833, 1900545, 22, 1507369, 1900545, 22, 1572905, 1900545, 22, 1638441, 1900545, 22, 1703977, 1900545, 22, 1769513, 1900545, 22, 1835049, 1900545, 22, 1900585, 1900545, 22, 1966121, 1900545, 22, 2031657, 1900545, 22, 42, 1900545, 22, 65578, 1900545, 22, 131114, 1900545, 22, 196650, 1900545, 22, 262186, 1900545, 22, 327722, 1900545, 22, 393258, 1900545, 22, 458794, 1900545, 22, 524330, 1900545, 22, 589866, 1900545, 22, 655402, 1900545, 22, 720938, 1900545, 22, 786474, 1900545, 22, 852010, 1900545, 22, 917546, 1900545, 22, 983082, 1900545, 22, 1048618, 1900545, 22, 1114154, 1900545, 22, 1179690, 1900545, 22, 1245226, 1900545, 22, 1310762, 1900545, 22, 1376298, 1900545, 22, 1441834, 1900545, 22, 1507370, 1900545, 22, 1572906, 1900545, 22, 1638442, 1900545, 22, 1703978, 1900545, 22, 1769514, 1900545, 22, 1835050, 1900545, 22, 1900586, 1900545, 22, 1966122, 1900545, 22, 2031658, 1900545, 22, 43, 1900545, 22, 65579, 1900545, 22, 131115, 1900545, 22, 196651, 1900545, 22, 262187, 1900545, 22, 327723, 1900545, 22, 393259, 1900545, 22, 458795, 1900545, 22, 524331, 1900545, 22, 589867, 1900545, 22, 655403, 1900545, 22, 720939, 1900545, 22, 786475, 1900545, 22, 852011, 1900545, 22, 917547, 1900545, 22, 983083, 1900545, 22, 1048619, 1900545, 22, 1114155, 1900545, 22, 1179691, 1900545, 22, 1245227, 1900545, 22, 1310763, 1900545, 22, 1376299, 1900545, 22, 1441835, 1900545, 22, 1507371, 1900545, 22, 1572907, 1900545, 22, 1638443, 1900545, 22, 1703979, 1900545, 22, 1769515, 1900545, 22, 1835051, 1900545, 22, 1900587, 1900545, 22, 1966123, 1900545, 22, 2031659, 1900545, 22, 44, 1900545, 22, 65580, 1900545, 22, 131116, 1900545, 22, 196652, 1900545, 22, 262188, 1900545, 22, 327724, 1900545, 22, 393260, 1900545, 22, 458796, 1900545, 22, 524332, 1900545, 22, 589868, 1900545, 22, 655404, 1900545, 22, 720940, 1900545, 22, 786476, 1900545, 22, 852012, 1900545, 22, 917548, 1900545, 22, 983084, 1900545, 22, 1048620, 1900545, 22, 1114156, 1900545, 22, 1179692, 1900545, 22, 1245228, 1900545, 22, 1310764, 1900545, 22, 1376300, 1900545, 22, 1441836, 1900545, 22, 1507372, 1900545, 22, 1572908, 1900545, 22, 1638444, 1900545, 22, 1703980, 1900545, 22, 1769516, 1900545, 22, 1835052, 1900545, 22, 1900588, 1900545, 22, 1966124, 1900545, 22, 2031660, 1900545, 22, 45, 1900545, 22, 65581, 1900545, 22, 131117, 1900545, 22, 196653, 1900545, 22, 262189, 1900545, 22, 327725, 1900545, 22, 393261, 1900545, 22, 458797, 1900545, 22, 524333, 1900545, 22, 589869, 1900545, 22, 655405, 1900545, 22, 720941, 1900545, 22, 786477, 1900545, 22, 852013, 1900545, 22, 917549, 1900545, 22, 983085, 1900545, 22, 1048621, 1900545, 22, 1114157, 1900545, 22, 1179693, 1900545, 22, 1245229, 1900545, 22, 1310765, 1900545, 22, 1376301, 1900545, 22, 1441837, 1900545, 22, 1507373, 1900545, 22, 1572909, 1900545, 22, 1638445, 1900545, 22, 1703981, 1900545, 22, 1769517, 1900545, 22, 1835053, 1900545, 22, 1900589, 1900545, 22, 1966125, 1900545, 22, 2031661, 1900545, 22, 46, 1900545, 22, 65582, 1900545, 22, 131118, 1900545, 22, 196654, 1900545, 22, 262190, 1900545, 22, 327726, 1900545, 22, 393262, 1900545, 22, 458798, 1900545, 22, 524334, 1900545, 22, 589870, 1900545, 22, 655406, 1900545, 22, 720942, 1900545, 22, 786478, 1900545, 22, 852014, 1900545, 22, 917550, 1900545, 22, 983086, 1900545, 22, 1048622, 1900545, 22, 1114158, 1900545, 22, 1179694, 1900545, 22, 1245230, 1900545, 22, 1310766, 1900545, 22, 1376302, 1900545, 22, 1441838, 1900545, 22, 1507374, 1900545, 22, 1572910, 1900545, 22, 1638446, 1900545, 22, 1703982, 1900545, 22, 1769518, 1900545, 22, 1835054, 1900545, 22, 1900590, 1900545, 22, 1966126, 1900545, 22, 2031662, 1900545, 22, 47, 1900545, 22, 65583, 1900545, 22, 131119, 1900545, 22, 196655, 1900545, 22, 262191, 1900545, 22, 327727, 1900545, 22, 393263, 1900545, 22, 458799, 1900545, 22, 524335, 1900545, 22, 589871, 1900545, 22, 655407, 1900545, 22, 720943, 1900545, 22, 786479, 1900545, 22, 852015, 1900545, 22, 917551, 1900545, 22, 983087, 1900545, 22, 1048623, 1900545, 22, 1114159, 1900545, 22, 1179695, 1900545, 22, 1245231, 1900545, 22, 1310767, 1900545, 22, 1376303, 1900545, 22, 1441839, 1900545, 22, 1507375, 1900545, 22, 1572911, 1900545, 22, 1638447, 1900545, 22, 1703983, 1900545, 22, 1769519, 1900545, 22, 1835055, 1900545, 22, 1900591, 1900545, 22, 1966127, 1900545, 22, 2031663, 1900545, 22, 48, 1900545, 22, 65584, 1900545, 22, 131120, 1900545, 22, 196656, 1900545, 22, 262192, 1900545, 22, 327728, 1900545, 22, 393264, 1900545, 22, 458800, 1900545, 22, 524336, 1900545, 22, 589872, 1900545, 22, 655408, 1900545, 22, 720944, 1900545, 22, 786480, 1900545, 22, 852016, 1900545, 22, 917552, 1900545, 22, 983088, 1900545, 22, 1048624, 1900545, 22, 1114160, 1900545, 22, 1179696, 1900545, 22, 1245232, 1900545, 22, 1310768, 1900545, 22, 1376304, 1900545, 22, 1441840, 1900545, 22, 1507376, 1900545, 22, 1572912, 1900545, 22, 1638448, 1900545, 22, 1703984, 1900545, 22, 1769520, 1900545, 22, 1835056, 1900545, 22, 1900592, 1900545, 22, 1966128, 1900545, 22, 2031664, 1900545, 22, 49, 1900545, 22, 65585, 1900545, 22, 131121, 1900545, 22, 196657, 1900545, 22, 262193, 1900545, 22, 327729, 1900545, 22, 393265, 1900545, 22, 458801, 1900545, 22, 524337, 1900545, 22, 589873, 1900545, 22, 655409, 1900545, 22, 720945, 1900545, 22, 786481, 1900545, 22, 852017, 1900545, 22, 917553, 1900545, 22, 983089, 1900545, 22, 1048625, 1900545, 22, 1114161, 1900545, 22, 1179697, 1900545, 22, 1245233, 1900545, 22, 1310769, 1900545, 22, 1376305, 1900545, 22, 1441841, 1900545, 22, 1507377, 1900545, 22, 1572913, 1900545, 22, 1638449, 1900545, 22, 1703985, 1900545, 22, 1769521, 1900545, 22, 1835057, 1900545, 22, 1900593, 1900545, 22, 1966129, 1900545, 22, 2031665, 1900545, 22, 50, 1900545, 22, 65586, 1900545, 22, 131122, 1900545, 22, 196658, 1900545, 22, 262194, 1900545, 22, 327730, 1900545, 22, 393266, 1900545, 22, 458802, 1900545, 22, 524338, 1900545, 22, 589874, 1900545, 22, 655410, 1900545, 22, 720946, 1900545, 22, 786482, 1900545, 22, 852018, 1900545, 22, 917554, 1900545, 22, 983090, 1900545, 22, 1048626, 1900545, 22, 1114162, 1900545, 22, 1179698, 1900545, 22, 1245234, 1900545, 22, 1310770, 1900545, 22, 1376306, 1900545, 22, 1441842, 1900545, 22, 1507378, 1900545, 22, 1572914, 1900545, 22, 1638450, 1900545, 22, 1703986, 1900545, 22, 1769522, 1900545, 22, 1835058, 1900545, 22, 1900594, 1900545, 22, 1966130, 1900545, 22, 2031666, 1900545, 22, 1966064, 1900545, 22, 2031600, 1900545, 22, 2097136, 1900545, 22, 2162672, 1900545, 22, 2228208, 1900545, 22, 1966065, 1900545, 22, 2031601, 1900545, 22, 2097137, 1900545, 22, 2162673, 1900545, 22, 2228209, 1900545, 22, 1966066, 1900545, 22, 2031602, 1900545, 22, 2097138, 1900545, 22, 2162674, 1900545, 22, 2228210, 1900545, 22, 1966067, 1900545, 22, 2031603, 1900545, 22, 2097139, 1900545, 22, 2162675, 1900545, 22, 2228211, 1900545, 22, 1966068, 1900545, 22, 2031604, 1900545, 22, 2097140, 1900545, 22, 2162676, 1900545, 22, 2228212, 1900545, 22, 1966069, 1900545, 22, 2031605, 1900545, 22, 2097141, 1900545, 22, 2162677, 1900545, 22, 2228213, 1900545, 22, 1966070, 1900545, 22, 2031606, 1900545, 22, 2097142, 1900545, 22, 2162678, 1900545, 22, 2228214, 1900545, 22, 1966071, 1900545, 22, 2031607, 1900545, 22, 2097143, 1900545, 22, 2162679, 1900545, 22, 2228215, 1900545, 22, 1966072, 1900545, 22, 2031608, 1900545, 22, 2097144, 1900545, 22, 2162680, 1900545, 22, 2228216, 1900545, 22, 1966073, 1900545, 22, 2031609, 1900545, 22, 2097145, 1900545, 22, 2162681, 1900545, 22, 2228217, 1900545, 22, 1966074, 1900545, 22, 2031610, 1900545, 22, 2097146, 1900545, 22, 2162682, 1900545, 22, 2228218, 1900545, 22, 1966075, 1900545, 22, 2031611, 1900545, 22, 2097147, 1900545, 22, 2162683, 1900545, 22, 2228219, 1900545, 22, 1966076, 1900545, 22, 2031612, 1900545, 22, 2097148, 1900545, 22, 2162684, 1900545, 22, 2228220, 1900545, 22, 1966077, 1900545, 22, 2031613, 1900545, 22, 2097149, 1900545, 22, 2162685, 1900545, 22, 2228221, 1900545, 22, 1966078, 1900545, 22, 2031614, 1900545, 22, 2097150, 1900545, 22, 2162686, 1900545, 22, 2228222, 1900545, 22, 1966079, 1900545, 22, 2031615, 1900545, 22, 2097151, 1900545, 22, 2162687, 1900545, 22, 2228223, 1900545, 22, 1507328, 1900545, 22, 1572864, 1900545, 22, 1638400, 1900545, 22, 1703936, 1900545, 22, 1769472, 1900545, 22, 1835008, 1900545, 22, 1900544, 1900545, 22, 1966080, 1900545, 22, 2031616, 1900545, 22, 2097152, 1900545, 22, 2162688, 1900545, 22, 1507329, 1900545, 22, 1572865, 1900545, 22, 1638401, 1900545, 22, 1703937, 1900545, 22, 1769473, 1900545, 22, 1835009, 1900545, 22, 1900545, 1900545, 22, 1966081, 1900545, 22, 2031617, 1900545, 22, 2097153, 1900545, 22, 2162689, 1900545, 22, 1507330, 1900545, 22, 1572866, 1900545, 22, 1638402, 1900545, 22, 1703938, 1900545, 22, 1769474, 1900545, 22, 1835010, 1900545, 22, 1900546, 1900545, 22, 1966082, 1900545, 22, 2031618, 1900545, 22, 2097154, 1900545, 22, 2162690, 1900545, 22, 1507331, 1900545, 22, 1572867, 1900545, 22, 1638403, 1900545, 22, 1703939, 1900545, 22, 1769475, 1900545, 22, 1835011, 1900545, 22, 1900547, 1900545, 22, 1966083, 1900545, 22, 2031619, 1900545, 22, 2097155, 1900545, 22, 2162691, 1900545, 22, 1507332, 1900545, 22, 1572868, 1900545, 22, 1638404, 1900545, 22, 1703940, 1900545, 22, 1769476, 1900545, 22, 1835012, 1900545, 22, 1900548, 1900545, 22, 1966084, 1900545, 22, 2031620, 1900545, 22, 2097156, 1900545, 22, 2162692, 1900545, 22, 1507333, 1900545, 22, 1572869, 1900545, 22, 1638405, 1900545, 22, 1703941, 1900545, 22, 1769477, 1900545, 22, 1835013, 1900545, 22, 1900549, 1900545, 22, 1966085, 1900545, 22, 2031621, 1900545, 22, 2097157, 1900545, 22, 2162693, 1900545, 22, 1507334, 1900545, 22, 1572870, 1900545, 22, 1638406, 1900545, 22, 1703942, 1900545, 22, 1769478, 1900545, 22, 1835014, 1900545, 22, 1900550, 1900545, 22, 1966086, 1900545, 22, 2031622, 1900545, 22, 2097158, 1900545, 22, 2162694, 1900545, 22, 1507335, 1900545, 22, 1572871, 1900545, 22, 1638407, 1900545, 22, 1703943, 1900545, 22, 1769479, 1900545, 22, 1835015, 1900545, 22, 1900551, 1900545, 22, 1966087, 1900545, 22, 2031623, 1900545, 22, 2097159, 1900545, 22, 2162695, 1900545, 22, 1507336, 1900545, 22, 1572872, 1900545, 22, 1638408, 1900545, 22, 1703944, 1900545, 22, 1769480, 1900545, 22, 1835016, 1900545, 22, 1900552, 1900545, 22, 1966088, 1900545, 22, 2031624, 1900545, 22, 2097160, 1900545, 22, 2162696, 1900545, 22, 1507337, 1900545, 22, 1572873, 1900545, 22, 1638409, 1900545, 22, 1703945, 1900545, 22, 1769481, 1900545, 22, 1835017, 1900545, 22, 1900553, 1900545, 22, 1966089, 1900545, 22, 2031625, 1900545, 22, 2097161, 1900545, 22, 2162697, 1900545, 22, 1507338, 1900545, 22, 1572874, 1900545, 22, 1638410, 1900545, 22, 1703946, 1900545, 22, 1769482, 1900545, 22, 1835018, 1900545, 22, 1900554, 1900545, 22, 1966090, 1900545, 22, 2031626, 1900545, 22, 2097162, 1900545, 22, 2162698, 1900545, 22, 1507339, 1900545, 22, 1572875, 1900545, 22, 1638411, 1900545, 22, 1703947, 1900545, 22, 1769483, 1900545, 22, 1835019, 1900545, 22, 1900555, 1900545, 22, 1966091, 1900545, 22, 2031627, 1900545, 22, 2097163, 1900545, 22, 2162699, 1900545, 22, 1507340, 1900545, 22, 1572876, 1900545, 22, 1638412, 1900545, 22, 1703948, 1900545, 22, 1769484, 1900545, 22, 1835020, 1900545, 22, 1900556, 1900545, 22, 1966092, 1900545, 22, 2031628, 1900545, 22, 2097164, 1900545, 22, 2162700, 1900545, 22, 1507341, 1900545, 22, 1572877, 1900545, 22, 1638413, 1900545, 22, 1703949, 1900545, 22, 1769485, 1900545, 22, 1835021, 1900545, 22, 1900557, 1900545, 22, 1966093, 1900545, 22, 2031629, 1900545, 22, 2097165, 1900545, 22, 2162701, 1900545, 22, 1507342, 1900545, 22, 1572878, 1900545, 22, 1638414, 1900545, 22, 1703950, 1900545, 22, 1769486, 1900545, 22, 1835022, 1900545, 22, 1900558, 1900545, 22, 1966094, 1900545, 22, 2031630, 1900545, 22, 2097166, 1900545, 22, 2162702, 1900545, 22, 1507343, 1900545, 22, 1572879, 1900545, 22, 1638415, 1900545, 22, 1703951, 1900545, 22, 1769487, 1900545, 22, 1835023, 1900545, 22, 1900559, 1900545, 22, 1966095, 1900545, 22, 2031631, 1900545, 22, 2097167, 1900545, 22, 2162703, 1900545, 22, 1507344, 1900545, 22, 1572880, 1900545, 22, 1638416, 1900545, 22, 1703952, 1900545, 22, 1769488, 1900545, 22, 1835024, 1900545, 22, 1900560, 1900545, 22, 1966096, 1900545, 22, 2031632, 1900545, 22, 2097168, 1900545, 22, 2162704, 1900545, 22, 1507345, 1900545, 22, 1572881, 1900545, 22, 1638417, 1900545, 22, 1703953, 1900545, 22, 1769489, 1900545, 22, 1835025, 1900545, 22, 1900561, 1900545, 22, 1966097, 1900545, 22, 2031633, 1900545, 22, 2097169, 1900545, 22, 2162705, 1900545, 22, 1507346, 1900545, 22, 1572882, 1900545, 22, 1638418, 1900545, 22, 1703954, 1900545, 22, 1769490, 1900545, 22, 1835026, 1900545, 22, 1900562, 1900545, 22, 1966098, 1900545, 22, 2031634, 1900545, 22, 2097170, 1900545, 22, 2162706, 1900545, 22, 1507347, 1900545, 22, 1572883, 1900545, 22, 1638419, 1900545, 22, 1703955, 1900545, 22, 1769491, 1900545, 22, 1835027, 1900545, 22, 1900563, 1900545, 22, 1966099, 1900545, 22, 2031635, 1900545, 22, 2097171, 1900545, 22, 2162707, 1900545, 22, 1507348, 1900545, 22, 1572884, 1900545, 22, 1638420, 1900545, 22, 1703956, 1900545, 22, 1769492, 1900545, 22, 1835028, 1900545, 22, 1900564, 1900545, 22, 1966100, 1900545, 22, 2031636, 1900545, 22, 2097172, 1900545, 22, 2162708, 1900545, 22, 1507349, 1900545, 22, 1572885, 1900545, 22, 1638421, 1900545, 22, 1703957, 1900545, 22, 1769493, 1900545, 22, 1835029, 1900545, 22, 1900565, 1900545, 22, 1966101, 1900545, 22, 2031637, 1900545, 22, 2097173, 1900545, 22, 2162709, 1900545, 22, 1507350, 1900545, 22, 1572886, 1900545, 22, 1638422, 1900545, 22, 1703958, 1900545, 22, 1769494, 1900545, 22, 1835030, 1900545, 22, 1900566, 1900545, 22, 1966102, 1900545, 22, 2031638, 1900545, 22, 2097174, 1900545, 22, 2162710, 1900545, 22, 1507351, 1900545, 22, 1572887, 1900545, 22, 1638423, 1900545, 22, 1703959, 1900545, 22, 1769495, 1900545, 22, 1835031, 1900545, 22, 1900567, 1900545, 22, 1966103, 1900545, 22, 2031639, 1900545, 22, 2097175, 1900545, 22, 2162711, 1900545, 22, 1507352, 1900545, 22, 1572888, 1900545, 22, 1638424, 1900545, 22, 1703960, 1900545, 22, 1769496, 1900545, 22, 1835032, 1900545, 22, 1900568, 1900545, 22, 1966104, 1900545, 22, 2031640, 1900545, 22, 2097176, 1900545, 22, 2162712, 1900545, 22, 1507353, 1900545, 22, 1572889, 1900545, 22, 1638425, 1900545, 22, 1703961, 1900545, 22, 1769497, 1900545, 22, 1835033, 1900545, 22, 1900569, 1900545, 22, 1966105, 1900545, 22, 2031641, 1900545, 22, 2097177, 1900545, 22, 2162713, 1900545, 22, 1507354, 1900545, 22, 1572890, 1900545, 22, 1638426, 1900545, 22, 1703962, 1900545, 22, 1769498, 1900545, 22, 1835034, 1900545, 22, 1900570, 1900545, 22, 1966106, 1900545, 22, 2031642, 1900545, 22, 2097178, 1900545, 22, 2162714, 1900545, 22, 1507355, 1900545, 22, 1572891, 1900545, 22, 1638427, 1900545, 22, 1703963, 1900545, 22, 1769499, 1900545, 22, 1835035, 1900545, 22, 1900571, 1900545, 22, 1966107, 1900545, 22, 2031643, 1900545, 22, 2097179, 1900545, 22, 2162715, 1900545, 22, 1507356, 1900545, 22, 1572892, 1900545, 22, 1638428, 1900545, 22, 1703964, 1900545, 22, 1769500, 1900545, 22, 1835036, 1900545, 22, 1900572, 1900545, 22, 1966108, 1900545, 22, 2031644, 1900545, 22, 2097180, 1900545, 22, 2162716, 1900545, 22, 1507357, 1900545, 22, 1572893, 1900545, 22, 1638429, 1900545, 22, 1703965, 1900545, 22, 1769501, 1900545, 22, 1835037, 1900545, 22, 1900573, 1900545, 22, 1966109, 1900545, 22, 2031645, 1900545, 22, 2097181, 1900545, 22, 2162717, 1900545, 22, 1507358, 1900545, 22, 1572894, 1900545, 22, 1638430, 1900545, 22, 1703966, 1900545, 22, 1769502, 1900545, 22, 1835038, 1900545, 22, 1900574, 1900545, 22, 1966110, 1900545, 22, 2031646, 1900545, 22, 2097182, 1900545, 22, 2162718, 1900545, 22, 1507359, 1900545, 22, 1572895, 1900545, 22, 1638431, 1900545, 22, 1703967, 1900545, 22, 1769503, 1900545, 22, 1835039, 1900545, 22, 1900575, 1900545, 22, 1966111, 1900545, 22, 2031647, 1900545, 22, 2097183, 1900545, 22, 2162719, 1900545, 22, 1507360, 1900545, 22, 1572896, 1900545, 22, 1638432, 1900545, 22, 1703968, 1900545, 22, 1769504, 1900545, 22, 1835040, 1900545, 22, 1900576, 1900545, 22, 1966112, 1900545, 22, 2031648, 1900545, 22, 2097184, 1900545, 22, 2162720, 1900545, 22, 1507361, 1900545, 22, 1572897, 1900545, 22, 1638433, 1900545, 22, 1703969, 1900545, 22, 1769505, 1900545, 22, 1835041, 1900545, 22, 1900577, 1900545, 22, 1966113, 1900545, 22, 2031649, 1900545, 22, 2097185, 1900545, 22, 2162721, 1900545, 22, 1507362, 1900545, 22, 1572898, 1900545, 22, 1638434, 1900545, 22, 1703970, 1900545, 22, 1769506, 1900545, 22, 1835042, 1900545, 22, 1900578, 1900545, 22, 1966114, 1900545, 22, 2031650, 1900545, 22, 2097186, 1900545, 22, 2162722, 1900545, 22, 1507363, 1900545, 22, 1572899, 1900545, 22, 1638435, 1900545, 22, 1703971, 1900545, 22, 1769507, 1900545, 22, 1835043, 1900545, 22, 1900579, 1900545, 22, 1966115, 1900545, 22, 2031651, 1900545, 22, 2097187, 1900545, 22, 2162723, 1900545, 22, 1507364, 1900545, 22, 1572900, 1900545, 22, 1638436, 1900545, 22, 1703972, 1900545, 22, 1769508, 1900545, 22, 1835044, 1900545, 22, 1900580, 1900545, 22, 1966116, 1900545, 22, 2031652, 1900545, 22, 2097188, 1900545, 22, 2162724, 1900545, 22, 1507365, 1900545, 22, 1572901, 1900545, 22, 1638437, 1900545, 22, 1703973, 1900545, 22, 1769509, 1900545, 22, 1835045, 1900545, 22, 1900581, 1900545, 22, 1966117, 1900545, 22, 2031653, 1900545, 22, 2097189, 1900545, 22, 2162725, 1900545, 22, 1507366, 1900545, 22, 1572902, 1900545, 22, 1638438, 1900545, 22, 1703974, 1900545, 22, 1769510, 1900545, 22, 1835046, 1900545, 22, 1900582, 1900545, 22, 1966118, 1900545, 22, 2031654, 1900545, 22, 2097190, 1900545, 22, 2162726, 1900545, 22, 1507367, 1900545, 22, 1572903, 1900545, 22, 1638439, 1900545, 22, 1703975, 1900545, 22, 1769511, 1900545, 22, 1835047, 1900545, 22, 1900583, 1900545, 22, 1966119, 1900545, 22, 2031655, 1900545, 22, 2097191, 1900545, 22, 2162727, 1900545, 22, 2097192, 1900545, 22, 2162728, 1900545, 22, 2097193, 1900545, 22, 2162729, 1900545, 22, 2097194, 1900545, 22, 2162730, 1900545, 22, 2097195, 1900545, 22, 2162731, 1900545, 22, 2097196, 1900545, 22, 2162732, 1900545, 22, 2097197, 1900545, 22, 2162733, 1900545, 22, 2097198, 1900545, 22, 2162734, 1900545, 22, 2097199, 1900545, 22, 2162735, 1900545, 22, 2097200, 1900545, 22, 2162736, 1900545, 22, 2097201, 1900545, 22, 2162737, 1900545, 22, 2097202, 1900545, 22, 2162738, 1900545, 22)
layer_1/name = "group_top"
layer_1/enabled = true
layer_1/modulate = Color(1, 1, 1, 1)
layer_1/y_sort_enabled = true
layer_1/y_sort_origin = 0
layer_1/z_index = -1
layer_1/tile_data = PackedInt32Array(262160, 1376257, 35, 196624, 1179649, 31, 131088, 1769473, 29, 65552, 1966081, 26, 16, 1900545, 25, 393231, 1441793, 34, 327695, 1441793, 34, 262159, 1376257, 35, 196623, 1376257, 35, 131087, 1179649, 31, 65551, 1835009, 26, 15, 1966081, 25, 393230, 1441793, 34, 327694, 1441793, 34, 262158, 1441793, 34, 196622, 1441793, 34, 131086, 1572865, 31, 65550, 1703937, 32, 14, 1900545, 25, 196621, 1441793, 34, 131085, 1376257, 31, 65549, 1703937, 32, 13, 1900545, 25, 196620, 1441793, 34, 131084, 1376257, 31, 65548, 1703937, 32, 12, 1900545, 28, 196619, 1441793, 34, 131083, 1441793, 34, 65547, 1114113, 31, 11, 1900545, 25, 196618, 1441793, 34, 131082, 1441793, 34, 65546, 1114113, 31, 10, 1900545, 25, 196617, 1441793, 34, 131081, 1441793, 34, 65545, 1114113, 31, 9, 1966081, 25, 196616, 1441793, 34, 131080, 983041, 32, 65544, 983041, 31, 8, 1900545, 25, 393223, 1441793, 34, 327687, 1441793, 34, 262151, 1441793, 34, 196615, 1441793, 34, 131079, 1179649, 31, 65543, 1703937, 32, 7, 1900545, 25, 393222, 1441793, 34, 131078, 1179649, 31, 65542, 1703937, 32, 6, 1900545, 28, 393221, 1441793, 34, 131077, 1179649, 31, 65541, 1703937, 32, 5, 1835009, 25, 393220, 983041, 32, 131076, 1179649, 31, 65540, 1703937, 32, 4, 1966081, 25, 393219, 1966081, 26, 327683, 983041, 32, 262147, 983041, 32, 196611, 983041, 32, 131075, 983041, 31, 65539, 1703937, 32, 3, 1966081, 25, 393218, 1835009, 29, 327682, 1703937, 32, 262146, 1703937, 32, 196610, 1703937, 32, 131074, 1703937, 32, 65538, 1703937, 32, 2, 1966081, 25, 393217, 1769473, 29, 327681, 1769473, 27, 262145, 1769473, 27, 196609, 1769473, 27, 131073, 1966081, 27, 65537, 1769473, 28, 1, 1769473, 25, 786460, 1376257, 34, 720924, 1376257, 34, 655388, 1376257, 34, 589852, 1376257, 34, 524316, 1376257, 34, 458780, 1376257, 34, 393244, 1376257, 34, 327708, 1376257, 34, 786459, 1376257, 34, 720923, 1376257, 34, 655387, 1376257, 34, 589851, 1376257, 34, 524315, 1376257, 34, 458779, 1376257, 34, 393243, 1376257, 34, 327707, 1376257, 34, 786458, 1376257, 35, 720922, 1376257, 35, 655386, 1441793, 34, 589850, 1441793, 34, 524314, 1441793, 34, 458778, 1441793, 34, 393242, 1441793, 34, 327706, 1441793, 34, 786457, 1376257, 35, 720921, 1376257, 35, 655385, 1441793, 34, 589849, 1441793, 34, 524313, 1441793, 34, 458777, 1441793, 34, 393241, 1441793, 34, 327705, 1376257, 35, 786456, 1376257, 35, 720920, 1376257, 35, 655384, 1441793, 34, 786455, 1376257, 35, 720919, 1376257, 35, 655383, 1441793, 34, 786454, 1441793, 34, 720918, 1441793, 34, 655382, 1441793, 34, 786453, 1441793, 34, 720917, 1441793, 34, 655381, 1441793, 34, 786452, 1441793, 34, 720916, 1441793, 34, 655380, 1441793, 34, 786451, 1441793, 34, 720915, 1441793, 34, 655379, 1441793, 34, 786450, 1441793, 34, 720914, 1441793, 34, 655378, 1441793, 34, 786449, 1441793, 34, 720913, 1441793, 34, 655377, 1441793, 34, 720912, 1441793, 34, 655376, 1441793, 34, 720911, 1376257, 35, 655375, 1376257, 35, 589839, 1441793, 34, 524303, 1441793, 34, 458767, 1441793, 34, 720910, 1376257, 35, 524302, 1376257, 35, 458766, 1441793, 34, 1245222, 2031617, 27, 1179686, 1769473, 37, 1114150, 1376257, 34, 1048614, 1376257, 34, 983078, 1376257, 34, 917542, 327680, 9, 852006, 1376257, 34, 786470, 1376257, 34, 720934, 327680, 9, 1245221, 1245185, 38, 1114149, 1376257, 34, 1048613, 1376257, 34, 983077, 1376257, 34, 917541, 1376257, 34, 852005, 1376257, 34, 786469, 1376257, 34, 720933, 1376257, 34, 1245220, 1245185, 38, 1179684, 1441793, 34, 1114148, 1376257, 34, 1048612, 1376257, 34, 983076, 1376257, 34, 917540, 1376257, 34, 852004, 1376257, 34, 786468, 1376257, 34, 720932, 1376257, 34, 1245219, 1245185, 38, 1179683, 1441793, 34, 1114147, 1376257, 34, 1048611, 1376257, 34, 983075, 1376257, 35, 917539, 1376257, 35, 852003, 1376257, 35, 786467, 1376257, 34, 720931, 1376257, 34, 1245218, 1245185, 38, 917538, 1376257, 35, 852002, 1376257, 35, 786466, 1376257, 34, 720930, 1376257, 34, 1245217, 1179649, 36, 917537, 1376257, 35, 852001, 1376257, 35, 786465, 1376257, 34, 720929, 1376257, 34, 1245216, 1966081, 29, 917536, 1376257, 35, 852000, 1376257, 35, 786464, 1376257, 34, 720928, 1376257, 34, 1245215, 1835009, 29, 917535, 1376257, 35, 851999, 1376257, 35, 786463, 1376257, 34, 720927, 1376257, 34, 1245214, 1835009, 26, 917534, 1376257, 35, 851998, 1376257, 35, 786462, 1376257, 34, 720926, 1376257, 34, 1245213, 1966081, 26, 917533, 1376257, 35, 851997, 1376257, 35, 786461, 1376257, 34, 720925, 1376257, 34, 1245212, 1900545, 26, 1179676, 1703937, 32, 1114140, 1048577, 35, 1048604, 1441793, 34, 983068, 1441793, 34, 917532, 1376257, 35, 851996, 1376257, 35, 1245211, 1769473, 29, 1179675, 1966081, 27, 1114139, 1048577, 35, 1048603, 1441793, 34, 983067, 1441793, 34, 917531, 1376257, 35, 851995, 1376257, 35, 1114131, 1966081, 24, 1048595, 1966081, 23, 983059, 1966081, 22, 917523, 1966081, 21, 851987, 1966081, 20, 1114130, 1900545, 24, 1048594, 1900545, 23, 983058, 1900545, 22, 917522, 1900545, 21, 851986, 1900545, 20, 1114129, 1835009, 24, 1048593, 1835009, 23, 983057, 1835009, 22, 917521, 1835009, 21, 851985, 1835009, 20, 1114128, 1769473, 24, 1048592, 1769473, 23, 983056, 1769473, 22, 917520, 1769473, 21, 1114127, 1441793, 34, 1048591, 1441793, 34, 983055, 1441793, 34, 917519, 1441793, 34, 1114126, 1441793, 34, 1048590, 1441793, 34, 983054, 1441793, 34, 917518, 1441793, 34, 1114125, 1441793, 34, 1048589, 1441793, 34, 983053, 1441793, 34, 917517, 1441793, 34, 1114124, 1441793, 34, 1048588, 1441793, 34, 983052, 1441793, 34, 917516, 1441793, 34, 1114123, 1441793, 34, 1048587, 1441793, 34, 983051, 1441793, 34, 917515, 1441793, 34, 851979, 1441793, 34, 1114122, 1441793, 34, 1048586, 1441793, 34, 983050, 1441793, 34, 917514, 1441793, 34, 851978, 1441793, 34, 786442, 1966081, 24, 720906, 1966081, 23, 1114121, 1441793, 34, 1048585, 1441793, 34, 983049, 1441793, 34, 917513, 1376257, 35, 851977, 1376257, 35, 786441, 1900545, 24, 720905, 1900545, 23, 1114120, 1441793, 34, 1048584, 1441793, 34, 983048, 1441793, 34, 917512, 1376257, 35, 851976, 1376257, 35, 786440, 1835009, 24, 720904, 1835009, 23, 1114119, 1441793, 34, 1048583, 1441793, 34, 983047, 1441793, 34, 917511, 1376257, 35, 851975, 1376257, 35, 786439, 1769473, 24, 720903, 1769473, 23, 1114118, 1441793, 34, 1048582, 1441793, 34, 983046, 1376257, 35, 917510, 1376257, 35, 851974, 1376257, 35, 786438, 1376257, 35, 720902, 1376257, 35, 1114117, 1441793, 34, 1048581, 1441793, 34, 983045, 1376257, 35, 917509, 1376257, 35, 851973, 1376257, 35, 786437, 1376257, 35, 720901, 1376257, 35, 1114116, 1179649, 37, 1048580, 983041, 32, 983044, 983041, 32, 917508, 983041, 31, 851972, 1703937, 32, 786436, 1703937, 32, 720900, 1966081, 28, 1114115, 1703937, 32, 1048579, 1966081, 28, 983043, 1769473, 28, 917507, 1966081, 27, 851971, 1966081, 26, 786435, 1966081, 28, 720899, 1769473, 25, 1310744, 2031617, 29, 1245208, 1769473, 38, 1179672, 1769473, 37, 1114136, 1769473, 37, 1048600, 1179649, 33, 1310743, 1245185, 38, 1245207, 1441793, 34, 1179671, 1441793, 34, 1114135, 1441793, 34, 1048599, 1441793, 34, 1310742, 393216, 9, 1245206, 1441793, 34, 1179670, 1441793, 34, 1114134, 1441793, 34, 1048598, 1441793, 34, 1310741, 1245185, 38, 1245205, 1441793, 34, 1179669, 1441793, 34, 1114133, 1441793, 34, 1048597, 1441793, 34, 1310740, 1245185, 38, 1245204, 1441793, 34, 1179668, 1441793, 34, 1114132, 2031617, 24, 1048596, 2031617, 23, 1310739, 1245185, 38, 1245203, 1441793, 34, 1179667, 1441793, 34, 1310738, 393216, 9, 1245202, 1441793, 34, 1179666, 1441793, 34, 1310737, 1245185, 38, 1245201, 1441793, 34, 1179665, 1441793, 34, 1310736, 1900545, 26, 1245200, 1179649, 37, 1179664, 983041, 32, 1310735, 1769473, 29, 1245199, 1769473, 27, 1179663, 1245185, 38, 1310731, 2031617, 29, 1245195, 2031617, 27, 1179659, 1245185, 38, 1310730, 1966081, 29, 1245194, 1703937, 32, 1179658, 1245185, 38, 1310729, 1900545, 26, 1245193, 1703937, 32, 1179657, 1245185, 38, 1310728, 1835009, 29, 1245192, 1703937, 32, 1179656, 1245185, 38, 1310727, 1900545, 26, 1245191, 1703937, 32, 1179655, 1245185, 38, 1310726, 1835009, 29, 1245190, 1703937, 32, 1179654, 1245185, 38, 1310725, 1900545, 26, 1245189, 1703937, 32, 1179653, 1245185, 38, 1310724, 1966081, 29, 1245188, 1703937, 32, 1179652, 1703937, 32, 1310723, 1900545, 29, 1245187, 1703937, 32, 1179651, 1703937, 32, 1310722, 1835009, 29, 1245186, 1703937, 32, 1179650, 1703937, 32, 1114114, 1703937, 32, 1048578, 1966081, 25, 1310721, 1769473, 29, 1245185, 1769473, 27, 1179649, 1769473, 27, 1114113, 1769473, 28, 1048577, 1769473, 25, 393254, 1376257, 34, 327718, 2031617, 26, 262182, 2031617, 28, 196646, 2031617, 28, 131110, 1835009, 27, 65574, 2031617, 25, 393253, 1376257, 34, 327717, 1703937, 32, 262181, 1703937, 32, 196645, 1703937, 32, 131109, 1703937, 32, 65573, 1835009, 25, 393252, 1376257, 34, 327716, 1703937, 32, 262180, 1703937, 32, 196644, 1703937, 32, 131108, 1703937, 32, 65572, 1835009, 25, 393251, 1376257, 34, 327715, 1376257, 34, 262179, 1572865, 32, 196643, 1572865, 31, 131107, 1703937, 32, 65571, 1835009, 25, 393250, 1376257, 34, 327714, 1376257, 34, 262178, 1441793, 34, 196642, 1245185, 31, 131106, 1703937, 32, 65570, 1900545, 25, 393249, 1376257, 34, 327713, 1376257, 34, 262177, 1441793, 34, 196641, 1245185, 31, 131105, 1703937, 32, 65569, 1900545, 25, 393248, 1376257, 34, 327712, 1376257, 34, 262176, 1441793, 34, 196640, 1245185, 31, 131104, 1703937, 32, 65568, 1900545, 28, 393247, 1376257, 34, 327711, 1376257, 34, 262175, 1441793, 34, 196639, 1245185, 31, 131103, 1703937, 32, 65567, 1900545, 28, 393246, 1376257, 34, 327710, 1376257, 34, 262174, 1441793, 34, 196638, 1245185, 31, 131102, 1703937, 32, 65566, 1966081, 25, 393245, 1376257, 34, 327709, 1376257, 34, 262173, 1441793, 34, 196637, 1441793, 34, 131101, 1245185, 31, 65565, 1900545, 25, 262172, 1441793, 34, 196636, 1441793, 34, 131100, 1245185, 31, 65564, 1966081, 25, 262171, 1441793, 34, 196635, 1441793, 34, 131099, 1245185, 31, 65563, 1900545, 28, 262170, 1441793, 34, 196634, 1441793, 34, 131098, 1245185, 31, 65562, 1835009, 25, 262169, 1376257, 35, 196633, 1376257, 35, 131097, 983041, 31, 65561, 1769473, 25, 655370, 1966081, 22, 655369, 1900545, 22, 655368, 1835009, 22, 1048602, 1179649, 33, 983066, 1441793, 34, 917530, 1376257, 35, 851994, 1376257, 35, 1048601, 1179649, 33, 983065, 1441793, 34, 917529, 1376257, 35, 851993, 1376257, 35, 983064, 1441793, 34, 917528, 1376257, 35, 851992, 1376257, 35, 983063, 1441793, 34, 917527, 1376257, 35, 851991, 1376257, 35, 983062, 1441793, 34, 917526, 1441793, 34, 851990, 1441793, 34, 983061, 1441793, 34, 917525, 1441793, 34, 851989, 1441793, 34, 983060, 2031617, 22, 917524, 2031617, 21, 851988, 2031617, 20, 1310758, 2031617, 29, 1310757, 1835009, 29, 1310756, 1966081, 29, 1310755, 1900545, 26, 1310754, 1900545, 26, 1310753, 1769473, 29, 262166, 1376257, 35, 196630, 1179649, 31, 131094, 1900545, 29, 65558, 1703937, 32, 262165, 1376257, 35, 196629, 1179649, 31, 131093, 1966081, 29, 65557, 1703937, 32, 262164, 1376257, 35, 196628, 1179649, 31, 131092, 1835009, 29, 65556, 1703937, 32, 262163, 1376257, 35, 196627, 1179649, 31, 131091, 1966081, 29, 65555, 1703937, 32, 524294, 1441793, 34, 458758, 1441793, 34, 524293, 1441793, 34, 458757, 1441793, 34, 524292, 983041, 32, 458756, 983041, 32, 524291, 1769473, 29, 458755, 1769473, 28, 655396, 1376257, 34, 589860, 1376257, 34, 655395, 1376257, 34, 589859, 1376257, 34, 655394, 1376257, 34, 589858, 1376257, 34, 655393, 1376257, 34, 589857, 1376257, 34, 655392, 1376257, 34, 589856, 1376257, 34, 524318, 1376257, 34, 458782, 1376257, 34, 524317, 1376257, 34, 458781, 1376257, 34, 458790, 1376257, 34, 458789, 1376257, 34, 1310750, 2031617, 29, 1310749, 1769473, 29, 1179661, 1245185, 38, 851970, 1900545, 26, 786434, 1835009, 25, 851969, 1769473, 29, 786433, 1769473, 25, 655365, 1376257, 35, 589829, 1441793, 34, 655364, 983041, 34, 589828, 983041, 32, 1179662, 1245185, 38, 1179660, 1245185, 38, 983069, 1441793, 34, 1048605, 1441793, 34, 1114141, 983041, 32, 1179677, 1245185, 38, 983070, 1376257, 35, 983071, 1376257, 35, 983072, 1376257, 35, 983073, 1376257, 35, 983074, 1376257, 35, 1048610, 1376257, 34, 1114146, 1376257, 34, 1179682, 1441793, 34, 1179685, 1441793, 34, 1048606, 1441793, 34, 1114142, 1441793, 34, 1179678, 1245185, 38, 1048607, 1441793, 34, 1114143, 1441793, 34, 1179679, 1245185, 38, 1048608, 1441793, 34, 1114144, 1441793, 34, 1179680, 1245185, 38, 1048609, 1441793, 34, 1114145, 1441793, 34, 1179681, 1179649, 35, 589830, 1441793, 34, 655366, 1376257, 35, 458759, 1441793, 34, 524295, 1769473, 20, 589831, 1769473, 21, 655367, 1769473, 22, 196612, 1310721, 32, 262148, 1310721, 32, 327684, 1310721, 32, 196613, 1310721, 32, 262149, 1310721, 32, 327685, 1310721, 32, 196614, 1310721, 32, 262150, 1310721, 32, 327686, 1310721, 32, 1114137, 1048577, 35, 1114138, 1048577, 35, 262152, 1376257, 35, 327688, 1376257, 35, 393224, 1376257, 35, 458760, 1376257, 35, 524296, 1835009, 20, 589832, 1835009, 21, 262153, 1376257, 35, 327689, 1376257, 35, 393225, 1376257, 35, 458761, 1376257, 35, 524297, 1900545, 20, 589833, 1900545, 21, 262154, 1376257, 35, 327690, 1376257, 35, 393226, 1376257, 35, 458762, 1376257, 35, 524298, 1966081, 20, 589834, 1966081, 21, 262155, 1376257, 35, 327691, 1376257, 35, 393227, 1376257, 35, 458763, 1376257, 35, 524299, 2031617, 20, 589835, 2031617, 21, 262156, 1376257, 35, 327692, 1376257, 35, 393228, 1376257, 35, 458764, 1376257, 35, 524300, 1376257, 35, 589836, 1376257, 35, 262157, 1376257, 35, 327693, 1376257, 35, 393229, 1376257, 35, 458765, 1376257, 35, 524301, 1376257, 35, 589837, 1376257, 35, 655372, 1376257, 35, 720908, 1376257, 35, 786444, 1376257, 35, 851980, 1376257, 35, 655373, 1376257, 35, 720909, 1376257, 35, 786445, 1376257, 35, 851981, 1376257, 35, 655374, 1376257, 35, 786446, 1376257, 35, 851982, 1376257, 35, 786447, 1376257, 35, 851983, 1376257, 35, 589838, 1376257, 35, 786448, 1376257, 35, 851984, 1769473, 20, 655371, 2031617, 22, 720907, 2031617, 23, 786443, 2031617, 24, 327703, 1441793, 34, 393239, 1441793, 34, 458775, 1441793, 34, 524311, 1441793, 34, 589847, 1441793, 34, 327704, 1441793, 34, 393240, 1441793, 34, 458776, 1441793, 34, 524312, 1441793, 34, 589848, 1441793, 34, 327696, 1441793, 34, 393232, 1441793, 34, 458768, 1441793, 34, 524304, 1441793, 34, 589840, 1441793, 34, 327697, 1441793, 34, 393233, 1441793, 34, 458769, 1441793, 34, 524305, 1441793, 34, 589841, 1441793, 34, 327698, 1376257, 35, 393234, 1376257, 35, 458770, 1376257, 35, 524306, 1376257, 35, 589842, 1376257, 35, 327699, 1376257, 35, 393235, 1376257, 35, 458771, 1376257, 35, 524307, 1376257, 35, 589843, 1376257, 35, 327700, 1376257, 35, 393236, 1376257, 35, 458772, 1376257, 35, 524308, 1376257, 35, 589844, 1376257, 35, 327701, 1376257, 35, 393237, 1376257, 35, 458773, 1376257, 35, 524309, 1376257, 35, 589845, 1376257, 35, 327702, 1376257, 35, 393238, 1376257, 35, 458774, 1376257, 35, 524310, 1376257, 35, 589846, 1376257, 35, 65554, 1703937, 32, 131090, 1900545, 29, 196626, 1179649, 31, 262162, 1376257, 35, 65559, 1703937, 32, 131095, 1966081, 29, 196631, 1179649, 31, 262167, 1376257, 35, 65553, 1703937, 32, 131089, 1900545, 29, 196625, 1179649, 31, 262161, 1376257, 35, 65560, 1835009, 26, 131096, 2031617, 29, 196632, 1179649, 31, 262168, 1376257, 35, 24, 1835009, 25, 23, 1966081, 25, 22, 1900545, 28, 21, 1900545, 25, 20, 1835009, 25, 19, 1835009, 25, 18, 1900545, 25, 17, 1966081, 25, 589853, 1376257, 34, 655389, 1376257, 34, 589854, 1376257, 34, 655390, 1376257, 34, 458783, 1376257, 34, 524319, 1376257, 34, 589855, 1376257, 34, 655391, 1376257, 34, 458784, 1376257, 34, 524320, 1376257, 34, 458785, 1376257, 34, 524321, 1376257, 34, 458786, 1376257, 34, 524322, 1376257, 34, 458787, 1376257, 34, 524323, 1376257, 34, 458788, 1376257, 34, 524324, 1376257, 34, 524325, 1376257, 34, 589861, 1376257, 34, 655397, 1376257, 34, 524326, 1376257, 34, 589862, 1376257, 34, 655398, 1376257, 34)
layer_2/name = "boudary"
layer_2/enabled = true
layer_2/modulate = Color(1, 1, 1, 1)
layer_2/y_sort_enabled = true
layer_2/y_sort_origin = 0
layer_2/z_index = 0
layer_2/tile_data = PackedInt32Array(0, 196610, 28, 1, 262146, 28, 2, 262146, 28, 3, 262146, 28, 4, 262146, 28, 5, 262146, 28, 6, 262146, 28, 7, 262146, 28, 8, 262146, 28, 9, 262146, 28, 10, 262146, 28, 11, 262146, 28, 12, 262146, 28, 13, 262146, 28, 14, 262146, 28, 15, 262146, 28, 16, 262146, 28, 17, 262146, 28, 18, 262146, 28, 19, 262146, 28, 20, 262146, 28, 22, 262146, 28, 23, 262146, 28, 24, 262146, 28, 25, 262146, 28, 26, 262146, 28, 27, 262146, 28, 28, 262146, 28, 29, 262146, 28, 30, 262146, 28, 31, 262146, 28, 32, 262146, 28, 33, 458754, 28, 34, 262146, 28, 35, 262146, 28, 36, 262146, 28, 37, 262146, 28, 38, 262146, 28, 39, 458754, 28, 65536, 196610, 29, 131072, 196610, 29, 196608, 196610, 29, 262144, 196610, 29, 327680, 196610, 29, 393216, 196610, 29, 458752, 196610, 29, 524288, 196610, 29, 589824, 196610, 29, 655360, 196610, 29, 720896, 196610, 29, 786432, 196610, 29, 851968, 196610, 29, 917504, 196610, 29, 983040, 196610, 29, 1048576, 196610, 29, 1114112, 196610, 29, 1179648, 196610, 29, 1245184, 196610, 29, 1310720, 196610, 29, 1376256, 196610, 32, 1441792, 196610, 33, 1376257, 262146, 32, 1376258, 262146, 32, 1376259, 262146, 32, 1376260, 262146, 32, 1376261, 262146, 32, 1376262, 262146, 32, 1376263, 262146, 32, 1376264, 262146, 32, 1376265, 262146, 32, 1376266, 262146, 32, 1376267, 262146, 32, 1376268, 262146, 32, 1376269, 262146, 32, 1376270, 262146, 32, 1376271, 262146, 32, 1376272, 262146, 32, 1441793, 262146, 33, 1441794, 262146, 33, 1441795, 262146, 33, 1441796, 262146, 33, 1441797, 262146, 33, 1441798, 262146, 33, 1441799, 262146, 33, 1441800, 262146, 33, 1441801, 262146, 33, 1441802, 262146, 33, 1441803, 262146, 33, 1441804, 262146, 33, 1441805, 262146, 33, 1441806, 262146, 33, 1441807, 262146, 33, 1441808, 262146, 33, 1441809, 262146, 33, 1441810, 262146, 33, 1441811, 262146, 33, 1441812, 262146, 33, 1441813, 262146, 33, 1441814, 262146, 33, 1441815, 262146, 33, 1441816, 262146, 33, 1441817, 262146, 33, 1441818, 262146, 33, 1441819, 262146, 33, 1441820, 262146, 33, 1441821, 262146, 33, 1441822, 262146, 33, 1441823, 262146, 33, 1441824, 262146, 33, 1441825, 262146, 33, 1441826, 262146, 33, 1441827, 262146, 33, 1441828, 262146, 33, 1441829, 262146, 33, 1441830, 262146, 33, 1441831, 786434, 35, 1376273, 262146, 32, 1376274, 262146, 32, 1376275, 262146, 32, 1376276, 262146, 32, 1376277, 262146, 32, 1376278, 262146, 32, 1376279, 262146, 32, 1376280, 65537, 24, 1376281, 131073, 24, 1376282, 196609, 24, 1376283, 262145, 24, 1376284, 327681, 24, 1376285, 262146, 32, 1376286, 262146, 32, 1376287, 262146, 32, 1376288, 262146, 32, 1376289, 262146, 32, 1376290, 262146, 32, 1376291, 262146, 32, 1376292, 262146, 32, 1376293, 262146, 32, 1376294, 262146, 32, 1376295, 786434, 34, 1310759, 786434, 33, 1245223, 786434, 33, 1179687, 786434, 33, 1114151, 786434, 33, 65575, 786434, 33, 131111, 786434, 33, 196647, 786434, 33, 262183, 786434, 33, 327719, 786434, 33, 393255, 786434, 33, 458791, 786434, 33, 524327, 786434, 33, 589863, 786434, 33, 655399, 786434, 33, 720935, 786434, 33, 786471, 786434, 33, 852007, 786434, 33, 917543, 786434, 33, 983079, 786434, 33, 1048615, 786434, 33, 65569, 458754, 29, 65570, 524290, 29, 65571, 589826, 29, 131107, 589826, 30, 131108, 655362, 30, 131109, 786434, 30, 196645, 786434, 31, 262181, 786434, 31, 327717, 786434, 34, 327716, 720898, 34, 327715, 720898, 34, 327714, 720898, 34, 327713, 720898, 34, 327712, 262146, 32, 393253, 786434, 35, 393252, 720898, 35, 393251, 720898, 35, 393250, 720898, 35, 393249, 720898, 35, 393248, 393218, 33, 21, 327682, 28, 327711, 262146, 32, 327710, 262146, 32, 327709, 262146, 32, 327708, 262146, 32, 786460, 262146, 32, 786461, 262146, 32, 786462, 262146, 32, 786463, 262146, 32, 851996, 262146, 33, 851997, 262146, 33, 851998, 262146, 33, 851999, 262146, 33, 393247, 393218, 33, 393246, 393218, 33, 393245, 393218, 33, 393244, 393218, 33, 786459, 196610, 32, 851995, 196610, 33, 786464, 262146, 32, 786465, 262146, 32, 852000, 262146, 33, 852001, 262146, 33, 786466, 458754, 32, 852002, 458754, 33, 917538, 458754, 34, 917539, 524290, 34, 983074, 458754, 35, 983075, 524290, 35, 327707, 655362, 34, 393243, 655362, 35, 720923, 458754, 32, 1114136, 65537, 20, 1179672, 65537, 21, 1245208, 65537, 22, 1310744, 65537, 23, 1179673, 1179650, 2, 1245209, 131073, 22, 1310745, 131073, 23, 1179674, 196609, 21, 1245210, 196609, 22, 1310746, 196609, 23, 1179675, 655362, 35, 1245211, 262145, 22, 1310747, 262145, 23, 1114140, 327681, 20, 1179676, 327681, 21, 1245212, 327681, 22, 1310748, 327681, 23, 131084, 196610, 28, 131085, 262146, 28, 131086, 327682, 28, 131087, 393218, 28, 196630, 262146, 28, 196631, 327682, 28, 1114117, 262146, 32, 1114118, 327682, 32, 1114119, 393218, 32, 1114120, 262146, 32, 1114116, 196610, 32, 1048580, 196610, 31, 983044, 196610, 31, 917508, 458754, 32, 1179656, 393218, 33, 1179655, 393218, 33, 1179654, 393218, 33, 1179653, 393218, 33, 1179652, 196610, 33, 131088, 458754, 28, 196620, 196610, 32, 196621, 458754, 32, 262157, 393218, 33, 262156, 196610, 33, 196632, 458754, 28, 262168, 458754, 29, 1114121, 524290, 34, 1179657, 524290, 35, 1114137, 458754, 32, 1114139, 655362, 34, 524295, 65537, 20, 589831, 65537, 21, 655367, 65537, 22, 720903, 65537, 23, 786439, 65537, 24, 851975, 65537, 25, 917511, 65537, 26, 524296, 131073, 20, 589832, 131073, 21, 655368, 131073, 22, 720904, 131073, 23, 786440, 131073, 24, 851976, 131073, 25, 917512, 131073, 26, 524297, 196609, 20, 589833, 196609, 21, 655369, 196609, 22, 720905, 196609, 23, 786441, 196609, 24, 851977, 196609, 25, 917513, 196609, 26, 524298, 262145, 20, 589834, 262145, 21, 655370, 262145, 22, 720906, 262145, 23, 786442, 262145, 24, 851978, 262145, 25, 917514, 262145, 26, 524299, 327681, 20, 589835, 327681, 21, 655371, 327681, 22, 720907, 327681, 23, 786443, 327681, 24, 851979, 327681, 25, 917515, 327681, 26, 196624, 458754, 29, 196625, 458754, 28, 262161, 786434, 31, 327697, 458754, 29, 196629, 589826, 30)
layer_3/name = "object"
layer_3/enabled = true
layer_3/modulate = Color(1, 1, 1, 1)
layer_3/y_sort_enabled = true
layer_3/y_sort_origin = 0
layer_3/z_index = 0
layer_3/tile_data = PackedInt32Array(327681, 65543, 2, 524325, 131079, 1, 524324, 524294, 3, 393218, 524294, 3, 655397, 524291, 3, 589862, 262147, 7, 589859, 524291, 3, 655396, 262147, 7, 458753, 524291, 3, 458755, 524291, 3, 524290, 524291, 3, 458754, 524292, 1, 655398, 524292, 1, 852001, 524291, 3, 851995, 524291, 3, 851996, 262147, 8, 851997, 524291, 3, 851998, 524292, 1, 851999, 262147, 8, 852000, 524291, 3, 524307, 720898, 7, 655383, 720898, 7, 589832, 131077, 7, 655362, 720898, 1, 1048598, 720898, 1, 1245211, 131077, 7, 1179661, 720898, 1, 458780, 720898, 1, 262174, 720898, 1, 196630, 720898, 1, 65553, 720898, 1, 65543, 720898, 1, 1114140, 720899, 3, 655391, 1179650, 2, 1179655, 1179650, 2, 131092, 1179650, 2, 1114149, 1048578, 3, 720899, 1048578, 3, 327692, 1048578, 3, 1179653, 917506, 8, 720909, 851970, 6, 720915, 131079, 1, 917514, 1114114, 5, 393233, 1114114, 5, 196616, 1114114, 5, 1179666, 1114114, 5, 1310746, 524292, 1, 1310747, 458756, 0, 1245210, 131077, 7, 1310745, 131077, 7, 1179673, 589830, 3, 720914, 65543, 2, 786451, 7, 1, 851986, 131077, 8, 786449, 131077, 8, 851987, 524292, 0, 786452, 655363, 3, 720913, 655363, 3, 917523, 655363, 3, 851988, 851970, 6, 851985, 1048578, 4, 917522, 851970, 6, 917524, 1245186, 4, 1114137, 524291, 3, 1179675, 524291, 3, 262156, 262147, 8, 262157, 262147, 8, 196621, 131077, 6, 262168, 65541, 6, 196632, 524294, 3, 393244, 131077, 7, 393249, 131077, 7, 393248, 131077, 6, 393245, 65541, 6, 983042, 5, 1, 1245194, 5, 1, 1245220, 65541, 1, 65573, 65541, 1, 655368, 393222, 3, 720906, 131077, 7, 655370, 131077, 6, 720905, 524292, 1, 131094, 131077, 7, 131095, 131077, 7, 131080, 524292, 1, 393246, 524292, 1)

[node name="TrailPath2D2" parent="." instance=ExtResource("2_vak48")]
z_index = 1
y_sort_enabled = true
position = Vector2(-202, -227)
curve = SubResource("Curve2D_l1ohj")
length = 0.5
time = 2.0
loop_delay = 15.0
init_delay = 1.0
width = SubResource("Curve_cut3g")
width_is_local = true
color = SubResource("Gradient_ol163")

[node name="TrailPath2D3" parent="." instance=ExtResource("2_vak48")]
z_index = 1
y_sort_enabled = true
position = Vector2(-174, 226)
curve = SubResource("Curve2D_l1ohj")
length = 0.7
time = 1.5
loop_delay = 10.0
init_delay = 2.0
width = SubResource("Curve_cut3g")
width_is_local = true
color = SubResource("Gradient_ol163")

[node name="TrailPath2D4" parent="." instance=ExtResource("2_vak48")]
z_index = 1
y_sort_enabled = true
position = Vector2(-119, -18)
curve = SubResource("Curve2D_l1ohj")
length = 1.0
loop_delay = 8.0
init_delay = 3.0
width = SubResource("Curve_cut3g")
color = SubResource("Gradient_ol163")

[node name="TrailPath2D5" parent="." instance=ExtResource("2_vak48")]
z_index = 1
y_sort_enabled = true
position = Vector2(341, 222)
curve = SubResource("Curve2D_l1ohj")
length = 1.0
time = 1.5
loop_delay = 9.0
init_delay = 4.0
width = SubResource("Curve_cut3g")
color = SubResource("Gradient_ol163")

[node name="TrailPath2D6" parent="." instance=ExtResource("2_vak48")]
z_index = 1
y_sort_enabled = true
position = Vector2(263, 86)
curve = SubResource("Curve2D_l1ohj")
length = 0.5
loop_delay = 12.0
init_delay = 5.0
width = SubResource("Curve_cut3g")
color = SubResource("Gradient_ol163")

[node name="TrailPath2D7" parent="." instance=ExtResource("2_vak48")]
z_index = 1
y_sort_enabled = true
position = Vector2(402, -227)
curve = SubResource("Curve2D_l1ohj")
length = 1.0
time = 2.0
loop_delay = 13.0
init_delay = 1.0
width = SubResource("Curve_cut3g")
color = SubResource("Gradient_ol163")

[node name="TrailPath2D8" parent="." instance=ExtResource("2_vak48")]
z_index = 1
y_sort_enabled = true
position = Vector2(393, 111)
curve = SubResource("Curve2D_wqj72")
length = 0.5
time = 2.0
loop_delay = 13.0
init_delay = 2.0
width = SubResource("Curve_7ud8r")
color = SubResource("Gradient_ol163")

[node name="TrailPath2D9" parent="." instance=ExtResource("2_vak48")]
z_index = 1
y_sort_enabled = true
position = Vector2(123, 264)
curve = SubResource("Curve2D_42kiq")
length = 0.3
time = 1.5
loop_delay = 13.0
init_delay = 3.0
width = SubResource("Curve_7ud8r")
color = SubResource("Gradient_ol163")

[node name="TrailPath2D10" parent="." instance=ExtResource("2_vak48")]
z_index = 1
y_sort_enabled = true
position = Vector2(185, -4)
curve = SubResource("Curve2D_a2t2d")
length = 0.7
loop_delay = 13.0
init_delay = 4.0
width = SubResource("Curve_7ud8r")
color = SubResource("Gradient_ol163")

[node name="PlayerSpawnLocation" type="Node2D" parent="."]

[node name="0" type="Marker2D" parent="PlayerSpawnLocation"]
position = Vector2(298, 241)

[node name="1" type="Marker2D" parent="PlayerSpawnLocation"]
position = Vector2(295, 286)

[node name="2" type="Marker2D" parent="PlayerSpawnLocation"]
position = Vector2(344, 261)

[node name="3" type="Marker2D" parent="PlayerSpawnLocation"]
position = Vector2(334, 315)

[node name="4" type="Marker2D" parent="PlayerSpawnLocation"]
position = Vector2(347, 211)

[node name="EnemySpawnLocation" type="Node2D" parent="."]

[node name="0" type="Marker2D" parent="EnemySpawnLocation"]
position = Vector2(28, 34)

[node name="1" type="Marker2D" parent="EnemySpawnLocation"]
position = Vector2(531, 40)

[node name="2" type="Marker2D" parent="EnemySpawnLocation"]
position = Vector2(36, 313)

[node name="3" type="Marker2D" parent="EnemySpawnLocation"]
position = Vector2(586, 301)

[node name="DefendObjectSpawnLocation" type="Node2D" parent="."]
position = Vector2(28, 42)

[node name="0" type="Marker2D" parent="DefendObjectSpawnLocation"]
position = Vector2(357, 93)

[node name="GateSpawnLocation" type="Node2D" parent="."]
position = Vector2(28, 42)

[node name="0" type="Marker2D" parent="GateSpawnLocation"]
position = Vector2(300, 248)

[node name="1" type="Marker2D" parent="GateSpawnLocation"]
position = Vector2(548, 158)

[node name="GlobalLight" parent="." instance=ExtResource("3_gf8rq")]
