[gd_scene load_steps=3 format=3 uid="uid://n7r1ie4itr56"]

[ext_resource type="Script" path="res://scenes/ui/common/toast/toast_container.gd" id="1_xgae7"]
[ext_resource type="PackedScene" uid="uid://b6jpj1ddgebuj" path="res://scenes/ui/common/toast/toast.tscn" id="2_jb8xi"]

[node name="ToastContainer" type="CanvasLayer"]
layer = 6
script = ExtResource("1_xgae7")
toast_scene = ExtResource("2_jb8xi")

[node name="Container" type="VBoxContainer" parent="."]
anchors_preset = 10
anchor_right = 1.0
grow_horizontal = 2
size_flags_vertical = 0
mouse_filter = 2
