[gd_resource type="Resource" script_class="BasicStats" load_steps=4 format=3 uid="uid://oewd76nojtfi"]

[ext_resource type="PackedScene" uid="uid://c8eyb358ofdmv" path="res://scenes/enemy/jungle/cactus_enemy.tscn" id="1_4x45d"]
[ext_resource type="Texture2D" uid="uid://ddxe4a3koc01m" path="res://assets/enemy/jungle/icon/jungle/cactus-icon.png" id="1_ihl2p"]
[ext_resource type="Script" path="res://resources/characters/character_data.gd" id="2_vh4kh"]

[resource]
script = ExtResource("2_vh4kh")
id = 1005
object_name = "Cactus Enemy"
object_description = "A spiky desert dweller, using its thorns and unique defenses to repel invaders."
stats_type = 0
scene = ExtResource("1_4x45d")
icon = ExtResource("1_ihl2p")
HP = 50.0
AMMOR = 0.0
MP = 0.0
MP_REFILL = 0.0
MP_REFILL_INTERVAL = 0.0
DMG = 10.0
COOLDOWN = 0.0
ACTIVATE_TIME = 0.0
AREA = 0.0
CRIT_DMG = 0.0
CRIT_RATE = 0.0
MP_COST = 0.0
EXP_MULTIPLIER = 0.0
SPEED_MULTIPLIER = 0.0
FROZEN_RATE = 0.0
STUN_RATE = 0.0
SET_FIRE_RATE = 0.0
SLOW_FIRE_RATE = 0.0
PENETRATE_AMMOR_RATE = 0.0
ATTACK_SPEED = 0.5
BULLET_SPEED = 0.0
BULLET_PER_SHOT = 1
BULLET_DECAY = 1.0
BULLET_PENETRATION = 1
SHOOT_ANGLE = 0.0
EVADE = 0.0
MOVE_SPEED = 12.0
ACCELEBRATION = 15.0
HP_RECEIVED_MULTILPIER = 0.0
EXP = 8.0
COIN = 6.0
COIN_MULTIPLIER = 1.0
PRICE = 1000.0
CAMERA_ZOOM_OUT = 0.0
EXTRA_DMG_TO_JUNGLE_ENEMIES = 0.0
REDUCE_DMG_FROM_JUNGLE_ENEMIES = 0.0
EXTRA_DMG_TO_DESERT_ENEMIES = 0.0
REDUCE_DMG_FROM_DESERT_ENEMIES = 0.0
EXTRA_DMG_TO_LAVA_ENEMIES = 0.0
REDUCE_DMG_FROM_LAVA_ENEMIES = 0.0
passive = Array[ExtResource("2_vh4kh")]([])
