[gd_scene load_steps=5 format=3 uid="uid://6m2vsuxqswy7"]

[ext_resource type="Script" path="res://scenes/autoload/helper/helper.gd" id="1_1a8v8"]
[ext_resource type="PackedScene" uid="uid://dj2010650idsf" path="res://scenes/ui/common/confirm_modal/confirm_modal.tscn" id="2_boh2c"]
[ext_resource type="Script" path="res://scenes/autoload/helper/draw_shape_layer.gd" id="3_qcco5"]
[ext_resource type="PackedScene" uid="uid://n7r1ie4itr56" path="res://scenes/ui/common/toast/toast_container.tscn" id="3_wm1j0"]

[node name="Helper" type="Node"]
process_mode = 3
script = ExtResource("1_1a8v8")
confirm_modal_scene = ExtResource("2_boh2c")

[node name="DrawShape" type="CanvasLayer" parent="."]
script = ExtResource("3_qcco5")

[node name="Normal" type="Node" parent="DrawShape"]

[node name="Top" type="Node" parent="DrawShape"]

[node name="GameUIOverlay" type="CanvasLayer" parent="."]
layer = 4

[node name="PauseMenuOverlay" type="CanvasLayer" parent="."]
process_mode = 3
layer = 6

[node name="ToastContainer" parent="." instance=ExtResource("3_wm1j0")]
process_mode = 3
