[gd_resource type="Resource" script_class="BasicStats" load_steps=4 format=3 uid="uid://bqoipi7phl0t4"]

[ext_resource type="Texture2D" uid="uid://bv6kqtsb27mc2" path="res://assets/statues/knight-statue.png" id="1_3kn61"]
[ext_resource type="PackedScene" uid="uid://63e7ledfjfpd" path="res://scenes/statues/knight_statue.tscn" id="2_cuw5v"]
[ext_resource type="Script" path="res://resources/characters/character_data.gd" id="3_2u7vy"]

[resource]
script = ExtResource("3_2u7vy")
id = 4400
object_name = "Kinght Statue"
object_description = "A noble sculpture capturing the essence of a valiant knight, standing tall in an eternal stance of honor and bravery."
stats_type = 0
scene = ExtResource("2_cuw5v")
icon = ExtResource("1_3kn61")
HP = 500.0
AMMOR = 10.0
MP = 0.0
MP_REFILL = 5.0
MP_REFILL_INTERVAL = 3.0
DMG = 1.5
COOLDOWN = 10.0
ACTIVATE_TIME = 2.0
AREA = 10.0
CRIT_DMG = 0.5
CRIT_RATE = 1.05
MP_COST = 10.0
EXP_MULTIPLIER = 1.0
SPEED_MULTIPLIER = 1.0
FROZEN_RATE = 0.0
STUN_RATE = 0.0
SET_FIRE_RATE = 0.0
SLOW_FIRE_RATE = 0.0
PENETRATE_AMMOR_RATE = 0.0
ATTACK_SPEED = 0.25
BULLET_SPEED = 0.0
BULLET_PER_SHOT = 0.0
BULLET_DECAY = 1.0
BULLET_PENETRATION = 1
SHOOT_ANGLE = 0.0
EVADE = 0.0
MOVE_SPEED = 20.0
ACCELEBRATION = 15.0
HP_RECEIVED_MULTILPIER = 0.0
EXP = 5.0
COIN = 5.0
COIN_MULTIPLIER = 1.0
PRICE = 1000.0
CAMERA_ZOOM_OUT = 0.0
EXTRA_DMG_TO_JUNGLE_ENEMIES = 0.0
REDUCE_DMG_FROM_JUNGLE_ENEMIES = 0.0
EXTRA_DMG_TO_DESERT_ENEMIES = 0.0
REDUCE_DMG_FROM_DESERT_ENEMIES = 0.0
EXTRA_DMG_TO_LAVA_ENEMIES = 0.0
REDUCE_DMG_FROM_LAVA_ENEMIES = 0.0
passive = Array[ExtResource("3_2u7vy")]([])
