[gd_scene load_steps=9 format=3 uid="uid://p2m5p3v1ldw6"]

[ext_resource type="Script" path="res://scenes/components/death_component.gd" id="1_3h2vp"]

[sub_resource type="Animation" id="Animation_5xxd5"]
length = 0.001
tracks/0/type = "value"
tracks/0/imported = false
tracks/0/enabled = true
tracks/0/path = NodePath("GPUParticles2D:emitting")
tracks/0/interp = 1
tracks/0/loop_wrap = true
tracks/0/keys = {
"times": PackedFloat32Array(0),
"transitions": PackedFloat32Array(1),
"update": 1,
"values": [false]
}

[sub_resource type="Animation" id="Animation_oa05a"]
resource_name = "die"
tracks/0/type = "value"
tracks/0/imported = false
tracks/0/enabled = true
tracks/0/path = NodePath("GPUParticles2D:emitting")
tracks/0/interp = 1
tracks/0/loop_wrap = true
tracks/0/keys = {
"times": PackedFloat32Array(0),
"transitions": PackedFloat32Array(1),
"update": 1,
"values": [true]
}
tracks/1/type = "method"
tracks/1/imported = false
tracks/1/enabled = true
tracks/1/path = NodePath(".")
tracks/1/interp = 1
tracks/1/loop_wrap = true
tracks/1/keys = {
"times": PackedFloat32Array(1),
"transitions": PackedFloat32Array(1),
"values": [{
"args": [],
"method": &"queue_free"
}]
}

[sub_resource type="AnimationLibrary" id="AnimationLibrary_ehhmi"]
_data = {
"RESET": SubResource("Animation_5xxd5"),
"die": SubResource("Animation_oa05a")
}

[sub_resource type="CanvasItemMaterial" id="CanvasItemMaterial_o7pp5"]
resource_local_to_scene = true
particles_animation = true
particles_anim_h_frames = 11
particles_anim_v_frames = 1
particles_anim_loop = false

[sub_resource type="Curve" id="Curve_5iemq"]
_data = [Vector2(0, 1), 0.0, 0.0, 0, 0, Vector2(0.716738, 1), 0.0, 0.0, 0, 0, Vector2(1, 0.0545454), 0.0, 0.0, 0, 0]
point_count = 3

[sub_resource type="CurveTexture" id="CurveTexture_6nc0c"]
curve = SubResource("Curve_5iemq")

[sub_resource type="ParticleProcessMaterial" id="ParticleProcessMaterial_0dc3y"]
particle_flag_disable_z = true
direction = Vector3(0, -1, 0)
spread = 30.0
gravity = Vector3(0, 800, 0)
initial_velocity_min = 125.0
initial_velocity_max = 200.0
angular_velocity_min = -1000.0
angular_velocity_max = 1000.0
orbit_velocity_min = 0.0
orbit_velocity_max = 0.0
scale_curve = SubResource("CurveTexture_6nc0c")

[node name="DeathComponent" type="Node2D"]
y_sort_enabled = true
script = ExtResource("1_3h2vp")

[node name="AnimationPlayer" type="AnimationPlayer" parent="."]
libraries = {
"": SubResource("AnimationLibrary_ehhmi")
}

[node name="GPUParticles2D" type="GPUParticles2D" parent="."]
material = SubResource("CanvasItemMaterial_o7pp5")
emitting = false
amount = 1
process_material = SubResource("ParticleProcessMaterial_0dc3y")
lifetime = 0.5
one_shot = true
fixed_fps = 0
interpolate = false
