[gd_resource type="Resource" script_class="GameTilemap" load_steps=3 format=3 uid="uid://ccg0yy2ytjupo"]

[ext_resource type="PackedScene" uid="uid://ve2vyxgnclfl" path="res://resources/maps/Jungle1/jungle1_4.tscn" id="1_rq70i"]
[ext_resource type="Script" path="res://resources/maps/gameplay_tilemap.gd" id="2_p168i"]

[resource]
script = ExtResource("2_p168i")
id = 0
env = 0
scene = ExtResource("1_rq70i")
