[gd_scene load_steps=6 format=3 uid="uid://do28tbkrqxda5"]

[ext_resource type="Shader" path="res://scenes/examples/dissolve/dissolve.gdshader" id="1_j3qk6"]
[ext_resource type="Texture2D" uid="uid://e3y4xw1m01k1" path="res://icon.svg" id="2_gtyaa"]

[sub_resource type="FastNoiseLite" id="FastNoiseLite_72f6y"]
frequency = 0.03

[sub_resource type="NoiseTexture2D" id="NoiseTexture2D_1bs66"]
width = 64
height = 64
seamless = true
seamless_blend_skirt = 0.2
noise = SubResource("FastNoiseLite_72f6y")

[sub_resource type="ShaderMaterial" id="ShaderMaterial_laegf"]
shader = ExtResource("1_j3qk6")
shader_parameter/progress = 0.457
shader_parameter/pixel_size = 256.0
shader_parameter/noise_tex = SubResource("NoiseTexture2D_1bs66")
shader_parameter/color = Color(1, 1, 0, 1)
shader_parameter/color_width = 0.05
shader_parameter/twirl_strength = 0.0
shader_parameter/twirl_center = Vector2(0.5, 0.5)

[node name="Dissolve" type="Node"]

[node name="Icon" type="Sprite2D" parent="."]
material = SubResource("ShaderMaterial_laegf")
position = Vector2(267, 148)
texture = ExtResource("2_gtyaa")
