[gd_scene load_steps=6 format=3 uid="uid://cd4bpocrva8rq"]

[ext_resource type="Shader" path="res://resources/shader/vignette_effect.gdshader" id="1_rdltt"]

[sub_resource type="ShaderMaterial" id="ShaderMaterial_i204i"]
shader = ExtResource("1_rdltt")
shader_parameter/player_position = Vector2(0.5, 0.5)
shader_parameter/color = Color(0, 0, 0, 1)
shader_parameter/MULTIPLIER = 1.0
shader_parameter/SCALE = 1.0
shader_parameter/SOFTNESS = 0.65

[sub_resource type="Animation" id="Animation_h3dka"]
length = 0.001
tracks/0/type = "value"
tracks/0/imported = false
tracks/0/enabled = true
tracks/0/path = NodePath("ColorRect:material:shader_parameter/MULTIPLIER")
tracks/0/interp = 1
tracks/0/loop_wrap = true
tracks/0/keys = {
"times": PackedFloat32Array(0),
"transitions": PackedFloat32Array(1),
"update": 0,
"values": [1.0]
}
tracks/1/type = "value"
tracks/1/imported = false
tracks/1/enabled = true
tracks/1/path = NodePath("ColorRect:material:shader_parameter/SCALE")
tracks/1/interp = 1
tracks/1/loop_wrap = true
tracks/1/keys = {
"times": PackedFloat32Array(0),
"transitions": PackedFloat32Array(1),
"update": 0,
"values": [1.0]
}

[sub_resource type="Animation" id="Animation_htwps"]
resource_name = "bluring"
loop_mode = 2
tracks/0/type = "value"
tracks/0/imported = false
tracks/0/enabled = true
tracks/0/path = NodePath("ColorRect:material:shader_parameter/MULTIPLIER")
tracks/0/interp = 2
tracks/0/loop_wrap = true
tracks/0/keys = {
"times": PackedFloat32Array(0, 1),
"transitions": PackedFloat32Array(1, 1),
"update": 0,
"values": [1.0, 1.5]
}
tracks/1/type = "value"
tracks/1/imported = false
tracks/1/enabled = true
tracks/1/path = NodePath("ColorRect:material:shader_parameter/SCALE")
tracks/1/interp = 2
tracks/1/loop_wrap = true
tracks/1/keys = {
"times": PackedFloat32Array(0, 1),
"transitions": PackedFloat32Array(1, 1),
"update": 0,
"values": [1.0, 1.7]
}

[sub_resource type="AnimationLibrary" id="AnimationLibrary_b4hjj"]
_data = {
"RESET": SubResource("Animation_h3dka"),
"bluring": SubResource("Animation_htwps")
}

[node name="DieScreen" type="CanvasLayer"]
visible = false

[node name="ColorRect" type="ColorRect" parent="."]
material = SubResource("ShaderMaterial_i204i")
anchors_preset = 15
anchor_right = 1.0
anchor_bottom = 1.0
grow_horizontal = 2
grow_vertical = 2

[node name="AnimationPlayer" type="AnimationPlayer" parent="."]
autoplay = "bluring"
libraries = {
"": SubResource("AnimationLibrary_b4hjj")
}
