[gd_scene load_steps=3 format=3 uid="uid://b1pnt1qinx0x1"]

[ext_resource type="Script" path="res://scenes/ui/experience_bar.gd" id="1_hevor"]

[sub_resource type="StyleBoxFlat" id="StyleBoxFlat_kug4r"]
bg_color = Color(0.607843, 0.615686, 0.458824, 1)

[node name="ExperienceBar" type="CanvasLayer"]
script = ExtResource("1_hevor")

[node name="MarginContainer" type="MarginContainer" parent="."]
anchors_preset = 15
anchor_right = 1.0
anchor_bottom = 1.0
grow_horizontal = 2
grow_vertical = 2
size_flags_vertical = 8
mouse_filter = 2

[node name="ProgressBar" type="ProgressBar" parent="MarginContainer"]
custom_minimum_size = Vector2(0, 4)
layout_mode = 2
size_flags_vertical = 8
mouse_filter = 2
theme_override_styles/fill = SubResource("StyleBoxFlat_kug4r")
max_value = 1.0
value = 0.2
show_percentage = false
