[gd_scene load_steps=4 format=3 uid="uid://dqr6xvwpjia7a"]

[ext_resource type="Texture2D" uid="uid://dh8ggr6cie7gc" path="res://assets/ui/minimap/minimap.png" id="1_ygxd2"]

[sub_resource type="StyleBoxTexture" id="StyleBoxTexture_4qqbf"]
content_margin_left = 13.0
content_margin_top = 15.0
content_margin_right = 13.0
content_margin_bottom = 9.0
texture = ExtResource("1_ygxd2")

[sub_resource type="Theme" id="Theme_8nbso"]
PanelContainer/styles/panel = SubResource("StyleBoxTexture_4qqbf")

[node name="MinimapUi" type="CanvasLayer"]

[node name="MarginContainer" type="MarginContainer" parent="."]
custom_minimum_size = Vector2(75, 75)
anchors_preset = 3
anchor_left = 1.0
anchor_top = 1.0
anchor_right = 1.0
anchor_bottom = 1.0
offset_left = -110.0
offset_top = -108.0
grow_horizontal = 0
grow_vertical = 0

[node name="PanelContainer" type="PanelContainer" parent="MarginContainer"]
layout_mode = 2
theme = SubResource("Theme_8nbso")

[node name="MiniMap" type="TextureRect" parent="MarginContainer/PanelContainer"]
layout_mode = 2
