[gd_resource type="ShaderMaterial" load_steps=2 format=3 uid="uid://cundx502ityxb"]

[ext_resource type="Shader" path="res://resources/shader/hit_flash_component.gdshader" id="1_x3c3w"]

[resource]
resource_local_to_scene = true
shader = ExtResource("1_x3c3w")
shader_parameter/lerp_percent = null
