[gd_resource type="TileSet" load_steps=14 format=3 uid="uid://bpn2q7gp1ubps"]

[ext_resource type="Texture2D" uid="uid://brv0g5s2y08qk" path="res://assets/map-jungle-1.png" id="1_8ymhl"]
[ext_resource type="Texture2D" uid="uid://m13dds867u0x" path="res://resources/maps/Jungle1/map-jungle-1_n.png" id="3_pijdo"]
[ext_resource type="Material" uid="uid://cdknhbst4jdto" path="res://resources/shader/jungle_tree_wind_sway_material.tres" id="3_thr1k"]
[ext_resource type="Texture2D" uid="uid://vhi5m6vcaqy7" path="res://assets/map-jungle-water.png" id="4_dxdh4"]

[sub_resource type="CanvasTexture" id="CanvasTexture_dw8eb"]
diffuse_texture = ExtResource("1_8ymhl")

[sub_resource type="TileSetAtlasSource" id="TileSetAtlasSource_l6pj4"]
resource_name = "Unnormal"
texture = SubResource("CanvasTexture_dw8eb")
use_texture_padding = false
10:4/0 = 0
10:4/0/terrain_set = 0
10:4/0/terrain = 0
10:4/0/physics_layer_0/linear_velocity = Vector2(0, 0)
10:4/0/physics_layer_0/angular_velocity = 0.0
10:4/0/terrains_peering_bit/right_side = 0
10:4/0/terrains_peering_bit/top_side = 0
10:4/0/terrains_peering_bit/top_right_corner = 0
11:4/0 = 0
11:4/0/terrain_set = 0
11:4/0/terrain = 0
11:4/0/physics_layer_0/linear_velocity = Vector2(0, 0)
11:4/0/physics_layer_0/angular_velocity = 0.0
11:4/0/terrains_peering_bit/right_side = 0
11:4/0/terrains_peering_bit/left_side = 0
11:4/0/terrains_peering_bit/top_left_corner = 0
11:4/0/terrains_peering_bit/top_side = 0
11:4/0/terrains_peering_bit/top_right_corner = 0
12:4/0 = 0
12:4/0/terrain_set = 0
12:4/0/terrain = 0
12:4/0/physics_layer_0/linear_velocity = Vector2(0, 0)
12:4/0/physics_layer_0/angular_velocity = 0.0
12:4/0/terrains_peering_bit/right_side = 0
12:4/0/terrains_peering_bit/left_side = 0
12:4/0/terrains_peering_bit/top_left_corner = 0
12:4/0/terrains_peering_bit/top_side = 0
12:4/0/terrains_peering_bit/top_right_corner = 0
13:4/0 = 0
13:4/0/terrain_set = 0
13:4/0/terrain = 0
13:4/0/physics_layer_0/linear_velocity = Vector2(0, 0)
13:4/0/physics_layer_0/angular_velocity = 0.0
13:4/0/terrains_peering_bit/right_side = 0
13:4/0/terrains_peering_bit/left_side = 0
13:4/0/terrains_peering_bit/top_left_corner = 0
13:4/0/terrains_peering_bit/top_side = 0
13:4/0/terrains_peering_bit/top_right_corner = 0
14:3/0 = 0
14:3/0/terrain_set = 0
14:3/0/terrain = 0
14:3/0/physics_layer_0/linear_velocity = Vector2(0, 0)
14:3/0/physics_layer_0/angular_velocity = 0.0
14:3/0/terrains_peering_bit/bottom_side = 0
14:3/0/terrains_peering_bit/bottom_left_corner = 0
14:3/0/terrains_peering_bit/left_side = 0
14:3/0/terrains_peering_bit/top_left_corner = 0
14:3/0/terrains_peering_bit/top_side = 0
14:4/0 = 0
14:4/0/terrain_set = 0
14:4/0/terrain = 0
14:4/0/physics_layer_0/linear_velocity = Vector2(0, 0)
14:4/0/physics_layer_0/angular_velocity = 0.0
14:4/0/terrains_peering_bit/left_side = 0
14:4/0/terrains_peering_bit/top_left_corner = 0
14:4/0/terrains_peering_bit/top_side = 0
14:2/0 = 0
14:2/0/terrain_set = 0
14:2/0/terrain = 0
14:2/0/physics_layer_0/linear_velocity = Vector2(0, 0)
14:2/0/physics_layer_0/angular_velocity = 0.0
14:2/0/terrains_peering_bit/bottom_side = 0
14:2/0/terrains_peering_bit/bottom_left_corner = 0
14:2/0/terrains_peering_bit/left_side = 0
14:2/0/terrains_peering_bit/top_left_corner = 0
14:2/0/terrains_peering_bit/top_side = 0
14:1/0 = 0
14:1/0/terrain_set = 0
14:1/0/terrain = 0
14:1/0/physics_layer_0/linear_velocity = Vector2(0, 0)
14:1/0/physics_layer_0/angular_velocity = 0.0
14:1/0/terrains_peering_bit/bottom_side = 0
14:1/0/terrains_peering_bit/bottom_left_corner = 0
14:1/0/terrains_peering_bit/left_side = 0
14:1/0/terrains_peering_bit/top_left_corner = 0
14:1/0/terrains_peering_bit/top_side = 0
14:0/0 = 0
14:0/0/terrain_set = 0
14:0/0/terrain = 0
14:0/0/physics_layer_0/linear_velocity = Vector2(0, 0)
14:0/0/physics_layer_0/angular_velocity = 0.0
14:0/0/terrains_peering_bit/bottom_side = 0
14:0/0/terrains_peering_bit/bottom_left_corner = 0
14:0/0/terrains_peering_bit/left_side = 0
13:0/0 = 0
13:0/0/terrain_set = 0
13:0/0/terrain = 0
13:0/0/physics_layer_0/linear_velocity = Vector2(0, 0)
13:0/0/physics_layer_0/angular_velocity = 0.0
13:0/0/terrains_peering_bit/right_side = 0
13:0/0/terrains_peering_bit/bottom_right_corner = 0
13:0/0/terrains_peering_bit/bottom_side = 0
13:0/0/terrains_peering_bit/bottom_left_corner = 0
13:0/0/terrains_peering_bit/left_side = 0
12:0/0 = 0
12:0/0/terrain_set = 0
12:0/0/terrain = 0
12:0/0/physics_layer_0/linear_velocity = Vector2(0, 0)
12:0/0/physics_layer_0/angular_velocity = 0.0
12:0/0/terrains_peering_bit/right_side = 0
12:0/0/terrains_peering_bit/bottom_right_corner = 0
12:0/0/terrains_peering_bit/bottom_side = 0
12:0/0/terrains_peering_bit/bottom_left_corner = 0
12:0/0/terrains_peering_bit/left_side = 0
11:0/0 = 0
11:0/0/terrain_set = 0
11:0/0/terrain = 0
11:0/0/physics_layer_0/linear_velocity = Vector2(0, 0)
11:0/0/physics_layer_0/angular_velocity = 0.0
11:0/0/terrains_peering_bit/right_side = 0
11:0/0/terrains_peering_bit/bottom_right_corner = 0
11:0/0/terrains_peering_bit/bottom_side = 0
11:0/0/terrains_peering_bit/bottom_left_corner = 0
11:0/0/terrains_peering_bit/left_side = 0
10:0/0 = 0
10:0/0/terrain_set = 0
10:0/0/terrain = 0
10:0/0/physics_layer_0/linear_velocity = Vector2(0, 0)
10:0/0/physics_layer_0/angular_velocity = 0.0
10:0/0/terrains_peering_bit/right_side = 0
10:0/0/terrains_peering_bit/bottom_right_corner = 0
10:0/0/terrains_peering_bit/bottom_side = 0
10:1/0 = 0
10:1/0/terrain_set = 0
10:1/0/terrain = 0
10:1/0/physics_layer_0/linear_velocity = Vector2(0, 0)
10:1/0/physics_layer_0/angular_velocity = 0.0
10:1/0/terrains_peering_bit/right_side = 0
10:1/0/terrains_peering_bit/bottom_right_corner = 0
10:1/0/terrains_peering_bit/bottom_side = 0
10:1/0/terrains_peering_bit/top_side = 0
10:1/0/terrains_peering_bit/top_right_corner = 0
10:2/0 = 0
10:2/0/terrain_set = 0
10:2/0/terrain = 0
10:2/0/physics_layer_0/linear_velocity = Vector2(0, 0)
10:2/0/physics_layer_0/angular_velocity = 0.0
10:2/0/terrains_peering_bit/right_side = 0
10:2/0/terrains_peering_bit/bottom_right_corner = 0
10:2/0/terrains_peering_bit/bottom_side = 0
10:2/0/terrains_peering_bit/top_side = 0
10:2/0/terrains_peering_bit/top_right_corner = 0
10:3/0 = 0
10:3/0/terrain_set = 0
10:3/0/terrain = 0
10:3/0/physics_layer_0/linear_velocity = Vector2(0, 0)
10:3/0/physics_layer_0/angular_velocity = 0.0
10:3/0/terrains_peering_bit/right_side = 0
10:3/0/terrains_peering_bit/bottom_right_corner = 0
10:3/0/terrains_peering_bit/bottom_side = 0
10:3/0/terrains_peering_bit/top_side = 0
10:3/0/terrains_peering_bit/top_right_corner = 0
11:3/0 = 0
11:3/0/terrain_set = 0
11:3/0/terrain = 0
11:3/0/physics_layer_0/linear_velocity = Vector2(0, 0)
11:3/0/physics_layer_0/angular_velocity = 0.0
11:3/0/terrains_peering_bit/right_side = 0
11:3/0/terrains_peering_bit/bottom_right_corner = 0
11:3/0/terrains_peering_bit/bottom_side = 0
11:3/0/terrains_peering_bit/bottom_left_corner = 0
11:3/0/terrains_peering_bit/left_side = 0
11:3/0/terrains_peering_bit/top_left_corner = 0
11:3/0/terrains_peering_bit/top_side = 0
12:3/0 = 0
12:3/0/terrain_set = 0
12:3/0/terrain = 0
12:3/0/physics_layer_0/linear_velocity = Vector2(0, 0)
12:3/0/physics_layer_0/angular_velocity = 0.0
12:3/0/terrains_peering_bit/right_side = 0
12:3/0/terrains_peering_bit/bottom_right_corner = 0
12:3/0/terrains_peering_bit/bottom_side = 0
12:3/0/terrains_peering_bit/bottom_left_corner = 0
12:3/0/terrains_peering_bit/left_side = 0
13:3/0 = 0
13:3/0/terrain_set = 0
13:3/0/terrain = 0
13:3/0/physics_layer_0/linear_velocity = Vector2(0, 0)
13:3/0/physics_layer_0/angular_velocity = 0.0
13:3/0/terrains_peering_bit/right_side = 0
13:3/0/terrains_peering_bit/bottom_right_corner = 0
13:3/0/terrains_peering_bit/bottom_side = 0
13:3/0/terrains_peering_bit/bottom_left_corner = 0
13:3/0/terrains_peering_bit/left_side = 0
13:3/0/terrains_peering_bit/top_side = 0
13:3/0/terrains_peering_bit/top_right_corner = 0
13:1/0 = 0
13:1/0/terrain_set = 0
13:1/0/terrain = 0
13:1/0/physics_layer_0/linear_velocity = Vector2(0, 0)
13:1/0/physics_layer_0/angular_velocity = 0.0
13:1/0/terrains_peering_bit/right_side = 0
13:1/0/terrains_peering_bit/bottom_right_corner = 0
13:1/0/terrains_peering_bit/bottom_side = 0
13:1/0/terrains_peering_bit/left_side = 0
13:1/0/terrains_peering_bit/top_left_corner = 0
13:1/0/terrains_peering_bit/top_side = 0
13:1/0/terrains_peering_bit/top_right_corner = 0
12:1/0 = 0
12:1/0/terrain_set = 0
12:1/0/terrain = 0
12:1/0/physics_layer_0/linear_velocity = Vector2(0, 0)
12:1/0/physics_layer_0/angular_velocity = 0.0
12:1/0/terrains_peering_bit/right_side = 0
12:1/0/terrains_peering_bit/left_side = 0
12:1/0/terrains_peering_bit/top_left_corner = 0
12:1/0/terrains_peering_bit/top_side = 0
12:1/0/terrains_peering_bit/top_right_corner = 0
12:2/0 = 0
12:2/0/terrain_set = 0
12:2/0/terrain = 1
12:2/0/physics_layer_0/linear_velocity = Vector2(0, 0)
12:2/0/physics_layer_0/angular_velocity = 0.0
12:2/0/terrains_peering_bit/right_side = 1
12:2/0/terrains_peering_bit/bottom_right_corner = 1
12:2/0/terrains_peering_bit/bottom_side = 1
12:2/0/terrains_peering_bit/bottom_left_corner = 1
12:2/0/terrains_peering_bit/left_side = 1
12:2/0/terrains_peering_bit/top_left_corner = 1
12:2/0/terrains_peering_bit/top_side = 1
12:2/0/terrains_peering_bit/top_right_corner = 1
11:2/0 = 0
11:2/0/terrain_set = 0
11:2/0/terrain = 0
11:2/0/physics_layer_0/linear_velocity = Vector2(0, 0)
11:2/0/physics_layer_0/angular_velocity = 0.0
11:2/0/terrains_peering_bit/bottom_side = 0
11:2/0/terrains_peering_bit/bottom_left_corner = 0
11:2/0/terrains_peering_bit/left_side = 0
11:2/0/terrains_peering_bit/top_left_corner = 0
11:2/0/terrains_peering_bit/top_side = 0
11:1/0 = 0
11:1/0/terrain_set = 0
11:1/0/terrain = 0
11:1/0/physics_layer_0/linear_velocity = Vector2(0, 0)
11:1/0/physics_layer_0/angular_velocity = 0.0
11:1/0/terrains_peering_bit/right_side = 0
11:1/0/terrains_peering_bit/bottom_side = 0
11:1/0/terrains_peering_bit/bottom_left_corner = 0
11:1/0/terrains_peering_bit/left_side = 0
11:1/0/terrains_peering_bit/top_left_corner = 0
11:1/0/terrains_peering_bit/top_side = 0
11:1/0/terrains_peering_bit/top_right_corner = 0
13:2/0 = 0
13:2/0/terrain_set = 0
13:2/0/terrain = 0
13:2/0/physics_layer_0/linear_velocity = Vector2(0, 0)
13:2/0/physics_layer_0/angular_velocity = 0.0
13:2/0/terrains_peering_bit/right_side = 0
13:2/0/terrains_peering_bit/bottom_right_corner = 0
13:2/0/terrains_peering_bit/bottom_side = 0
13:2/0/terrains_peering_bit/top_side = 0
13:2/0/terrains_peering_bit/top_right_corner = 0
7:5/0 = 0
7:5/0/terrain_set = 0
7:5/0/terrain = 0
7:5/0/probability = 0.05
7:5/0/physics_layer_0/linear_velocity = Vector2(0, 0)
7:5/0/physics_layer_0/angular_velocity = 0.0
7:5/0/terrains_peering_bit/right_side = 0
7:5/0/terrains_peering_bit/bottom_right_corner = 0
7:5/0/terrains_peering_bit/bottom_side = 0
7:5/0/terrains_peering_bit/bottom_left_corner = 0
7:5/0/terrains_peering_bit/left_side = 0
7:5/0/terrains_peering_bit/top_left_corner = 0
7:5/0/terrains_peering_bit/top_side = 0
7:5/0/terrains_peering_bit/top_right_corner = 0
6:5/0 = 0
6:5/0/terrain_set = 0
6:5/0/terrain = 0
6:5/0/probability = 0.05
6:5/0/physics_layer_0/linear_velocity = Vector2(0, 0)
6:5/0/physics_layer_0/angular_velocity = 0.0
6:5/0/terrains_peering_bit/right_side = 0
6:5/0/terrains_peering_bit/bottom_right_corner = 0
6:5/0/terrains_peering_bit/bottom_side = 0
6:5/0/terrains_peering_bit/bottom_left_corner = 0
6:5/0/terrains_peering_bit/left_side = 0
6:5/0/terrains_peering_bit/top_left_corner = 0
6:5/0/terrains_peering_bit/top_side = 0
6:5/0/terrains_peering_bit/top_right_corner = 0
5:5/0 = 0
5:5/0/terrain_set = 0
5:5/0/terrain = 0
5:5/0/probability = 0.05
5:5/0/physics_layer_0/linear_velocity = Vector2(0, 0)
5:5/0/physics_layer_0/angular_velocity = 0.0
5:5/0/terrains_peering_bit/right_side = 0
5:5/0/terrains_peering_bit/bottom_right_corner = 0
5:5/0/terrains_peering_bit/bottom_side = 0
5:5/0/terrains_peering_bit/bottom_left_corner = 0
5:5/0/terrains_peering_bit/left_side = 0
5:5/0/terrains_peering_bit/top_left_corner = 0
5:5/0/terrains_peering_bit/top_side = 0
5:5/0/terrains_peering_bit/top_right_corner = 0
4:5/0 = 0
4:5/0/terrain_set = 0
4:5/0/terrain = 0
4:5/0/probability = 0.05
4:5/0/physics_layer_0/linear_velocity = Vector2(0, 0)
4:5/0/physics_layer_0/angular_velocity = 0.0
4:5/0/terrains_peering_bit/right_side = 0
4:5/0/terrains_peering_bit/bottom_right_corner = 0
4:5/0/terrains_peering_bit/bottom_side = 0
4:5/0/terrains_peering_bit/bottom_left_corner = 0
4:5/0/terrains_peering_bit/left_side = 0
4:5/0/terrains_peering_bit/top_left_corner = 0
4:5/0/terrains_peering_bit/top_side = 0
4:5/0/terrains_peering_bit/top_right_corner = 0
3:5/0 = 0
3:5/0/terrain_set = 0
3:5/0/terrain = 0
3:5/0/probability = 0.05
3:5/0/physics_layer_0/linear_velocity = Vector2(0, 0)
3:5/0/physics_layer_0/angular_velocity = 0.0
3:5/0/terrains_peering_bit/right_side = 0
3:5/0/terrains_peering_bit/bottom_right_corner = 0
3:5/0/terrains_peering_bit/bottom_side = 0
3:5/0/terrains_peering_bit/bottom_left_corner = 0
3:5/0/terrains_peering_bit/left_side = 0
3:5/0/terrains_peering_bit/top_left_corner = 0
3:5/0/terrains_peering_bit/top_side = 0
3:5/0/terrains_peering_bit/top_right_corner = 0
2:5/0 = 0
2:5/0/terrain_set = 0
2:5/0/terrain = 0
2:5/0/probability = 0.05
2:5/0/physics_layer_0/linear_velocity = Vector2(0, 0)
2:5/0/physics_layer_0/angular_velocity = 0.0
2:5/0/terrains_peering_bit/right_side = 0
2:5/0/terrains_peering_bit/bottom_right_corner = 0
2:5/0/terrains_peering_bit/bottom_side = 0
2:5/0/terrains_peering_bit/bottom_left_corner = 0
2:5/0/terrains_peering_bit/left_side = 0
2:5/0/terrains_peering_bit/top_left_corner = 0
2:5/0/terrains_peering_bit/top_side = 0
2:5/0/terrains_peering_bit/top_right_corner = 0
1:5/0 = 0
1:5/0/terrain_set = 0
1:5/0/terrain = 0
1:5/0/probability = 0.05
1:5/0/physics_layer_0/linear_velocity = Vector2(0, 0)
1:5/0/physics_layer_0/angular_velocity = 0.0
1:5/0/terrains_peering_bit/right_side = 0
1:5/0/terrains_peering_bit/bottom_right_corner = 0
1:5/0/terrains_peering_bit/bottom_side = 0
1:5/0/terrains_peering_bit/bottom_left_corner = 0
1:5/0/terrains_peering_bit/left_side = 0
1:5/0/terrains_peering_bit/top_left_corner = 0
1:5/0/terrains_peering_bit/top_side = 0
1:5/0/terrains_peering_bit/top_right_corner = 0
0:5/0 = 0
0:5/0/terrain_set = 0
0:5/0/terrain = 0
0:5/0/physics_layer_0/linear_velocity = Vector2(0, 0)
0:5/0/physics_layer_0/angular_velocity = 0.0
0:5/0/terrains_peering_bit/right_side = 0
0:5/0/terrains_peering_bit/bottom_right_corner = 0
0:5/0/terrains_peering_bit/bottom_side = 0
0:5/0/terrains_peering_bit/bottom_left_corner = 0
0:5/0/terrains_peering_bit/left_side = 0
0:5/0/terrains_peering_bit/top_left_corner = 0
0:5/0/terrains_peering_bit/top_side = 0
0:5/0/terrains_peering_bit/top_right_corner = 0
8:7/0 = 0
8:7/0/physics_layer_0/linear_velocity = Vector2(0, 0)
8:7/0/physics_layer_0/angular_velocity = 0.0
8:7/0/physics_layer_0/polygon_0/points = PackedVector2Array(8, -8, 8, 8, -3.35876, 8, -3.0052, -8)
9:7/0 = 0
9:7/0/physics_layer_0/linear_velocity = Vector2(0, 0)
9:7/0/physics_layer_0/angular_velocity = 0.0
9:7/0/physics_layer_0/polygon_0/points = PackedVector2Array(8, -6.45235, 8, 8, -8, 8, -8, -6.45235)
10:7/0 = 0
10:7/0/physics_layer_0/linear_velocity = Vector2(0, 0)
10:7/0/physics_layer_0/angular_velocity = 0.0
10:7/0/physics_layer_0/polygon_0/points = PackedVector2Array(3.18198, -8, 3.35876, 8, -8, 8, -8, -8)
10:6/0 = 0
10:6/0/physics_layer_0/linear_velocity = Vector2(0, 0)
10:6/0/physics_layer_0/angular_velocity = 0.0
10:6/0/physics_layer_0/polygon_0/points = PackedVector2Array(1.94454, -8, 1.94454, 8, -1.76777, 8, -1.76777, -8)
8:6/0 = 0
8:6/0/physics_layer_0/linear_velocity = Vector2(0, 0)
8:6/0/physics_layer_0/angular_velocity = 0.0
8:6/0/physics_layer_0/polygon_0/points = PackedVector2Array(2.12132, -8, 2.2981, 8, -1.59099, 8, -1.94454, -8)
8:5/0 = 0
8:5/0/physics_layer_0/linear_velocity = Vector2(0, 0)
8:5/0/physics_layer_0/angular_velocity = 0.0
8:5/0/physics_layer_0/polygon_0/points = PackedVector2Array(8, -6.62913, 8, 8, -2.82843, 8, -3.0052, -6.45235)
9:5/0 = 0
9:5/0/physics_layer_0/linear_velocity = Vector2(0, 0)
9:5/0/physics_layer_0/angular_velocity = 0.0
9:5/0/physics_layer_0/polygon_0/points = PackedVector2Array(8, -6.45235, 8, 8, -8, 8, -8, -6.45235)
10:5/0 = 0
10:5/0/physics_layer_0/linear_velocity = Vector2(0, 0)
10:5/0/physics_layer_0/angular_velocity = 0.0
10:5/0/physics_layer_0/polygon_0/points = PackedVector2Array(3.35876, -6.27557, 3.53553, 8, -8, 8, -8, -6.45235)
5:9/0 = 0
5:9/0/physics_layer_0/linear_velocity = Vector2(0, 0)
5:9/0/physics_layer_0/angular_velocity = 0.0
6:9/0 = 0
6:9/0/physics_layer_0/linear_velocity = Vector2(0, 0)
6:9/0/physics_layer_0/angular_velocity = 0.0
7:9/0 = 0
7:9/0/physics_layer_0/linear_velocity = Vector2(0, 0)
7:9/0/physics_layer_0/angular_velocity = 0.0
8:9/0 = 0
8:9/0/physics_layer_0/linear_velocity = Vector2(0, 0)
8:9/0/physics_layer_0/angular_velocity = 0.0
4:9/0 = 0
4:9/0/terrain_set = 1
4:9/0/terrain = 0
4:9/0/probability = 0.005
4:9/0/physics_layer_0/linear_velocity = Vector2(0, 0)
4:9/0/physics_layer_0/angular_velocity = 0.0
4:9/0/terrains_peering_bit/right_side = 0
4:9/0/terrains_peering_bit/bottom_right_corner = 0
4:9/0/terrains_peering_bit/bottom_side = 0
4:9/0/terrains_peering_bit/bottom_left_corner = 0
4:9/0/terrains_peering_bit/left_side = 0
4:9/0/terrains_peering_bit/top_left_corner = 0
4:9/0/terrains_peering_bit/top_side = 0
4:9/0/terrains_peering_bit/top_right_corner = 0
4:8/0 = 0
4:8/0/terrain_set = 1
4:8/0/terrain = 0
4:8/0/probability = 0.005
4:8/0/physics_layer_0/linear_velocity = Vector2(0, 0)
4:8/0/physics_layer_0/angular_velocity = 0.0
4:8/0/terrains_peering_bit/right_side = 0
4:8/0/terrains_peering_bit/bottom_right_corner = 0
4:8/0/terrains_peering_bit/bottom_side = 0
4:8/0/terrains_peering_bit/bottom_left_corner = 0
4:8/0/terrains_peering_bit/left_side = 0
4:8/0/terrains_peering_bit/top_left_corner = 0
4:8/0/terrains_peering_bit/top_side = 0
4:8/0/terrains_peering_bit/top_right_corner = 0
5:8/0 = 0
5:8/0/terrain_set = 1
5:8/0/terrain = 0
5:8/0/probability = 0.005
5:8/0/physics_layer_0/linear_velocity = Vector2(0, 0)
5:8/0/physics_layer_0/angular_velocity = 0.0
5:8/0/terrains_peering_bit/right_side = 0
5:8/0/terrains_peering_bit/bottom_right_corner = 0
5:8/0/terrains_peering_bit/bottom_side = 0
5:8/0/terrains_peering_bit/bottom_left_corner = 0
5:8/0/terrains_peering_bit/left_side = 0
5:8/0/terrains_peering_bit/top_left_corner = 0
5:8/0/terrains_peering_bit/top_side = 0
5:8/0/terrains_peering_bit/top_right_corner = 0
5:7/0 = 0
5:7/0/terrain_set = 1
5:7/0/terrain = 0
5:7/0/probability = 0.005
5:7/0/physics_layer_0/linear_velocity = Vector2(0, 0)
5:7/0/physics_layer_0/angular_velocity = 0.0
5:7/0/terrains_peering_bit/right_side = 0
5:7/0/terrains_peering_bit/bottom_right_corner = 0
5:7/0/terrains_peering_bit/bottom_side = 0
5:7/0/terrains_peering_bit/bottom_left_corner = 0
5:7/0/terrains_peering_bit/left_side = 0
5:7/0/terrains_peering_bit/top_left_corner = 0
5:7/0/terrains_peering_bit/top_side = 0
5:7/0/terrains_peering_bit/top_right_corner = 0
4:7/0 = 0
4:7/0/terrain_set = 1
4:7/0/terrain = 0
4:7/0/probability = 0.005
4:7/0/physics_layer_0/linear_velocity = Vector2(0, 0)
4:7/0/physics_layer_0/angular_velocity = 0.0
4:7/0/terrains_peering_bit/right_side = 0
4:7/0/terrains_peering_bit/bottom_right_corner = 0
4:7/0/terrains_peering_bit/bottom_side = 0
4:7/0/terrains_peering_bit/bottom_left_corner = 0
4:7/0/terrains_peering_bit/left_side = 0
4:7/0/terrains_peering_bit/top_left_corner = 0
4:7/0/terrains_peering_bit/top_side = 0
4:7/0/terrains_peering_bit/top_right_corner = 0
4:6/0 = 0
4:6/0/terrain_set = 1
4:6/0/terrain = 0
4:6/0/probability = 0.005
4:6/0/physics_layer_0/linear_velocity = Vector2(0, 0)
4:6/0/physics_layer_0/angular_velocity = 0.0
4:6/0/terrains_peering_bit/right_side = 0
4:6/0/terrains_peering_bit/bottom_right_corner = 0
4:6/0/terrains_peering_bit/bottom_side = 0
4:6/0/terrains_peering_bit/bottom_left_corner = 0
4:6/0/terrains_peering_bit/left_side = 0
4:6/0/terrains_peering_bit/top_left_corner = 0
4:6/0/terrains_peering_bit/top_side = 0
4:6/0/terrains_peering_bit/top_right_corner = 0
5:6/0 = 0
5:6/0/terrain_set = 1
5:6/0/terrain = 0
5:6/0/probability = 0.005
5:6/0/physics_layer_0/linear_velocity = Vector2(0, 0)
5:6/0/physics_layer_0/angular_velocity = 0.0
5:6/0/terrains_peering_bit/right_side = 0
5:6/0/terrains_peering_bit/bottom_right_corner = 0
5:6/0/terrains_peering_bit/bottom_side = 0
5:6/0/terrains_peering_bit/bottom_left_corner = 0
5:6/0/terrains_peering_bit/left_side = 0
5:6/0/terrains_peering_bit/top_left_corner = 0
5:6/0/terrains_peering_bit/top_side = 0
5:6/0/terrains_peering_bit/top_right_corner = 0
8:11/0 = 0
8:11/0/terrain_set = 1
8:11/0/terrain = 1
8:11/0/physics_layer_0/linear_velocity = Vector2(0, 0)
8:11/0/physics_layer_0/angular_velocity = 0.0
8:11/0/terrains_peering_bit/right_side = 1
8:11/0/terrains_peering_bit/bottom_right_corner = 1
8:11/0/terrains_peering_bit/bottom_side = 1
8:11/0/terrains_peering_bit/bottom_left_corner = 1
8:11/0/terrains_peering_bit/left_side = 1
8:11/0/terrains_peering_bit/top_left_corner = 1
8:11/0/terrains_peering_bit/top_side = 1
8:11/0/terrains_peering_bit/top_right_corner = 1
0:12/0 = 0
0:12/0/terrain_set = 1
0:12/0/terrain = 1
0:12/0/probability = 0.01
0:12/0/physics_layer_0/linear_velocity = Vector2(0, 0)
0:12/0/physics_layer_0/angular_velocity = 0.0
0:12/0/terrains_peering_bit/right_side = 1
0:12/0/terrains_peering_bit/bottom_right_corner = 1
0:12/0/terrains_peering_bit/bottom_side = 1
0:12/0/terrains_peering_bit/bottom_left_corner = 1
0:12/0/terrains_peering_bit/left_side = 1
0:12/0/terrains_peering_bit/top_left_corner = 1
0:12/0/terrains_peering_bit/top_side = 1
0:12/0/terrains_peering_bit/top_right_corner = 1
1:12/0 = 0
1:12/0/terrain_set = 1
1:12/0/terrain = 1
1:12/0/probability = 0.01
1:12/0/physics_layer_0/linear_velocity = Vector2(0, 0)
1:12/0/physics_layer_0/angular_velocity = 0.0
1:12/0/terrains_peering_bit/right_side = 1
1:12/0/terrains_peering_bit/bottom_right_corner = 1
1:12/0/terrains_peering_bit/bottom_side = 1
1:12/0/terrains_peering_bit/bottom_left_corner = 1
1:12/0/terrains_peering_bit/left_side = 1
1:12/0/terrains_peering_bit/top_left_corner = 1
1:12/0/terrains_peering_bit/top_side = 1
1:12/0/terrains_peering_bit/top_right_corner = 1
2:12/0 = 0
2:12/0/terrain_set = 1
2:12/0/terrain = 1
2:12/0/probability = 0.01
2:12/0/physics_layer_0/linear_velocity = Vector2(0, 0)
2:12/0/physics_layer_0/angular_velocity = 0.0
2:12/0/terrains_peering_bit/right_side = 1
2:12/0/terrains_peering_bit/bottom_right_corner = 1
2:12/0/terrains_peering_bit/bottom_side = 1
2:12/0/terrains_peering_bit/bottom_left_corner = 1
2:12/0/terrains_peering_bit/left_side = 1
2:12/0/terrains_peering_bit/top_left_corner = 1
2:12/0/terrains_peering_bit/top_side = 1
2:12/0/terrains_peering_bit/top_right_corner = 1
3:12/0 = 0
3:12/0/terrain_set = 1
3:12/0/terrain = 1
3:12/0/probability = 0.01
3:12/0/physics_layer_0/linear_velocity = Vector2(0, 0)
3:12/0/physics_layer_0/angular_velocity = 0.0
3:12/0/terrains_peering_bit/right_side = 1
3:12/0/terrains_peering_bit/bottom_right_corner = 1
3:12/0/terrains_peering_bit/bottom_side = 1
3:12/0/terrains_peering_bit/bottom_left_corner = 1
3:12/0/terrains_peering_bit/left_side = 1
3:12/0/terrains_peering_bit/top_left_corner = 1
3:12/0/terrains_peering_bit/top_side = 1
3:12/0/terrains_peering_bit/top_right_corner = 1
3:11/0 = 0
3:11/0/terrain_set = 1
3:11/0/terrain = 0
3:11/0/probability = 0.005
3:11/0/physics_layer_0/linear_velocity = Vector2(0, 0)
3:11/0/physics_layer_0/angular_velocity = 0.0
3:11/0/terrains_peering_bit/right_side = 0
3:11/0/terrains_peering_bit/bottom_right_corner = 0
3:11/0/terrains_peering_bit/bottom_side = 0
3:11/0/terrains_peering_bit/bottom_left_corner = 0
3:11/0/terrains_peering_bit/left_side = 0
3:11/0/terrains_peering_bit/top_left_corner = 0
3:11/0/terrains_peering_bit/top_side = 0
3:11/0/terrains_peering_bit/top_right_corner = 0
2:11/0 = 0
2:11/0/terrain_set = 1
2:11/0/terrain = 0
2:11/0/probability = 0.005
2:11/0/physics_layer_0/linear_velocity = Vector2(0, 0)
2:11/0/physics_layer_0/angular_velocity = 0.0
2:11/0/terrains_peering_bit/right_side = 0
2:11/0/terrains_peering_bit/bottom_right_corner = 0
2:11/0/terrains_peering_bit/bottom_side = 0
2:11/0/terrains_peering_bit/bottom_left_corner = 0
2:11/0/terrains_peering_bit/left_side = 0
2:11/0/terrains_peering_bit/top_left_corner = 0
2:11/0/terrains_peering_bit/top_side = 0
2:11/0/terrains_peering_bit/top_right_corner = 0
1:11/0 = 0
1:11/0/terrain_set = 1
1:11/0/terrain = 0
1:11/0/probability = 0.005
1:11/0/physics_layer_0/linear_velocity = Vector2(0, 0)
1:11/0/physics_layer_0/angular_velocity = 0.0
1:11/0/terrains_peering_bit/right_side = 0
1:11/0/terrains_peering_bit/bottom_right_corner = 0
1:11/0/terrains_peering_bit/bottom_side = 0
1:11/0/terrains_peering_bit/bottom_left_corner = 0
1:11/0/terrains_peering_bit/left_side = 0
1:11/0/terrains_peering_bit/top_left_corner = 0
1:11/0/terrains_peering_bit/top_side = 0
1:11/0/terrains_peering_bit/top_right_corner = 0
0:11/0 = 0
0:11/0/terrain_set = 1
0:11/0/terrain = 0
0:11/0/probability = 0.005
0:11/0/physics_layer_0/linear_velocity = Vector2(0, 0)
0:11/0/physics_layer_0/angular_velocity = 0.0
0:11/0/terrains_peering_bit/right_side = 0
0:11/0/terrains_peering_bit/bottom_right_corner = 0
0:11/0/terrains_peering_bit/bottom_side = 0
0:11/0/terrains_peering_bit/bottom_left_corner = 0
0:11/0/terrains_peering_bit/left_side = 0
0:11/0/terrains_peering_bit/top_left_corner = 0
0:11/0/terrains_peering_bit/top_side = 0
0:11/0/terrains_peering_bit/top_right_corner = 0
8:10/0 = 0
8:10/0/terrain_set = 1
8:10/0/terrain = 0
8:10/0/probability = 0.005
8:10/0/physics_layer_0/linear_velocity = Vector2(0, 0)
8:10/0/physics_layer_0/angular_velocity = 0.0
8:10/0/terrains_peering_bit/right_side = 0
8:10/0/terrains_peering_bit/bottom_right_corner = 0
8:10/0/terrains_peering_bit/bottom_side = 0
8:10/0/terrains_peering_bit/bottom_left_corner = 0
8:10/0/terrains_peering_bit/left_side = 0
8:10/0/terrains_peering_bit/top_left_corner = 0
8:10/0/terrains_peering_bit/top_side = 0
8:10/0/terrains_peering_bit/top_right_corner = 0
7:10/0 = 0
7:10/0/terrain_set = 1
7:10/0/terrain = 0
7:10/0/probability = 0.005
7:10/0/physics_layer_0/linear_velocity = Vector2(0, 0)
7:10/0/physics_layer_0/angular_velocity = 0.0
7:10/0/terrains_peering_bit/right_side = 0
7:10/0/terrains_peering_bit/bottom_right_corner = 0
7:10/0/terrains_peering_bit/bottom_side = 0
7:10/0/terrains_peering_bit/bottom_left_corner = 0
7:10/0/terrains_peering_bit/left_side = 0
7:10/0/terrains_peering_bit/top_left_corner = 0
7:10/0/terrains_peering_bit/top_side = 0
7:10/0/terrains_peering_bit/top_right_corner = 0
6:10/0 = 0
6:10/0/terrain_set = 1
6:10/0/terrain = 0
6:10/0/probability = 0.005
6:10/0/physics_layer_0/linear_velocity = Vector2(0, 0)
6:10/0/physics_layer_0/angular_velocity = 0.0
6:10/0/terrains_peering_bit/right_side = 0
6:10/0/terrains_peering_bit/bottom_right_corner = 0
6:10/0/terrains_peering_bit/bottom_side = 0
6:10/0/terrains_peering_bit/bottom_left_corner = 0
6:10/0/terrains_peering_bit/left_side = 0
6:10/0/terrains_peering_bit/top_left_corner = 0
6:10/0/terrains_peering_bit/top_side = 0
6:10/0/terrains_peering_bit/top_right_corner = 0
5:10/0 = 0
5:10/0/terrain_set = 1
5:10/0/terrain = 0
5:10/0/probability = 0.005
5:10/0/physics_layer_0/linear_velocity = Vector2(0, 0)
5:10/0/physics_layer_0/angular_velocity = 0.0
5:10/0/terrains_peering_bit/right_side = 0
5:10/0/terrains_peering_bit/bottom_right_corner = 0
5:10/0/terrains_peering_bit/bottom_side = 0
5:10/0/terrains_peering_bit/bottom_left_corner = 0
5:10/0/terrains_peering_bit/left_side = 0
5:10/0/terrains_peering_bit/top_left_corner = 0
5:10/0/terrains_peering_bit/top_side = 0
5:10/0/terrains_peering_bit/top_right_corner = 0
4:10/0 = 0
4:10/0/terrain_set = 1
4:10/0/terrain = 0
4:10/0/probability = 0.005
4:10/0/physics_layer_0/linear_velocity = Vector2(0, 0)
4:10/0/physics_layer_0/angular_velocity = 0.0
4:10/0/terrains_peering_bit/right_side = 0
4:10/0/terrains_peering_bit/bottom_right_corner = 0
4:10/0/terrains_peering_bit/bottom_side = 0
4:10/0/terrains_peering_bit/bottom_left_corner = 0
4:10/0/terrains_peering_bit/left_side = 0
4:10/0/terrains_peering_bit/top_left_corner = 0
4:10/0/terrains_peering_bit/top_side = 0
4:10/0/terrains_peering_bit/top_right_corner = 0
3:10/0 = 0
3:10/0/terrain_set = 1
3:10/0/terrain = 0
3:10/0/probability = 0.005
3:10/0/physics_layer_0/linear_velocity = Vector2(0, 0)
3:10/0/physics_layer_0/angular_velocity = 0.0
3:10/0/terrains_peering_bit/right_side = 0
3:10/0/terrains_peering_bit/bottom_right_corner = 0
3:10/0/terrains_peering_bit/bottom_side = 0
3:10/0/terrains_peering_bit/bottom_left_corner = 0
3:10/0/terrains_peering_bit/left_side = 0
3:10/0/terrains_peering_bit/top_left_corner = 0
3:10/0/terrains_peering_bit/top_side = 0
3:10/0/terrains_peering_bit/top_right_corner = 0
2:10/0 = 0
2:10/0/terrain_set = 1
2:10/0/terrain = 0
2:10/0/probability = 0.005
2:10/0/physics_layer_0/linear_velocity = Vector2(0, 0)
2:10/0/physics_layer_0/angular_velocity = 0.0
2:10/0/terrains_peering_bit/right_side = 0
2:10/0/terrains_peering_bit/bottom_right_corner = 0
2:10/0/terrains_peering_bit/bottom_side = 0
2:10/0/terrains_peering_bit/bottom_left_corner = 0
2:10/0/terrains_peering_bit/left_side = 0
2:10/0/terrains_peering_bit/top_left_corner = 0
2:10/0/terrains_peering_bit/top_side = 0
2:10/0/terrains_peering_bit/top_right_corner = 0
1:10/0 = 0
1:10/0/terrain_set = 1
1:10/0/terrain = 0
1:10/0/probability = 0.005
1:10/0/physics_layer_0/linear_velocity = Vector2(0, 0)
1:10/0/physics_layer_0/angular_velocity = 0.0
1:10/0/terrains_peering_bit/right_side = 0
1:10/0/terrains_peering_bit/bottom_right_corner = 0
1:10/0/terrains_peering_bit/bottom_side = 0
1:10/0/terrains_peering_bit/bottom_left_corner = 0
1:10/0/terrains_peering_bit/left_side = 0
1:10/0/terrains_peering_bit/top_left_corner = 0
1:10/0/terrains_peering_bit/top_side = 0
1:10/0/terrains_peering_bit/top_right_corner = 0
0:10/0 = 0
0:10/0/terrain_set = 1
0:10/0/terrain = 0
0:10/0/probability = 0.005
0:10/0/physics_layer_0/linear_velocity = Vector2(0, 0)
0:10/0/physics_layer_0/angular_velocity = 0.0
0:10/0/terrains_peering_bit/right_side = 0
0:10/0/terrains_peering_bit/bottom_right_corner = 0
0:10/0/terrains_peering_bit/bottom_side = 0
0:10/0/terrains_peering_bit/bottom_left_corner = 0
0:10/0/terrains_peering_bit/left_side = 0
0:10/0/terrains_peering_bit/top_left_corner = 0
0:10/0/terrains_peering_bit/top_side = 0
0:10/0/terrains_peering_bit/top_right_corner = 0
3:9/0 = 0
3:9/0/terrain_set = 1
3:9/0/terrain = 0
3:9/0/probability = 0.005
3:9/0/physics_layer_0/linear_velocity = Vector2(0, 0)
3:9/0/physics_layer_0/angular_velocity = 0.0
3:9/0/terrains_peering_bit/right_side = 0
3:9/0/terrains_peering_bit/bottom_right_corner = 0
3:9/0/terrains_peering_bit/bottom_side = 0
3:9/0/terrains_peering_bit/bottom_left_corner = 0
3:9/0/terrains_peering_bit/left_side = 0
3:9/0/terrains_peering_bit/top_left_corner = 0
3:9/0/terrains_peering_bit/top_side = 0
3:9/0/terrains_peering_bit/top_right_corner = 0
2:9/0 = 0
2:9/0/terrain_set = 1
2:9/0/terrain = 0
2:9/0/probability = 0.005
2:9/0/physics_layer_0/linear_velocity = Vector2(0, 0)
2:9/0/physics_layer_0/angular_velocity = 0.0
2:9/0/terrains_peering_bit/right_side = 0
2:9/0/terrains_peering_bit/bottom_right_corner = 0
2:9/0/terrains_peering_bit/bottom_side = 0
2:9/0/terrains_peering_bit/bottom_left_corner = 0
2:9/0/terrains_peering_bit/left_side = 0
2:9/0/terrains_peering_bit/top_left_corner = 0
2:9/0/terrains_peering_bit/top_side = 0
2:9/0/terrains_peering_bit/top_right_corner = 0
1:9/0 = 0
1:9/0/terrain_set = 1
1:9/0/terrain = 0
1:9/0/probability = 0.005
1:9/0/physics_layer_0/linear_velocity = Vector2(0, 0)
1:9/0/physics_layer_0/angular_velocity = 0.0
1:9/0/terrains_peering_bit/right_side = 0
1:9/0/terrains_peering_bit/bottom_right_corner = 0
1:9/0/terrains_peering_bit/bottom_side = 0
1:9/0/terrains_peering_bit/bottom_left_corner = 0
1:9/0/terrains_peering_bit/left_side = 0
1:9/0/terrains_peering_bit/top_left_corner = 0
1:9/0/terrains_peering_bit/top_side = 0
1:9/0/terrains_peering_bit/top_right_corner = 0
0:9/0 = 0
0:9/0/terrain_set = 1
0:9/0/terrain = 0
0:9/0/probability = 0.005
0:9/0/physics_layer_0/linear_velocity = Vector2(0, 0)
0:9/0/physics_layer_0/angular_velocity = 0.0
0:9/0/terrains_peering_bit/right_side = 0
0:9/0/terrains_peering_bit/bottom_right_corner = 0
0:9/0/terrains_peering_bit/bottom_side = 0
0:9/0/terrains_peering_bit/bottom_left_corner = 0
0:9/0/terrains_peering_bit/left_side = 0
0:9/0/terrains_peering_bit/top_left_corner = 0
0:9/0/terrains_peering_bit/top_side = 0
0:9/0/terrains_peering_bit/top_right_corner = 0
0:8/0 = 0
0:8/0/terrain_set = 1
0:8/0/terrain = 0
0:8/0/probability = 0.005
0:8/0/physics_layer_0/linear_velocity = Vector2(0, 0)
0:8/0/physics_layer_0/angular_velocity = 0.0
0:8/0/terrains_peering_bit/right_side = 0
0:8/0/terrains_peering_bit/bottom_right_corner = 0
0:8/0/terrains_peering_bit/bottom_side = 0
0:8/0/terrains_peering_bit/bottom_left_corner = 0
0:8/0/terrains_peering_bit/left_side = 0
0:8/0/terrains_peering_bit/top_left_corner = 0
0:8/0/terrains_peering_bit/top_side = 0
0:8/0/terrains_peering_bit/top_right_corner = 0
0:7/0 = 0
0:7/0/terrain_set = 1
0:7/0/terrain = 0
0:7/0/probability = 0.005
0:7/0/physics_layer_0/linear_velocity = Vector2(0, 0)
0:7/0/physics_layer_0/angular_velocity = 0.0
0:7/0/terrains_peering_bit/right_side = 0
0:7/0/terrains_peering_bit/bottom_right_corner = 0
0:7/0/terrains_peering_bit/bottom_side = 0
0:7/0/terrains_peering_bit/bottom_left_corner = 0
0:7/0/terrains_peering_bit/left_side = 0
0:7/0/terrains_peering_bit/top_left_corner = 0
0:7/0/terrains_peering_bit/top_side = 0
0:7/0/terrains_peering_bit/top_right_corner = 0
0:6/0 = 0
0:6/0/terrain_set = 1
0:6/0/terrain = 0
0:6/0/probability = 0.005
0:6/0/physics_layer_0/linear_velocity = Vector2(0, 0)
0:6/0/physics_layer_0/angular_velocity = 0.0
0:6/0/terrains_peering_bit/right_side = 0
0:6/0/terrains_peering_bit/bottom_right_corner = 0
0:6/0/terrains_peering_bit/bottom_side = 0
0:6/0/terrains_peering_bit/bottom_left_corner = 0
0:6/0/terrains_peering_bit/left_side = 0
0:6/0/terrains_peering_bit/top_left_corner = 0
0:6/0/terrains_peering_bit/top_side = 0
0:6/0/terrains_peering_bit/top_right_corner = 0
1:6/0 = 0
1:6/0/terrain_set = 1
1:6/0/terrain = 0
1:6/0/probability = 0.005
1:6/0/physics_layer_0/linear_velocity = Vector2(0, 0)
1:6/0/physics_layer_0/angular_velocity = 0.0
1:6/0/terrains_peering_bit/right_side = 0
1:6/0/terrains_peering_bit/bottom_right_corner = 0
1:6/0/terrains_peering_bit/bottom_side = 0
1:6/0/terrains_peering_bit/bottom_left_corner = 0
1:6/0/terrains_peering_bit/left_side = 0
1:6/0/terrains_peering_bit/top_left_corner = 0
1:6/0/terrains_peering_bit/top_side = 0
1:6/0/terrains_peering_bit/top_right_corner = 0
2:6/0 = 0
2:6/0/terrain_set = 1
2:6/0/terrain = 0
2:6/0/probability = 0.005
2:6/0/physics_layer_0/linear_velocity = Vector2(0, 0)
2:6/0/physics_layer_0/angular_velocity = 0.0
2:6/0/terrains_peering_bit/right_side = 0
2:6/0/terrains_peering_bit/bottom_right_corner = 0
2:6/0/terrains_peering_bit/bottom_side = 0
2:6/0/terrains_peering_bit/bottom_left_corner = 0
2:6/0/terrains_peering_bit/left_side = 0
2:6/0/terrains_peering_bit/top_left_corner = 0
2:6/0/terrains_peering_bit/top_side = 0
2:6/0/terrains_peering_bit/top_right_corner = 0
3:6/0 = 0
3:6/0/terrain_set = 1
3:6/0/terrain = 0
3:6/0/probability = 0.005
3:6/0/physics_layer_0/linear_velocity = Vector2(0, 0)
3:6/0/physics_layer_0/angular_velocity = 0.0
3:6/0/terrains_peering_bit/right_side = 0
3:6/0/terrains_peering_bit/bottom_right_corner = 0
3:6/0/terrains_peering_bit/bottom_side = 0
3:6/0/terrains_peering_bit/bottom_left_corner = 0
3:6/0/terrains_peering_bit/left_side = 0
3:6/0/terrains_peering_bit/top_left_corner = 0
3:6/0/terrains_peering_bit/top_side = 0
3:6/0/terrains_peering_bit/top_right_corner = 0
3:7/0 = 0
3:7/0/terrain_set = 1
3:7/0/terrain = 0
3:7/0/probability = 0.005
3:7/0/physics_layer_0/linear_velocity = Vector2(0, 0)
3:7/0/physics_layer_0/angular_velocity = 0.0
3:7/0/terrains_peering_bit/right_side = 0
3:7/0/terrains_peering_bit/bottom_right_corner = 0
3:7/0/terrains_peering_bit/bottom_side = 0
3:7/0/terrains_peering_bit/bottom_left_corner = 0
3:7/0/terrains_peering_bit/left_side = 0
3:7/0/terrains_peering_bit/top_left_corner = 0
3:7/0/terrains_peering_bit/top_side = 0
3:7/0/terrains_peering_bit/top_right_corner = 0
3:8/0 = 0
3:8/0/terrain_set = 1
3:8/0/terrain = 0
3:8/0/probability = 0.005
3:8/0/physics_layer_0/linear_velocity = Vector2(0, 0)
3:8/0/physics_layer_0/angular_velocity = 0.0
3:8/0/terrains_peering_bit/right_side = 0
3:8/0/terrains_peering_bit/bottom_right_corner = 0
3:8/0/terrains_peering_bit/bottom_side = 0
3:8/0/terrains_peering_bit/bottom_left_corner = 0
3:8/0/terrains_peering_bit/left_side = 0
3:8/0/terrains_peering_bit/top_left_corner = 0
3:8/0/terrains_peering_bit/top_side = 0
3:8/0/terrains_peering_bit/top_right_corner = 0
2:8/0 = 0
2:8/0/terrain_set = 1
2:8/0/terrain = 0
2:8/0/probability = 0.005
2:8/0/physics_layer_0/linear_velocity = Vector2(0, 0)
2:8/0/physics_layer_0/angular_velocity = 0.0
2:8/0/terrains_peering_bit/right_side = 0
2:8/0/terrains_peering_bit/bottom_right_corner = 0
2:8/0/terrains_peering_bit/bottom_side = 0
2:8/0/terrains_peering_bit/bottom_left_corner = 0
2:8/0/terrains_peering_bit/left_side = 0
2:8/0/terrains_peering_bit/top_left_corner = 0
2:8/0/terrains_peering_bit/top_side = 0
2:8/0/terrains_peering_bit/top_right_corner = 0
1:8/0 = 0
1:8/0/terrain_set = 1
1:8/0/terrain = 0
1:8/0/probability = 0.005
1:8/0/physics_layer_0/linear_velocity = Vector2(0, 0)
1:8/0/physics_layer_0/angular_velocity = 0.0
1:8/0/terrains_peering_bit/right_side = 0
1:8/0/terrains_peering_bit/bottom_right_corner = 0
1:8/0/terrains_peering_bit/bottom_side = 0
1:8/0/terrains_peering_bit/bottom_left_corner = 0
1:8/0/terrains_peering_bit/left_side = 0
1:8/0/terrains_peering_bit/top_left_corner = 0
1:8/0/terrains_peering_bit/top_side = 0
1:8/0/terrains_peering_bit/top_right_corner = 0
1:7/0 = 0
1:7/0/terrain_set = 1
1:7/0/terrain = 0
1:7/0/probability = 0.005
1:7/0/physics_layer_0/linear_velocity = Vector2(0, 0)
1:7/0/physics_layer_0/angular_velocity = 0.0
1:7/0/terrains_peering_bit/right_side = 0
1:7/0/terrains_peering_bit/bottom_right_corner = 0
1:7/0/terrains_peering_bit/bottom_side = 0
1:7/0/terrains_peering_bit/bottom_left_corner = 0
1:7/0/terrains_peering_bit/left_side = 0
1:7/0/terrains_peering_bit/top_left_corner = 0
1:7/0/terrains_peering_bit/top_side = 0
1:7/0/terrains_peering_bit/top_right_corner = 0
2:7/0 = 0
2:7/0/terrain_set = 1
2:7/0/terrain = 0
2:7/0/probability = 0.005
2:7/0/physics_layer_0/linear_velocity = Vector2(0, 0)
2:7/0/physics_layer_0/angular_velocity = 0.0
2:7/0/terrains_peering_bit/right_side = 0
2:7/0/terrains_peering_bit/bottom_right_corner = 0
2:7/0/terrains_peering_bit/bottom_side = 0
2:7/0/terrains_peering_bit/bottom_left_corner = 0
2:7/0/terrains_peering_bit/left_side = 0
2:7/0/terrains_peering_bit/top_left_corner = 0
2:7/0/terrains_peering_bit/top_side = 0
2:7/0/terrains_peering_bit/top_right_corner = 0
6:6/0 = 0
6:6/0/physics_layer_0/linear_velocity = Vector2(0, 0)
6:6/0/physics_layer_0/angular_velocity = 0.0
7:6/0 = 0
7:6/0/physics_layer_0/linear_velocity = Vector2(0, 0)
7:6/0/physics_layer_0/angular_velocity = 0.0
7:7/0 = 0
7:7/0/texture_origin = Vector2i(0, 6)
7:7/0/physics_layer_0/linear_velocity = Vector2(0, 0)
7:7/0/physics_layer_0/angular_velocity = 0.0
6:7/0 = 0
6:7/0/texture_origin = Vector2i(0, 6)
6:7/0/physics_layer_0/linear_velocity = Vector2(0, 0)
6:7/0/physics_layer_0/angular_velocity = 0.0
5:4/0 = 0
5:4/0/terrain_set = 0
5:4/0/terrain = 1
5:4/0/physics_layer_0/linear_velocity = Vector2(0, 0)
5:4/0/physics_layer_0/angular_velocity = 0.0
5:4/0/terrains_peering_bit/right_side = 1
5:4/0/terrains_peering_bit/top_side = 1
5:4/0/terrains_peering_bit/top_right_corner = 1
6:4/0 = 0
6:4/0/terrain_set = 0
6:4/0/terrain = 1
6:4/0/physics_layer_0/linear_velocity = Vector2(0, 0)
6:4/0/physics_layer_0/angular_velocity = 0.0
6:4/0/terrains_peering_bit/right_side = 1
6:4/0/terrains_peering_bit/left_side = 1
6:4/0/terrains_peering_bit/top_left_corner = 1
6:4/0/terrains_peering_bit/top_side = 1
6:4/0/terrains_peering_bit/top_right_corner = 1
7:4/0 = 0
7:4/0/terrain_set = 0
7:4/0/terrain = 1
7:4/0/physics_layer_0/linear_velocity = Vector2(0, 0)
7:4/0/physics_layer_0/angular_velocity = 0.0
7:4/0/terrains_peering_bit/right_side = 1
7:4/0/terrains_peering_bit/left_side = 1
7:4/0/terrains_peering_bit/top_left_corner = 1
7:4/0/terrains_peering_bit/top_side = 1
7:4/0/terrains_peering_bit/top_right_corner = 1
8:4/0 = 0
8:4/0/terrain_set = 0
8:4/0/terrain = 1
8:4/0/physics_layer_0/linear_velocity = Vector2(0, 0)
8:4/0/physics_layer_0/angular_velocity = 0.0
8:4/0/terrains_peering_bit/right_side = 1
8:4/0/terrains_peering_bit/left_side = 1
8:4/0/terrains_peering_bit/top_left_corner = 1
8:4/0/terrains_peering_bit/top_side = 1
8:4/0/terrains_peering_bit/top_right_corner = 1
9:4/0 = 0
9:4/0/terrain_set = 0
9:4/0/terrain = 1
9:4/0/physics_layer_0/linear_velocity = Vector2(0, 0)
9:4/0/physics_layer_0/angular_velocity = 0.0
9:4/0/terrains_peering_bit/left_side = 1
9:4/0/terrains_peering_bit/top_left_corner = 1
9:4/0/terrains_peering_bit/top_side = 1
9:3/0 = 0
9:3/0/terrain_set = 0
9:3/0/terrain = 1
9:3/0/physics_layer_0/linear_velocity = Vector2(0, 0)
9:3/0/physics_layer_0/angular_velocity = 0.0
9:3/0/terrains_peering_bit/bottom_side = 1
9:3/0/terrains_peering_bit/bottom_left_corner = 1
9:3/0/terrains_peering_bit/left_side = 1
9:3/0/terrains_peering_bit/top_left_corner = 1
9:3/0/terrains_peering_bit/top_side = 1
8:3/0 = 0
8:3/0/terrain_set = 0
8:3/0/terrain = 1
8:3/0/physics_layer_0/linear_velocity = Vector2(0, 0)
8:3/0/physics_layer_0/angular_velocity = 0.0
8:3/0/terrains_peering_bit/right_side = 1
8:3/0/terrains_peering_bit/bottom_right_corner = 1
8:3/0/terrains_peering_bit/bottom_side = 1
8:3/0/terrains_peering_bit/bottom_left_corner = 1
8:3/0/terrains_peering_bit/left_side = 1
8:3/0/terrains_peering_bit/top_side = 1
8:3/0/terrains_peering_bit/top_right_corner = 1
7:3/0 = 0
7:3/0/terrain_set = 0
7:3/0/terrain = 1
7:3/0/physics_layer_0/linear_velocity = Vector2(0, 0)
7:3/0/physics_layer_0/angular_velocity = 0.0
7:3/0/terrains_peering_bit/right_side = 1
7:3/0/terrains_peering_bit/bottom_right_corner = 1
7:3/0/terrains_peering_bit/bottom_side = 1
7:3/0/terrains_peering_bit/bottom_left_corner = 1
7:3/0/terrains_peering_bit/left_side = 1
5:3/0 = 0
5:3/0/terrain_set = 0
5:3/0/terrain = 1
5:3/0/physics_layer_0/linear_velocity = Vector2(0, 0)
5:3/0/physics_layer_0/angular_velocity = 0.0
5:3/0/terrains_peering_bit/right_side = 1
5:3/0/terrains_peering_bit/bottom_right_corner = 1
5:3/0/terrains_peering_bit/bottom_side = 1
5:3/0/terrains_peering_bit/top_side = 1
5:3/0/terrains_peering_bit/top_right_corner = 1
5:2/0 = 0
5:2/0/terrain_set = 0
5:2/0/terrain = 1
5:2/0/physics_layer_0/linear_velocity = Vector2(0, 0)
5:2/0/physics_layer_0/angular_velocity = 0.0
5:2/0/terrains_peering_bit/right_side = 1
5:2/0/terrains_peering_bit/bottom_right_corner = 1
5:2/0/terrains_peering_bit/bottom_side = 1
5:2/0/terrains_peering_bit/top_side = 1
5:2/0/terrains_peering_bit/top_right_corner = 1
6:3/0 = 0
6:3/0/terrain_set = 0
6:3/0/terrain = 1
6:3/0/physics_layer_0/linear_velocity = Vector2(0, 0)
6:3/0/physics_layer_0/angular_velocity = 0.0
6:3/0/terrains_peering_bit/right_side = 1
6:3/0/terrains_peering_bit/bottom_right_corner = 1
6:3/0/terrains_peering_bit/bottom_side = 1
6:3/0/terrains_peering_bit/bottom_left_corner = 1
6:3/0/terrains_peering_bit/left_side = 1
6:3/0/terrains_peering_bit/top_left_corner = 1
6:3/0/terrains_peering_bit/top_side = 1
5:1/0 = 0
5:1/0/terrain_set = 0
5:1/0/terrain = 1
5:1/0/physics_layer_0/linear_velocity = Vector2(0, 0)
5:1/0/physics_layer_0/angular_velocity = 0.0
5:1/0/terrains_peering_bit/right_side = 1
5:1/0/terrains_peering_bit/bottom_right_corner = 1
5:1/0/terrains_peering_bit/bottom_side = 1
5:1/0/terrains_peering_bit/top_side = 1
5:1/0/terrains_peering_bit/top_right_corner = 1
5:0/0 = 0
5:0/0/terrain_set = 0
5:0/0/terrain = 1
5:0/0/physics_layer_0/linear_velocity = Vector2(0, 0)
5:0/0/physics_layer_0/angular_velocity = 0.0
5:0/0/terrains_peering_bit/right_side = 1
5:0/0/terrains_peering_bit/bottom_right_corner = 1
5:0/0/terrains_peering_bit/bottom_side = 1
6:0/0 = 0
6:0/0/terrain_set = 0
6:0/0/terrain = 1
6:0/0/physics_layer_0/linear_velocity = Vector2(0, 0)
6:0/0/physics_layer_0/angular_velocity = 0.0
6:0/0/terrains_peering_bit/right_side = 1
6:0/0/terrains_peering_bit/bottom_right_corner = 1
6:0/0/terrains_peering_bit/bottom_side = 1
6:0/0/terrains_peering_bit/bottom_left_corner = 1
6:0/0/terrains_peering_bit/left_side = 1
7:0/0 = 0
7:0/0/terrain_set = 0
7:0/0/terrain = 1
7:0/0/physics_layer_0/linear_velocity = Vector2(0, 0)
7:0/0/physics_layer_0/angular_velocity = 0.0
7:0/0/terrains_peering_bit/right_side = 1
7:0/0/terrains_peering_bit/bottom_right_corner = 1
7:0/0/terrains_peering_bit/bottom_side = 1
7:0/0/terrains_peering_bit/bottom_left_corner = 1
7:0/0/terrains_peering_bit/left_side = 1
9:0/0 = 0
9:0/0/terrain_set = 0
9:0/0/terrain = 1
9:0/0/physics_layer_0/linear_velocity = Vector2(0, 0)
9:0/0/physics_layer_0/angular_velocity = 0.0
9:0/0/terrains_peering_bit/bottom_side = 1
9:0/0/terrains_peering_bit/bottom_left_corner = 1
9:0/0/terrains_peering_bit/left_side = 1
9:1/0 = 0
9:1/0/terrain_set = 0
9:1/0/terrain = 1
9:1/0/physics_layer_0/linear_velocity = Vector2(0, 0)
9:1/0/physics_layer_0/angular_velocity = 0.0
9:1/0/terrains_peering_bit/bottom_side = 1
9:1/0/terrains_peering_bit/bottom_left_corner = 1
9:1/0/terrains_peering_bit/left_side = 1
9:1/0/terrains_peering_bit/top_left_corner = 1
9:1/0/terrains_peering_bit/top_side = 1
9:2/0 = 0
9:2/0/terrain_set = 0
9:2/0/terrain = 1
9:2/0/physics_layer_0/linear_velocity = Vector2(0, 0)
9:2/0/physics_layer_0/angular_velocity = 0.0
9:2/0/terrains_peering_bit/bottom_side = 1
9:2/0/terrains_peering_bit/bottom_left_corner = 1
9:2/0/terrains_peering_bit/left_side = 1
9:2/0/terrains_peering_bit/top_left_corner = 1
9:2/0/terrains_peering_bit/top_side = 1
8:1/0 = 0
8:1/0/terrain_set = 0
8:1/0/terrain = 1
8:1/0/physics_layer_0/linear_velocity = Vector2(0, 0)
8:1/0/physics_layer_0/angular_velocity = 0.0
8:1/0/terrains_peering_bit/right_side = 1
8:1/0/terrains_peering_bit/bottom_right_corner = 1
8:1/0/terrains_peering_bit/bottom_side = 1
8:1/0/terrains_peering_bit/left_side = 1
8:1/0/terrains_peering_bit/top_left_corner = 1
8:1/0/terrains_peering_bit/top_side = 1
8:1/0/terrains_peering_bit/top_right_corner = 1
6:1/0 = 0
6:1/0/terrain_set = 0
6:1/0/terrain = 1
6:1/0/physics_layer_0/linear_velocity = Vector2(0, 0)
6:1/0/physics_layer_0/angular_velocity = 0.0
6:1/0/terrains_peering_bit/right_side = 1
6:1/0/terrains_peering_bit/bottom_side = 1
6:1/0/terrains_peering_bit/bottom_left_corner = 1
6:1/0/terrains_peering_bit/left_side = 1
6:1/0/terrains_peering_bit/top_left_corner = 1
6:1/0/terrains_peering_bit/top_side = 1
6:1/0/terrains_peering_bit/top_right_corner = 1
6:2/0 = 0
6:2/0/terrain_set = 0
6:2/0/terrain = 1
6:2/0/physics_layer_0/linear_velocity = Vector2(0, 0)
6:2/0/physics_layer_0/angular_velocity = 0.0
6:2/0/terrains_peering_bit/bottom_side = 1
6:2/0/terrains_peering_bit/bottom_left_corner = 1
6:2/0/terrains_peering_bit/left_side = 1
6:2/0/terrains_peering_bit/top_left_corner = 1
6:2/0/terrains_peering_bit/top_side = 1
8:2/0 = 0
8:2/0/terrain_set = 0
8:2/0/terrain = 1
8:2/0/physics_layer_0/linear_velocity = Vector2(0, 0)
8:2/0/physics_layer_0/angular_velocity = 0.0
8:2/0/terrains_peering_bit/right_side = 1
8:2/0/terrains_peering_bit/bottom_right_corner = 1
8:2/0/terrains_peering_bit/bottom_side = 1
8:2/0/terrains_peering_bit/top_side = 1
8:2/0/terrains_peering_bit/top_right_corner = 1
7:1/0 = 0
7:1/0/terrain_set = 0
7:1/0/terrain = 1
7:1/0/physics_layer_0/linear_velocity = Vector2(0, 0)
7:1/0/physics_layer_0/angular_velocity = 0.0
7:1/0/terrains_peering_bit/right_side = 1
7:1/0/terrains_peering_bit/left_side = 1
7:1/0/terrains_peering_bit/top_left_corner = 1
7:1/0/terrains_peering_bit/top_side = 1
7:1/0/terrains_peering_bit/top_right_corner = 1
7:2/0 = 0
7:2/0/physics_layer_0/linear_velocity = Vector2(0, 0)
7:2/0/physics_layer_0/angular_velocity = 0.0
8:0/0 = 0
8:0/0/terrain_set = 0
8:0/0/terrain = 1
8:0/0/physics_layer_0/linear_velocity = Vector2(0, 0)
8:0/0/physics_layer_0/angular_velocity = 0.0
8:0/0/terrains_peering_bit/right_side = 1
8:0/0/terrains_peering_bit/bottom_right_corner = 1
8:0/0/terrains_peering_bit/bottom_side = 1
8:0/0/terrains_peering_bit/bottom_left_corner = 1
8:0/0/terrains_peering_bit/left_side = 1
0:0/0 = 0
0:0/0/physics_layer_0/linear_velocity = Vector2(0, 0)
0:0/0/physics_layer_0/angular_velocity = 0.0
0:0/0/physics_layer_0/polygon_0/points = PackedVector2Array(0.353554, 1.32583, 8, 1.14905, 8, 8, -0.883883, 8)
1:0/0 = 0
1:0/0/physics_layer_0/linear_velocity = Vector2(0, 0)
1:0/0/physics_layer_0/angular_velocity = 0.0
1:0/0/physics_layer_0/polygon_0/points = PackedVector2Array(-8, 0.795495, 8, 1.14905, 8, 8, -8, 8)
2:0/0 = 0
2:0/0/physics_layer_0/linear_velocity = Vector2(0, 0)
2:0/0/physics_layer_0/angular_velocity = 0.0
2:0/0/physics_layer_0/polygon_0/points = PackedVector2Array(-8, 0.795495, 8, 1.14905, 8, 8, -8, 8)
3:0/0 = 0
3:0/0/physics_layer_0/linear_velocity = Vector2(0, 0)
3:0/0/physics_layer_0/angular_velocity = 0.0
3:0/0/physics_layer_0/polygon_0/points = PackedVector2Array(-8, 0.795495, 8, 1.14905, 8, 8, -8, 8)
4:0/0 = 0
4:0/0/physics_layer_0/linear_velocity = Vector2(0, 0)
4:0/0/physics_layer_0/angular_velocity = 0.0
4:0/0/physics_layer_0/polygon_0/points = PackedVector2Array(0.176777, 1.67938, 1.41421, 8, -8, 8, -8, 1.5026)
4:1/0 = 0
4:1/0/physics_layer_0/linear_velocity = Vector2(0, 0)
4:1/0/physics_layer_0/angular_velocity = 0.0
4:1/0/physics_layer_0/polygon_0/points = PackedVector2Array(2.25, -8, 2.4, 8, -8, 8, -8, -8)
4:2/0 = 0
4:2/0/physics_layer_0/linear_velocity = Vector2(0, 0)
4:2/0/physics_layer_0/angular_velocity = 0.0
4:2/0/physics_layer_0/polygon_0/points = PackedVector2Array(2.25, -8, 2.4, 8, -8, 8, -8, -8)
4:3/0 = 0
4:3/0/physics_layer_0/linear_velocity = Vector2(0, 0)
4:3/0/physics_layer_0/angular_velocity = 0.0
4:3/0/physics_layer_0/polygon_0/points = PackedVector2Array(2.25, -8, 2.4, 8, -8, 8, -8, -8)
4:4/0 = 0
4:4/0/physics_layer_0/linear_velocity = Vector2(0, 0)
4:4/0/physics_layer_0/angular_velocity = 0.0
4:4/0/physics_layer_0/polygon_0/points = PackedVector2Array(2.65165, 0.265165, 0.176777, 2.74004, -8, 2.4, -8, -8, 3.15, -8)
3:4/0 = 0
3:4/0/physics_layer_0/linear_velocity = Vector2(0, 0)
3:4/0/physics_layer_0/angular_velocity = 0.0
3:4/0/physics_layer_0/polygon_0/points = PackedVector2Array(8, 2.25, -8, 2.4, -8, -8, 8, -8)
2:4/0 = 0
2:4/0/physics_layer_0/linear_velocity = Vector2(0, 0)
2:4/0/physics_layer_0/angular_velocity = 0.0
2:4/0/physics_layer_0/polygon_0/points = PackedVector2Array(8, 2.25, -8, 2.4, -8, -8, 8, -8)
1:4/0 = 0
1:4/0/physics_layer_0/linear_velocity = Vector2(0, 0)
1:4/0/physics_layer_0/angular_velocity = 0.0
1:4/0/physics_layer_0/polygon_0/points = PackedVector2Array(8, 2.25, -8, 2.4, -8, -8, 8, -8)
0:4/0 = 0
0:4/0/physics_layer_0/linear_velocity = Vector2(0, 0)
0:4/0/physics_layer_0/angular_velocity = 0.0
0:4/0/physics_layer_0/polygon_0/points = PackedVector2Array(-1.59099, 2.20971, -1.59099, -8, 8, -8, 8, 1.85616)
0:3/0 = 0
0:3/0/physics_layer_0/linear_velocity = Vector2(0, 0)
0:3/0/physics_layer_0/angular_velocity = 0.0
0:3/0/physics_layer_0/polygon_0/points = PackedVector2Array(-0.883883, 8, -1.06066, -8, 8, -8, 8, 8)
0:2/0 = 0
0:2/0/physics_layer_0/linear_velocity = Vector2(0, 0)
0:2/0/physics_layer_0/angular_velocity = 0.0
0:2/0/physics_layer_0/polygon_0/points = PackedVector2Array(-0.883883, 8, -1.06066, -8, 8, -8, 8, 8)
0:1/0 = 0
0:1/0/physics_layer_0/linear_velocity = Vector2(0, 0)
0:1/0/physics_layer_0/angular_velocity = 0.0
0:1/0/physics_layer_0/polygon_0/points = PackedVector2Array(-0.883883, 8, -1.06066, -8, 8, -8, 8, 8)
1:1/0 = 0
1:1/0/physics_layer_0/linear_velocity = Vector2(0, 0)
1:1/0/physics_layer_0/angular_velocity = 0.0
1:1/0/physics_layer_0/polygon_0/points = PackedVector2Array(8, -8, 8, 0.25, 0.8, 0.55, 0.5, 8, -8, 8, -8, -8)
1:2/0 = 0
1:2/0/physics_layer_0/linear_velocity = Vector2(0, 0)
1:2/0/physics_layer_0/angular_velocity = 0.0
1:2/0/physics_layer_0/polygon_0/points = PackedVector2Array(2.25, -8, 2.4, 8, -8, 8, -8, -8)
1:3/0 = 0
1:3/0/physics_layer_0/linear_velocity = Vector2(0, 0)
1:3/0/physics_layer_0/angular_velocity = 0.0
1:3/0/physics_layer_0/polygon_0/points = PackedVector2Array(-8, -8, 0.25, -8, 0.55, -0.8, 8, -0.5, 8, 8, -8, 8)
2:3/0 = 0
2:3/0/physics_layer_0/linear_velocity = Vector2(0, 0)
2:3/0/physics_layer_0/angular_velocity = 0.0
2:3/0/physics_layer_0/polygon_0/points = PackedVector2Array(-8, 0.618718, 8, 0.618718, 8, 8, -8, 8)
3:2/0 = 0
3:2/0/physics_layer_0/linear_velocity = Vector2(0, 0)
3:2/0/physics_layer_0/angular_velocity = 0.0
3:2/0/physics_layer_0/polygon_0/points = PackedVector2Array(-2.25, 8, -2.4, -8, 8, -8, 8, 8)
3:1/0 = 0
3:1/0/physics_layer_0/linear_velocity = Vector2(0, 0)
3:1/0/physics_layer_0/angular_velocity = 0.0
3:1/0/physics_layer_0/polygon_0/points = PackedVector2Array(8, 8, -0.25, 8, -0.55, 0.8, -8, 0.5, -8, -8, 8, -8)
2:1/0 = 0
2:1/0/physics_layer_0/linear_velocity = Vector2(0, 0)
2:1/0/physics_layer_0/angular_velocity = 0.0
2:1/0/physics_layer_0/polygon_0/points = PackedVector2Array(8, 2.25, -8, 2.4, -8, -8, 8, -8)
3:3/0 = 0
3:3/0/physics_layer_0/linear_velocity = Vector2(0, 0)
3:3/0/physics_layer_0/angular_velocity = 0.0
3:3/0/physics_layer_0/polygon_0/points = PackedVector2Array(-8, 8, -8, -0.25, -0.8, -0.55, -0.5, -8, 8, -8, 8, 8)
2:2/0 = 0
2:2/0/physics_layer_0/linear_velocity = Vector2(0, 0)
2:2/0/physics_layer_0/angular_velocity = 0.0
2:2/0/physics_layer_0/polygon_0/points = PackedVector2Array(-8, -8, 0.25, -8, 8, -8, 8, -0.5, 8, 8, -8, 8)

[sub_resource type="CanvasTexture" id="CanvasTexture_lmh2k"]
diffuse_texture = ExtResource("1_8ymhl")
normal_texture = ExtResource("3_pijdo")

[sub_resource type="TileSetAtlasSource" id="TileSetAtlasSource_vhbi2"]
resource_name = "trees"
texture = SubResource("CanvasTexture_lmh2k")
margins = Vector2i(0, 32)
texture_region_size = Vector2i(32, 48)
use_texture_padding = false
2:3/0 = 0
2:3/0/texture_origin = Vector2i(0, 16)
2:3/0/material = ExtResource("3_thr1k")
2:3/0/y_sort_origin = 1
2:3/0/probability = 0.05
2:3/0/physics_layer_0/linear_velocity = Vector2(0, 0)
2:3/0/physics_layer_0/angular_velocity = 0.0
2:3/0/physics_layer_0/polygon_0/points = PackedVector2Array(8, -0.267271, -0.5, 5.85, -9.6, 2.75, -5.7, -2.35, 3.8, -3.55)
3:3/0 = 0
3:3/0/texture_origin = Vector2i(0, 16)
3:3/0/material = ExtResource("3_thr1k")
3:3/0/y_sort_origin = 1
3:3/0/probability = 0.05
3:3/0/physics_layer_0/linear_velocity = Vector2(0, 0)
3:3/0/physics_layer_0/angular_velocity = 0.0
3:3/0/physics_layer_0/polygon_0/points = PackedVector2Array(8, -0.267271, -0.5, 5.85, -9.6, 2.75, -5.7, -2.35, 3.8, -3.55)
4:3/0 = 0
4:3/0/texture_origin = Vector2i(0, 16)
4:3/0/material = ExtResource("3_thr1k")
4:3/0/y_sort_origin = 3
4:3/0/probability = 0.05
4:3/0/physics_layer_0/linear_velocity = Vector2(0, 0)
4:3/0/physics_layer_0/angular_velocity = 0.0
4:3/0/physics_layer_0/polygon_0/points = PackedVector2Array(6.7, 2.55, -0.5, 5.85, -5.8, 3.95, -3.1, -1.05, 3.2, -1.85)
6:3/0 = 0
6:3/0/texture_origin = Vector2i(0, 16)
6:3/0/material = ExtResource("3_thr1k")
6:3/0/y_sort_origin = 3
6:3/0/probability = 0.05
6:3/0/physics_layer_0/linear_velocity = Vector2(0, 0)
6:3/0/physics_layer_0/angular_velocity = 0.0
6:3/0/physics_layer_0/polygon_0/points = PackedVector2Array(5.8, 5.85, -2.1, 8, -5.8, 3.95, -2.7, 0.650001, 2.8, 0.650001)
5:3/0 = 0
5:3/0/texture_origin = Vector2i(0, 16)
5:3/0/material = ExtResource("3_thr1k")
5:3/0/y_sort_origin = 3
5:3/0/probability = 0.05
5:3/0/physics_layer_0/linear_velocity = Vector2(0, 0)
5:3/0/physics_layer_0/angular_velocity = 0.0
5:3/0/physics_layer_0/polygon_0/points = PackedVector2Array(5.8, 5.85, -2.1, 8, -5.8, 3.95, -2.7, 0.650001, 2.8, 0.650001)

[sub_resource type="CanvasTexture" id="CanvasTexture_yamqi"]
diffuse_texture = ExtResource("1_8ymhl")
normal_texture = ExtResource("3_pijdo")

[sub_resource type="TileSetAtlasSource" id="TileSetAtlasSource_5mh8x"]
resource_name = "ground top"
texture = SubResource("CanvasTexture_yamqi")
use_texture_padding = false
5:9/0 = 0
5:9/0/physics_layer_0/linear_velocity = Vector2(0, 0)
5:9/0/physics_layer_0/angular_velocity = 0.0
6:9/0 = 0
6:9/0/physics_layer_0/linear_velocity = Vector2(0, 0)
6:9/0/physics_layer_0/angular_velocity = 0.0
7:9/0 = 0
7:9/0/physics_layer_0/linear_velocity = Vector2(0, 0)
7:9/0/physics_layer_0/angular_velocity = 0.0
8:9/0 = 0
8:9/0/physics_layer_0/linear_velocity = Vector2(0, 0)
8:9/0/physics_layer_0/angular_velocity = 0.0
7:7/0 = 0
7:7/0/texture_origin = Vector2i(0, 6)
7:7/0/physics_layer_0/linear_velocity = Vector2(0, 0)
7:7/0/physics_layer_0/angular_velocity = 0.0
6:7/0 = 0
6:7/0/texture_origin = Vector2i(0, 6)
6:7/0/physics_layer_0/linear_velocity = Vector2(0, 0)
6:7/0/physics_layer_0/angular_velocity = 0.0
7:6/0 = 0
7:6/0/physics_layer_0/linear_velocity = Vector2(0, 0)
7:6/0/physics_layer_0/angular_velocity = 0.0
6:6/0 = 0
6:6/0/physics_layer_0/linear_velocity = Vector2(0, 0)
6:6/0/physics_layer_0/angular_velocity = 0.0
8:7/0 = 0
8:7/0/physics_layer_0/linear_velocity = Vector2(0, 0)
8:7/0/physics_layer_0/angular_velocity = 0.0
8:7/0/physics_layer_0/polygon_0/points = PackedVector2Array(8, -8, 8, 8, -8, 8, -8, -8)
9:7/0 = 0
9:7/0/physics_layer_0/linear_velocity = Vector2(0, 0)
9:7/0/physics_layer_0/angular_velocity = 0.0
9:7/0/physics_layer_0/polygon_0/points = PackedVector2Array(8, -8, 8, 8, -8, 8, -8, -8)
10:7/0 = 0
10:7/0/physics_layer_0/linear_velocity = Vector2(0, 0)
10:7/0/physics_layer_0/angular_velocity = 0.0
10:7/0/physics_layer_0/polygon_0/points = PackedVector2Array(8, -8, 8, 8, -8, 8, -8, -8)
10:6/0 = 0
10:6/0/physics_layer_0/linear_velocity = Vector2(0, 0)
10:6/0/physics_layer_0/angular_velocity = 0.0
10:6/0/physics_layer_0/polygon_0/points = PackedVector2Array(8, -8, 8, 8, -8, 8, -8, -8)
10:5/0 = 0
10:5/0/physics_layer_0/linear_velocity = Vector2(0, 0)
10:5/0/physics_layer_0/angular_velocity = 0.0
10:5/0/physics_layer_0/polygon_0/points = PackedVector2Array(8, -8, 8, 8, -8, 8, -8, -8)
9:5/0 = 0
9:5/0/physics_layer_0/linear_velocity = Vector2(0, 0)
9:5/0/physics_layer_0/angular_velocity = 0.0
9:5/0/physics_layer_0/polygon_0/points = PackedVector2Array(8, -8, 8, 8, -8, 8, -8, -8)
8:5/0 = 0
8:5/0/physics_layer_0/linear_velocity = Vector2(0, 0)
8:5/0/physics_layer_0/angular_velocity = 0.0
8:5/0/physics_layer_0/polygon_0/points = PackedVector2Array(8, -8, 8, 8, -8, 8, -8, -8)
8:6/0 = 0
8:6/0/physics_layer_0/linear_velocity = Vector2(0, 0)
8:6/0/physics_layer_0/angular_velocity = 0.0
8:6/0/physics_layer_0/polygon_0/points = PackedVector2Array(8, -8, 8, 8, -8, 8, -8, -8)
3:12/0 = 0
3:12/0/terrain_set = 1
3:12/0/terrain = 1
3:12/0/probability = 0.05
3:12/0/physics_layer_0/linear_velocity = Vector2(0, 0)
3:12/0/physics_layer_0/angular_velocity = 0.0
3:12/0/terrains_peering_bit/right_side = 1
3:12/0/terrains_peering_bit/bottom_right_corner = 1
3:12/0/terrains_peering_bit/bottom_side = 1
3:12/0/terrains_peering_bit/bottom_left_corner = 1
3:12/0/terrains_peering_bit/left_side = 1
3:12/0/terrains_peering_bit/top_left_corner = 1
3:12/0/terrains_peering_bit/top_side = 1
3:12/0/terrains_peering_bit/top_right_corner = 1
2:12/0 = 0
2:12/0/terrain_set = 1
2:12/0/terrain = 1
2:12/0/probability = 0.05
2:12/0/physics_layer_0/linear_velocity = Vector2(0, 0)
2:12/0/physics_layer_0/angular_velocity = 0.0
2:12/0/terrains_peering_bit/right_side = 1
2:12/0/terrains_peering_bit/bottom_right_corner = 1
2:12/0/terrains_peering_bit/bottom_side = 1
2:12/0/terrains_peering_bit/bottom_left_corner = 1
2:12/0/terrains_peering_bit/left_side = 1
2:12/0/terrains_peering_bit/top_left_corner = 1
2:12/0/terrains_peering_bit/top_side = 1
2:12/0/terrains_peering_bit/top_right_corner = 1
1:12/0 = 0
1:12/0/terrain_set = 1
1:12/0/terrain = 1
1:12/0/probability = 0.05
1:12/0/physics_layer_0/linear_velocity = Vector2(0, 0)
1:12/0/physics_layer_0/angular_velocity = 0.0
1:12/0/terrains_peering_bit/right_side = 1
1:12/0/terrains_peering_bit/bottom_right_corner = 1
1:12/0/terrains_peering_bit/bottom_side = 1
1:12/0/terrains_peering_bit/bottom_left_corner = 1
1:12/0/terrains_peering_bit/left_side = 1
1:12/0/terrains_peering_bit/top_left_corner = 1
1:12/0/terrains_peering_bit/top_side = 1
1:12/0/terrains_peering_bit/top_right_corner = 1
0:12/0 = 0
0:12/0/terrain_set = 1
0:12/0/terrain = 1
0:12/0/probability = 0.05
0:12/0/physics_layer_0/linear_velocity = Vector2(0, 0)
0:12/0/physics_layer_0/angular_velocity = 0.0
0:12/0/terrains_peering_bit/right_side = 1
0:12/0/terrains_peering_bit/bottom_right_corner = 1
0:12/0/terrains_peering_bit/bottom_side = 1
0:12/0/terrains_peering_bit/bottom_left_corner = 1
0:12/0/terrains_peering_bit/left_side = 1
0:12/0/terrains_peering_bit/top_left_corner = 1
0:12/0/terrains_peering_bit/top_side = 1
0:12/0/terrains_peering_bit/top_right_corner = 1
4:7/0 = 0
4:7/0/terrain_set = 1
4:7/0/terrain = 1
4:7/0/probability = 0.05
4:7/0/physics_layer_0/linear_velocity = Vector2(0, 0)
4:7/0/physics_layer_0/angular_velocity = 0.0
4:7/0/terrains_peering_bit/right_side = 1
4:7/0/terrains_peering_bit/bottom_right_corner = 1
4:7/0/terrains_peering_bit/bottom_side = 1
4:7/0/terrains_peering_bit/bottom_left_corner = 1
4:7/0/terrains_peering_bit/left_side = 1
4:7/0/terrains_peering_bit/top_left_corner = 1
4:7/0/terrains_peering_bit/top_side = 1
4:7/0/terrains_peering_bit/top_right_corner = 1
4:6/0 = 0
4:6/0/terrain_set = 1
4:6/0/terrain = 1
4:6/0/probability = 0.05
4:6/0/physics_layer_0/linear_velocity = Vector2(0, 0)
4:6/0/physics_layer_0/angular_velocity = 0.0
4:6/0/terrains_peering_bit/right_side = 1
4:6/0/terrains_peering_bit/bottom_right_corner = 1
4:6/0/terrains_peering_bit/bottom_side = 1
4:6/0/terrains_peering_bit/bottom_left_corner = 1
4:6/0/terrains_peering_bit/left_side = 1
4:6/0/terrains_peering_bit/top_left_corner = 1
4:6/0/terrains_peering_bit/top_side = 1
4:6/0/terrains_peering_bit/top_right_corner = 1
5:6/0 = 0
5:6/0/terrain_set = 1
5:6/0/terrain = 1
5:6/0/probability = 0.05
5:6/0/physics_layer_0/linear_velocity = Vector2(0, 0)
5:6/0/physics_layer_0/angular_velocity = 0.0
5:6/0/terrains_peering_bit/right_side = 1
5:6/0/terrains_peering_bit/bottom_right_corner = 1
5:6/0/terrains_peering_bit/bottom_side = 1
5:6/0/terrains_peering_bit/bottom_left_corner = 1
5:6/0/terrains_peering_bit/left_side = 1
5:6/0/terrains_peering_bit/top_left_corner = 1
5:6/0/terrains_peering_bit/top_side = 1
5:6/0/terrains_peering_bit/top_right_corner = 1
6:8/0 = 0
6:8/0/terrain_set = 1
6:8/0/terrain = 1
6:8/0/probability = 0.05
6:8/0/physics_layer_0/linear_velocity = Vector2(0, 0)
6:8/0/physics_layer_0/angular_velocity = 0.0
6:8/0/terrains_peering_bit/right_side = 1
6:8/0/terrains_peering_bit/bottom_right_corner = 1
6:8/0/terrains_peering_bit/bottom_side = 1
6:8/0/terrains_peering_bit/bottom_left_corner = 1
6:8/0/terrains_peering_bit/left_side = 1
6:8/0/terrains_peering_bit/top_left_corner = 1
6:8/0/terrains_peering_bit/top_side = 1
6:8/0/terrains_peering_bit/top_right_corner = 1
3:11/0 = 0
3:11/0/terrain_set = 1
3:11/0/terrain = 0
3:11/0/probability = 0.05
3:11/0/physics_layer_0/linear_velocity = Vector2(0, 0)
3:11/0/physics_layer_0/angular_velocity = 0.0
3:11/0/terrains_peering_bit/right_side = 0
3:11/0/terrains_peering_bit/bottom_right_corner = 0
3:11/0/terrains_peering_bit/bottom_side = 0
3:11/0/terrains_peering_bit/bottom_left_corner = 0
3:11/0/terrains_peering_bit/left_side = 0
3:11/0/terrains_peering_bit/top_left_corner = 0
3:11/0/terrains_peering_bit/top_side = 0
3:11/0/terrains_peering_bit/top_right_corner = 0
2:11/0 = 0
2:11/0/terrain_set = 1
2:11/0/terrain = 0
2:11/0/probability = 0.05
2:11/0/physics_layer_0/linear_velocity = Vector2(0, 0)
2:11/0/physics_layer_0/angular_velocity = 0.0
2:11/0/terrains_peering_bit/right_side = 0
2:11/0/terrains_peering_bit/bottom_right_corner = 0
2:11/0/terrains_peering_bit/bottom_side = 0
2:11/0/terrains_peering_bit/bottom_left_corner = 0
2:11/0/terrains_peering_bit/left_side = 0
2:11/0/terrains_peering_bit/top_left_corner = 0
2:11/0/terrains_peering_bit/top_side = 0
2:11/0/terrains_peering_bit/top_right_corner = 0
1:11/0 = 0
1:11/0/terrain_set = 1
1:11/0/terrain = 0
1:11/0/probability = 0.05
1:11/0/physics_layer_0/linear_velocity = Vector2(0, 0)
1:11/0/physics_layer_0/angular_velocity = 0.0
1:11/0/terrains_peering_bit/right_side = 0
1:11/0/terrains_peering_bit/bottom_right_corner = 0
1:11/0/terrains_peering_bit/bottom_side = 0
1:11/0/terrains_peering_bit/bottom_left_corner = 0
1:11/0/terrains_peering_bit/left_side = 0
1:11/0/terrains_peering_bit/top_left_corner = 0
1:11/0/terrains_peering_bit/top_side = 0
1:11/0/terrains_peering_bit/top_right_corner = 0
0:11/0 = 0
0:11/0/terrain_set = 1
0:11/0/terrain = 0
0:11/0/probability = 0.05
0:11/0/physics_layer_0/linear_velocity = Vector2(0, 0)
0:11/0/physics_layer_0/angular_velocity = 0.0
0:11/0/terrains_peering_bit/right_side = 0
0:11/0/terrains_peering_bit/bottom_right_corner = 0
0:11/0/terrains_peering_bit/bottom_side = 0
0:11/0/terrains_peering_bit/bottom_left_corner = 0
0:11/0/terrains_peering_bit/left_side = 0
0:11/0/terrains_peering_bit/top_left_corner = 0
0:11/0/terrains_peering_bit/top_side = 0
0:11/0/terrains_peering_bit/top_right_corner = 0
1:10/0 = 0
1:10/0/terrain_set = 1
1:10/0/terrain = 0
1:10/0/probability = 0.05
1:10/0/physics_layer_0/linear_velocity = Vector2(0, 0)
1:10/0/physics_layer_0/angular_velocity = 0.0
1:10/0/terrains_peering_bit/right_side = 0
1:10/0/terrains_peering_bit/bottom_right_corner = 0
1:10/0/terrains_peering_bit/bottom_side = 0
1:10/0/terrains_peering_bit/bottom_left_corner = 0
1:10/0/terrains_peering_bit/left_side = 0
1:10/0/terrains_peering_bit/top_left_corner = 0
1:10/0/terrains_peering_bit/top_side = 0
1:10/0/terrains_peering_bit/top_right_corner = 0
0:10/0 = 0
0:10/0/terrain_set = 1
0:10/0/terrain = 0
0:10/0/probability = 0.05
0:10/0/physics_layer_0/linear_velocity = Vector2(0, 0)
0:10/0/physics_layer_0/angular_velocity = 0.0
0:10/0/terrains_peering_bit/right_side = 0
0:10/0/terrains_peering_bit/bottom_right_corner = 0
0:10/0/terrains_peering_bit/bottom_side = 0
0:10/0/terrains_peering_bit/bottom_left_corner = 0
0:10/0/terrains_peering_bit/left_side = 0
0:10/0/terrains_peering_bit/top_left_corner = 0
0:10/0/terrains_peering_bit/top_side = 0
0:10/0/terrains_peering_bit/top_right_corner = 0
2:10/0 = 0
2:10/0/terrain_set = 1
2:10/0/terrain = 0
2:10/0/probability = 0.05
2:10/0/physics_layer_0/linear_velocity = Vector2(0, 0)
2:10/0/physics_layer_0/angular_velocity = 0.0
2:10/0/terrains_peering_bit/right_side = 0
2:10/0/terrains_peering_bit/bottom_right_corner = 0
2:10/0/terrains_peering_bit/bottom_side = 0
2:10/0/terrains_peering_bit/bottom_left_corner = 0
2:10/0/terrains_peering_bit/left_side = 0
2:10/0/terrains_peering_bit/top_left_corner = 0
2:10/0/terrains_peering_bit/top_side = 0
2:10/0/terrains_peering_bit/top_right_corner = 0
3:10/0 = 0
3:10/0/terrain_set = 1
3:10/0/terrain = 0
3:10/0/probability = 0.05
3:10/0/physics_layer_0/linear_velocity = Vector2(0, 0)
3:10/0/physics_layer_0/angular_velocity = 0.0
3:10/0/terrains_peering_bit/right_side = 0
3:10/0/terrains_peering_bit/bottom_right_corner = 0
3:10/0/terrains_peering_bit/bottom_side = 0
3:10/0/terrains_peering_bit/bottom_left_corner = 0
3:10/0/terrains_peering_bit/left_side = 0
3:10/0/terrains_peering_bit/top_left_corner = 0
3:10/0/terrains_peering_bit/top_side = 0
3:10/0/terrains_peering_bit/top_right_corner = 0
4:10/0 = 0
4:10/0/terrain_set = 1
4:10/0/terrain = 0
4:10/0/probability = 0.05
4:10/0/physics_layer_0/linear_velocity = Vector2(0, 0)
4:10/0/physics_layer_0/angular_velocity = 0.0
4:10/0/terrains_peering_bit/right_side = 0
4:10/0/terrains_peering_bit/bottom_right_corner = 0
4:10/0/terrains_peering_bit/bottom_side = 0
4:10/0/terrains_peering_bit/bottom_left_corner = 0
4:10/0/terrains_peering_bit/left_side = 0
4:10/0/terrains_peering_bit/top_left_corner = 0
4:10/0/terrains_peering_bit/top_side = 0
4:10/0/terrains_peering_bit/top_right_corner = 0
5:10/0 = 0
5:10/0/terrain_set = 1
5:10/0/terrain = 0
5:10/0/probability = 0.05
5:10/0/physics_layer_0/linear_velocity = Vector2(0, 0)
5:10/0/physics_layer_0/angular_velocity = 0.0
5:10/0/terrains_peering_bit/right_side = 0
5:10/0/terrains_peering_bit/bottom_right_corner = 0
5:10/0/terrains_peering_bit/bottom_side = 0
5:10/0/terrains_peering_bit/bottom_left_corner = 0
5:10/0/terrains_peering_bit/left_side = 0
5:10/0/terrains_peering_bit/top_left_corner = 0
5:10/0/terrains_peering_bit/top_side = 0
5:10/0/terrains_peering_bit/top_right_corner = 0
6:10/0 = 0
6:10/0/terrain_set = 1
6:10/0/terrain = 0
6:10/0/probability = 0.05
6:10/0/physics_layer_0/linear_velocity = Vector2(0, 0)
6:10/0/physics_layer_0/angular_velocity = 0.0
6:10/0/terrains_peering_bit/right_side = 0
6:10/0/terrains_peering_bit/bottom_right_corner = 0
6:10/0/terrains_peering_bit/bottom_side = 0
6:10/0/terrains_peering_bit/bottom_left_corner = 0
6:10/0/terrains_peering_bit/left_side = 0
6:10/0/terrains_peering_bit/top_left_corner = 0
6:10/0/terrains_peering_bit/top_side = 0
6:10/0/terrains_peering_bit/top_right_corner = 0
7:10/0 = 0
7:10/0/terrain_set = 1
7:10/0/terrain = 0
7:10/0/probability = 0.05
7:10/0/physics_layer_0/linear_velocity = Vector2(0, 0)
7:10/0/physics_layer_0/angular_velocity = 0.0
7:10/0/terrains_peering_bit/right_side = 0
7:10/0/terrains_peering_bit/bottom_right_corner = 0
7:10/0/terrains_peering_bit/bottom_side = 0
7:10/0/terrains_peering_bit/bottom_left_corner = 0
7:10/0/terrains_peering_bit/left_side = 0
7:10/0/terrains_peering_bit/top_left_corner = 0
7:10/0/terrains_peering_bit/top_side = 0
7:10/0/terrains_peering_bit/top_right_corner = 0
8:10/0 = 0
8:10/0/terrain_set = 1
8:10/0/terrain = 0
8:10/0/probability = 0.05
8:10/0/physics_layer_0/linear_velocity = Vector2(0, 0)
8:10/0/physics_layer_0/angular_velocity = 0.0
8:10/0/terrains_peering_bit/right_side = 0
8:10/0/terrains_peering_bit/bottom_right_corner = 0
8:10/0/terrains_peering_bit/bottom_side = 0
8:10/0/terrains_peering_bit/bottom_left_corner = 0
8:10/0/terrains_peering_bit/left_side = 0
8:10/0/terrains_peering_bit/top_left_corner = 0
8:10/0/terrains_peering_bit/top_side = 0
8:10/0/terrains_peering_bit/top_right_corner = 0
4:9/0 = 0
4:9/0/terrain_set = 1
4:9/0/terrain = 0
4:9/0/probability = 0.01
4:9/0/physics_layer_0/linear_velocity = Vector2(0, 0)
4:9/0/physics_layer_0/angular_velocity = 0.0
4:9/0/terrains_peering_bit/right_side = 0
4:9/0/terrains_peering_bit/bottom_right_corner = 0
4:9/0/terrains_peering_bit/bottom_side = 0
4:9/0/terrains_peering_bit/bottom_left_corner = 0
4:9/0/terrains_peering_bit/left_side = 0
4:9/0/terrains_peering_bit/top_left_corner = 0
4:9/0/terrains_peering_bit/top_side = 0
4:9/0/terrains_peering_bit/top_right_corner = 0
3:9/0 = 0
3:9/0/terrain_set = 1
3:9/0/terrain = 0
3:9/0/probability = 0.05
3:9/0/physics_layer_0/linear_velocity = Vector2(0, 0)
3:9/0/physics_layer_0/angular_velocity = 0.0
3:9/0/terrains_peering_bit/right_side = 0
3:9/0/terrains_peering_bit/bottom_right_corner = 0
3:9/0/terrains_peering_bit/bottom_side = 0
3:9/0/terrains_peering_bit/bottom_left_corner = 0
3:9/0/terrains_peering_bit/left_side = 0
3:9/0/terrains_peering_bit/top_left_corner = 0
3:9/0/terrains_peering_bit/top_side = 0
3:9/0/terrains_peering_bit/top_right_corner = 0
2:9/0 = 0
2:9/0/terrain_set = 1
2:9/0/terrain = 0
2:9/0/probability = 0.05
2:9/0/physics_layer_0/linear_velocity = Vector2(0, 0)
2:9/0/physics_layer_0/angular_velocity = 0.0
2:9/0/terrains_peering_bit/right_side = 0
2:9/0/terrains_peering_bit/bottom_right_corner = 0
2:9/0/terrains_peering_bit/bottom_side = 0
2:9/0/terrains_peering_bit/bottom_left_corner = 0
2:9/0/terrains_peering_bit/left_side = 0
2:9/0/terrains_peering_bit/top_left_corner = 0
2:9/0/terrains_peering_bit/top_side = 0
2:9/0/terrains_peering_bit/top_right_corner = 0
1:9/0 = 0
1:9/0/terrain_set = 1
1:9/0/terrain = 0
1:9/0/probability = 0.05
1:9/0/physics_layer_0/linear_velocity = Vector2(0, 0)
1:9/0/physics_layer_0/angular_velocity = 0.0
1:9/0/terrains_peering_bit/right_side = 0
1:9/0/terrains_peering_bit/bottom_right_corner = 0
1:9/0/terrains_peering_bit/bottom_side = 0
1:9/0/terrains_peering_bit/bottom_left_corner = 0
1:9/0/terrains_peering_bit/left_side = 0
1:9/0/terrains_peering_bit/top_left_corner = 0
1:9/0/terrains_peering_bit/top_side = 0
1:9/0/terrains_peering_bit/top_right_corner = 0
0:9/0 = 0
0:9/0/terrain_set = 1
0:9/0/terrain = 0
0:9/0/probability = 0.05
0:9/0/physics_layer_0/linear_velocity = Vector2(0, 0)
0:9/0/physics_layer_0/angular_velocity = 0.0
0:9/0/terrains_peering_bit/right_side = 0
0:9/0/terrains_peering_bit/bottom_right_corner = 0
0:9/0/terrains_peering_bit/bottom_side = 0
0:9/0/terrains_peering_bit/bottom_left_corner = 0
0:9/0/terrains_peering_bit/left_side = 0
0:9/0/terrains_peering_bit/top_left_corner = 0
0:9/0/terrains_peering_bit/top_side = 0
0:9/0/terrains_peering_bit/top_right_corner = 0
0:8/0 = 0
0:8/0/terrain_set = 1
0:8/0/terrain = 0
0:8/0/probability = 0.05
0:8/0/physics_layer_0/linear_velocity = Vector2(0, 0)
0:8/0/physics_layer_0/angular_velocity = 0.0
0:8/0/terrains_peering_bit/right_side = 0
0:8/0/terrains_peering_bit/bottom_right_corner = 0
0:8/0/terrains_peering_bit/bottom_side = 0
0:8/0/terrains_peering_bit/bottom_left_corner = 0
0:8/0/terrains_peering_bit/left_side = 0
0:8/0/terrains_peering_bit/top_left_corner = 0
0:8/0/terrains_peering_bit/top_side = 0
0:8/0/terrains_peering_bit/top_right_corner = 0
1:8/0 = 0
1:8/0/terrain_set = 1
1:8/0/terrain = 0
1:8/0/probability = 0.05
1:8/0/physics_layer_0/linear_velocity = Vector2(0, 0)
1:8/0/physics_layer_0/angular_velocity = 0.0
1:8/0/terrains_peering_bit/right_side = 0
1:8/0/terrains_peering_bit/bottom_right_corner = 0
1:8/0/terrains_peering_bit/bottom_side = 0
1:8/0/terrains_peering_bit/bottom_left_corner = 0
1:8/0/terrains_peering_bit/left_side = 0
1:8/0/terrains_peering_bit/top_left_corner = 0
1:8/0/terrains_peering_bit/top_side = 0
1:8/0/terrains_peering_bit/top_right_corner = 0
2:8/0 = 0
2:8/0/terrain_set = 1
2:8/0/terrain = 0
2:8/0/probability = 0.05
2:8/0/physics_layer_0/linear_velocity = Vector2(0, 0)
2:8/0/physics_layer_0/angular_velocity = 0.0
2:8/0/terrains_peering_bit/right_side = 0
2:8/0/terrains_peering_bit/bottom_right_corner = 0
2:8/0/terrains_peering_bit/bottom_side = 0
2:8/0/terrains_peering_bit/bottom_left_corner = 0
2:8/0/terrains_peering_bit/left_side = 0
2:8/0/terrains_peering_bit/top_left_corner = 0
2:8/0/terrains_peering_bit/top_side = 0
2:8/0/terrains_peering_bit/top_right_corner = 0
3:8/0 = 0
3:8/0/terrain_set = 1
3:8/0/terrain = 0
3:8/0/probability = 0.05
3:8/0/physics_layer_0/linear_velocity = Vector2(0, 0)
3:8/0/physics_layer_0/angular_velocity = 0.0
3:8/0/terrains_peering_bit/right_side = 0
3:8/0/terrains_peering_bit/bottom_right_corner = 0
3:8/0/terrains_peering_bit/bottom_side = 0
3:8/0/terrains_peering_bit/bottom_left_corner = 0
3:8/0/terrains_peering_bit/left_side = 0
3:8/0/terrains_peering_bit/top_left_corner = 0
3:8/0/terrains_peering_bit/top_side = 0
3:8/0/terrains_peering_bit/top_right_corner = 0
4:8/0 = 0
4:8/0/terrain_set = 1
4:8/0/terrain = 0
4:8/0/probability = 0.05
4:8/0/physics_layer_0/linear_velocity = Vector2(0, 0)
4:8/0/physics_layer_0/angular_velocity = 0.0
4:8/0/terrains_peering_bit/right_side = 0
4:8/0/terrains_peering_bit/bottom_right_corner = 0
4:8/0/terrains_peering_bit/bottom_side = 0
4:8/0/terrains_peering_bit/bottom_left_corner = 0
4:8/0/terrains_peering_bit/left_side = 0
4:8/0/terrains_peering_bit/top_left_corner = 0
4:8/0/terrains_peering_bit/top_side = 0
4:8/0/terrains_peering_bit/top_right_corner = 0
5:8/0 = 0
5:8/0/terrain_set = 1
5:8/0/terrain = 0
5:8/0/probability = 0.05
5:8/0/physics_layer_0/linear_velocity = Vector2(0, 0)
5:8/0/physics_layer_0/angular_velocity = 0.0
5:8/0/terrains_peering_bit/right_side = 0
5:8/0/terrains_peering_bit/bottom_right_corner = 0
5:8/0/terrains_peering_bit/bottom_side = 0
5:8/0/terrains_peering_bit/bottom_left_corner = 0
5:8/0/terrains_peering_bit/left_side = 0
5:8/0/terrains_peering_bit/top_left_corner = 0
5:8/0/terrains_peering_bit/top_side = 0
5:8/0/terrains_peering_bit/top_right_corner = 0
5:7/0 = 0
5:7/0/terrain_set = 1
5:7/0/terrain = 0
5:7/0/probability = 0.01
5:7/0/physics_layer_0/linear_velocity = Vector2(0, 0)
5:7/0/physics_layer_0/angular_velocity = 0.0
5:7/0/terrains_peering_bit/right_side = 0
5:7/0/terrains_peering_bit/bottom_right_corner = 0
5:7/0/terrains_peering_bit/bottom_side = 0
5:7/0/terrains_peering_bit/bottom_left_corner = 0
5:7/0/terrains_peering_bit/left_side = 0
5:7/0/terrains_peering_bit/top_left_corner = 0
5:7/0/terrains_peering_bit/top_side = 0
5:7/0/terrains_peering_bit/top_right_corner = 0
3:7/0 = 0
3:7/0/terrain_set = 1
3:7/0/terrain = 0
3:7/0/probability = 0.05
3:7/0/physics_layer_0/linear_velocity = Vector2(0, 0)
3:7/0/physics_layer_0/angular_velocity = 0.0
3:7/0/terrains_peering_bit/right_side = 0
3:7/0/terrains_peering_bit/bottom_right_corner = 0
3:7/0/terrains_peering_bit/bottom_side = 0
3:7/0/terrains_peering_bit/bottom_left_corner = 0
3:7/0/terrains_peering_bit/left_side = 0
3:7/0/terrains_peering_bit/top_left_corner = 0
3:7/0/terrains_peering_bit/top_side = 0
3:7/0/terrains_peering_bit/top_right_corner = 0
2:7/0 = 0
2:7/0/terrain_set = 1
2:7/0/terrain = 0
2:7/0/probability = 0.05
2:7/0/physics_layer_0/linear_velocity = Vector2(0, 0)
2:7/0/physics_layer_0/angular_velocity = 0.0
2:7/0/terrains_peering_bit/right_side = 0
2:7/0/terrains_peering_bit/bottom_right_corner = 0
2:7/0/terrains_peering_bit/bottom_side = 0
2:7/0/terrains_peering_bit/bottom_left_corner = 0
2:7/0/terrains_peering_bit/left_side = 0
2:7/0/terrains_peering_bit/top_left_corner = 0
2:7/0/terrains_peering_bit/top_side = 0
2:7/0/terrains_peering_bit/top_right_corner = 0
1:7/0 = 0
1:7/0/terrain_set = 1
1:7/0/terrain = 0
1:7/0/probability = 0.05
1:7/0/physics_layer_0/linear_velocity = Vector2(0, 0)
1:7/0/physics_layer_0/angular_velocity = 0.0
1:7/0/terrains_peering_bit/right_side = 0
1:7/0/terrains_peering_bit/bottom_right_corner = 0
1:7/0/terrains_peering_bit/bottom_side = 0
1:7/0/terrains_peering_bit/bottom_left_corner = 0
1:7/0/terrains_peering_bit/left_side = 0
1:7/0/terrains_peering_bit/top_left_corner = 0
1:7/0/terrains_peering_bit/top_side = 0
1:7/0/terrains_peering_bit/top_right_corner = 0
0:7/0 = 0
0:7/0/terrain_set = 1
0:7/0/terrain = 0
0:7/0/probability = 0.05
0:7/0/physics_layer_0/linear_velocity = Vector2(0, 0)
0:7/0/physics_layer_0/angular_velocity = 0.0
0:7/0/terrains_peering_bit/right_side = 0
0:7/0/terrains_peering_bit/bottom_right_corner = 0
0:7/0/terrains_peering_bit/bottom_side = 0
0:7/0/terrains_peering_bit/bottom_left_corner = 0
0:7/0/terrains_peering_bit/left_side = 0
0:7/0/terrains_peering_bit/top_left_corner = 0
0:7/0/terrains_peering_bit/top_side = 0
0:7/0/terrains_peering_bit/top_right_corner = 0
0:6/0 = 0
0:6/0/terrain_set = 1
0:6/0/terrain = 0
0:6/0/probability = 0.05
0:6/0/physics_layer_0/linear_velocity = Vector2(0, 0)
0:6/0/physics_layer_0/angular_velocity = 0.0
0:6/0/terrains_peering_bit/right_side = 0
0:6/0/terrains_peering_bit/bottom_right_corner = 0
0:6/0/terrains_peering_bit/bottom_side = 0
0:6/0/terrains_peering_bit/bottom_left_corner = 0
0:6/0/terrains_peering_bit/left_side = 0
0:6/0/terrains_peering_bit/top_left_corner = 0
0:6/0/terrains_peering_bit/top_side = 0
0:6/0/terrains_peering_bit/top_right_corner = 0
1:6/0 = 0
1:6/0/terrain_set = 1
1:6/0/terrain = 0
1:6/0/probability = 0.05
1:6/0/physics_layer_0/linear_velocity = Vector2(0, 0)
1:6/0/physics_layer_0/angular_velocity = 0.0
1:6/0/terrains_peering_bit/right_side = 0
1:6/0/terrains_peering_bit/bottom_right_corner = 0
1:6/0/terrains_peering_bit/bottom_side = 0
1:6/0/terrains_peering_bit/bottom_left_corner = 0
1:6/0/terrains_peering_bit/left_side = 0
1:6/0/terrains_peering_bit/top_left_corner = 0
1:6/0/terrains_peering_bit/top_side = 0
1:6/0/terrains_peering_bit/top_right_corner = 0
2:6/0 = 0
2:6/0/terrain_set = 1
2:6/0/terrain = 0
2:6/0/probability = 0.05
2:6/0/physics_layer_0/linear_velocity = Vector2(0, 0)
2:6/0/physics_layer_0/angular_velocity = 0.0
2:6/0/terrains_peering_bit/right_side = 0
2:6/0/terrains_peering_bit/bottom_right_corner = 0
2:6/0/terrains_peering_bit/bottom_side = 0
2:6/0/terrains_peering_bit/bottom_left_corner = 0
2:6/0/terrains_peering_bit/left_side = 0
2:6/0/terrains_peering_bit/top_left_corner = 0
2:6/0/terrains_peering_bit/top_side = 0
2:6/0/terrains_peering_bit/top_right_corner = 0
3:6/0 = 0
3:6/0/terrain_set = 1
3:6/0/terrain = 0
3:6/0/probability = 0.05
3:6/0/physics_layer_0/linear_velocity = Vector2(0, 0)
3:6/0/physics_layer_0/angular_velocity = 0.0
3:6/0/terrains_peering_bit/right_side = 0
3:6/0/terrains_peering_bit/bottom_right_corner = 0
3:6/0/terrains_peering_bit/bottom_side = 0
3:6/0/terrains_peering_bit/bottom_left_corner = 0
3:6/0/terrains_peering_bit/left_side = 0
3:6/0/terrains_peering_bit/top_left_corner = 0
3:6/0/terrains_peering_bit/top_side = 0
3:6/0/terrains_peering_bit/top_right_corner = 0
7:8/0 = 0
7:8/0/terrain_set = 1
7:8/0/terrain = 0
7:8/0/physics_layer_0/linear_velocity = Vector2(0, 0)
7:8/0/physics_layer_0/angular_velocity = 0.0
7:8/0/terrains_peering_bit/right_side = 0
7:8/0/terrains_peering_bit/bottom_right_corner = 0
7:8/0/terrains_peering_bit/bottom_side = 0
7:8/0/terrains_peering_bit/bottom_left_corner = 0
7:8/0/terrains_peering_bit/left_side = 0
7:8/0/terrains_peering_bit/top_left_corner = 0
7:8/0/terrains_peering_bit/top_side = 0
7:8/0/terrains_peering_bit/top_right_corner = 0

[sub_resource type="CanvasTexture" id="CanvasTexture_awt3v"]
diffuse_texture = ExtResource("1_8ymhl")
normal_texture = ExtResource("3_pijdo")

[sub_resource type="TileSetAtlasSource" id="TileSetAtlasSource_awbrx"]
resource_name = "wall"
texture = SubResource("CanvasTexture_awt3v")
margins = Vector2i(5, 25)
texture_region_size = Vector2i(28, 28)
use_texture_padding = false
6:2/0 = 0
6:2/0/y_sort_origin = 6
6:2/0/physics_layer_0/linear_velocity = Vector2(0, 0)
6:2/0/physics_layer_0/angular_velocity = 0.0
6:2/0/physics_layer_0/polygon_0/points = PackedVector2Array(-1.23744, -3.97748, 10.6066, -3.97748, 10.6066, 13.3466, -0.883883, 13.5234)
7:2/0 = 0
7:2/0/y_sort_origin = 6
7:2/0/physics_layer_0/linear_velocity = Vector2(0, 0)
7:2/0/physics_layer_0/angular_velocity = 0.0
7:2/0/physics_layer_0/polygon_0/points = PackedVector2Array(-11.1369, -3.8007, 11.1369, -3.8007, 11.1369, 13.3466, -11.3137, 14.0537)
8:2/0 = 0
8:2/0/y_sort_origin = 6
8:2/0/physics_layer_0/linear_velocity = Vector2(0, 0)
8:2/0/physics_layer_0/angular_velocity = 0.0
8:2/0/physics_layer_0/polygon_0/points = PackedVector2Array(-10.7834, -3.97748, 3.53553, -3.97748, 3.53553, 13.7002, -11.1369, 13.7002)
8:3/0 = 0
8:3/0/y_sort_origin = -9
8:3/0/physics_layer_0/linear_velocity = Vector2(0, 0)
8:3/0/physics_layer_0/angular_velocity = 0.0
8:3/0/physics_layer_0/polygon_0/points = PackedVector2Array(-4.41942, -13.7002, 2.82843, -13.5234, 3.0052, 13.7002, -4.06586, 13.7002)
8:4/0 = 0
8:4/0/y_sort_origin = 2
8:4/0/physics_layer_0/linear_velocity = Vector2(0, 0)
8:4/0/physics_layer_0/angular_velocity = 0.0
8:4/0/physics_layer_0/polygon_0/points = PackedVector2Array(-10.7834, -13.7002, 2.82843, -13.1699, 3.18198, 4.86136, -10.7834, 4.86136)
7:4/0 = 0
7:4/0/y_sort_origin = 2
7:4/0/physics_layer_0/linear_velocity = Vector2(0, 0)
7:4/0/physics_layer_0/angular_velocity = 0.0
7:4/0/physics_layer_0/polygon_0/points = PackedVector2Array(-10.7834, -11.9324, 10.4298, -11.7557, 11.3137, 4.86136, -10.7834, 4.68458)
6:4/0 = 0
6:4/0/y_sort_origin = 2
6:4/0/physics_layer_0/linear_velocity = Vector2(0, 0)
6:4/0/physics_layer_0/angular_velocity = 0.0
6:4/0/physics_layer_0/polygon_0/points = PackedVector2Array(-1.06066, -13.7002, 10.9602, -13.877, 11.844, 4.86136, -0.883883, 4.86136)
6:3/0 = 0
6:3/0/y_sort_origin = -9
6:3/0/physics_layer_0/linear_velocity = Vector2(0, 0)
6:3/0/physics_layer_0/angular_velocity = 0.0
6:3/0/physics_layer_0/polygon_0/points = PackedVector2Array(-0.883883, -13.3466, 6.01041, -13.1699, 6.36396, 14.2305, -0.883883, 13.877)

[sub_resource type="TileSetAtlasSource" id="TileSetAtlasSource_h7x32"]
texture = ExtResource("4_dxdh4")
0:0/0 = 0
0:0/0/terrain_set = 0
0:0/0/terrain = 2
0:0/0/physics_layer_0/linear_velocity = Vector2(0, 0)
0:0/0/physics_layer_0/angular_velocity = 0.0
0:0/0/terrains_peering_bit/right_side = 2
0:0/0/terrains_peering_bit/bottom_right_corner = 2
0:0/0/terrains_peering_bit/bottom_side = 2
1:0/0 = 0
1:0/0/terrain_set = 0
1:0/0/terrain = 2
1:0/0/physics_layer_0/linear_velocity = Vector2(0, 0)
1:0/0/physics_layer_0/angular_velocity = 0.0
1:0/0/terrains_peering_bit/right_side = 2
1:0/0/terrains_peering_bit/bottom_right_corner = 2
1:0/0/terrains_peering_bit/bottom_side = 2
1:0/0/terrains_peering_bit/bottom_left_corner = 2
1:0/0/terrains_peering_bit/left_side = 2
2:0/0 = 0
2:0/0/terrain_set = 0
2:0/0/terrain = 2
2:0/0/physics_layer_0/linear_velocity = Vector2(0, 0)
2:0/0/physics_layer_0/angular_velocity = 0.0
2:0/0/terrains_peering_bit/right_side = 2
2:0/0/terrains_peering_bit/bottom_right_corner = 2
2:0/0/terrains_peering_bit/bottom_side = 2
2:0/0/terrains_peering_bit/bottom_left_corner = 2
2:0/0/terrains_peering_bit/left_side = 2
3:0/0 = 0
3:0/0/terrain_set = 0
3:0/0/terrain = 2
3:0/0/physics_layer_0/linear_velocity = Vector2(0, 0)
3:0/0/physics_layer_0/angular_velocity = 0.0
3:0/0/terrains_peering_bit/right_side = 2
3:0/0/terrains_peering_bit/bottom_right_corner = 2
3:0/0/terrains_peering_bit/bottom_side = 2
3:0/0/terrains_peering_bit/bottom_left_corner = 2
3:0/0/terrains_peering_bit/left_side = 2
4:0/0 = 0
4:0/0/terrain_set = 0
4:0/0/terrain = 2
4:0/0/physics_layer_0/linear_velocity = Vector2(0, 0)
4:0/0/physics_layer_0/angular_velocity = 0.0
4:0/0/terrains_peering_bit/bottom_side = 2
4:0/0/terrains_peering_bit/bottom_left_corner = 2
4:0/0/terrains_peering_bit/left_side = 2
4:1/0 = 0
4:1/0/terrain_set = 0
4:1/0/terrain = 2
4:1/0/physics_layer_0/linear_velocity = Vector2(0, 0)
4:1/0/physics_layer_0/angular_velocity = 0.0
4:1/0/terrains_peering_bit/bottom_side = 2
4:1/0/terrains_peering_bit/bottom_left_corner = 2
4:1/0/terrains_peering_bit/left_side = 2
4:1/0/terrains_peering_bit/top_left_corner = 2
4:1/0/terrains_peering_bit/top_side = 2
4:2/0 = 0
4:2/0/terrain_set = 0
4:2/0/terrain = 2
4:2/0/physics_layer_0/linear_velocity = Vector2(0, 0)
4:2/0/physics_layer_0/angular_velocity = 0.0
4:2/0/terrains_peering_bit/bottom_side = 2
4:2/0/terrains_peering_bit/bottom_left_corner = 2
4:2/0/terrains_peering_bit/left_side = 2
4:2/0/terrains_peering_bit/top_left_corner = 2
4:2/0/terrains_peering_bit/top_side = 2
4:3/0 = 0
4:3/0/terrain_set = 0
4:3/0/terrain = 2
4:3/0/physics_layer_0/linear_velocity = Vector2(0, 0)
4:3/0/physics_layer_0/angular_velocity = 0.0
4:3/0/terrains_peering_bit/bottom_side = 2
4:3/0/terrains_peering_bit/bottom_left_corner = 2
4:3/0/terrains_peering_bit/left_side = 2
4:3/0/terrains_peering_bit/top_left_corner = 2
4:3/0/terrains_peering_bit/top_side = 2
4:4/0 = 0
4:4/0/terrain_set = 0
4:4/0/terrain = 2
4:4/0/physics_layer_0/linear_velocity = Vector2(0, 0)
4:4/0/physics_layer_0/angular_velocity = 0.0
4:4/0/terrains_peering_bit/left_side = 2
4:4/0/terrains_peering_bit/top_left_corner = 2
4:4/0/terrains_peering_bit/top_side = 2
3:4/0 = 0
3:4/0/terrain_set = 0
3:4/0/terrain = 2
3:4/0/physics_layer_0/linear_velocity = Vector2(0, 0)
3:4/0/physics_layer_0/angular_velocity = 0.0
3:4/0/terrains_peering_bit/right_side = 2
3:4/0/terrains_peering_bit/left_side = 2
3:4/0/terrains_peering_bit/top_left_corner = 2
3:4/0/terrains_peering_bit/top_side = 2
3:4/0/terrains_peering_bit/top_right_corner = 2
2:4/0 = 0
2:4/0/terrain_set = 0
2:4/0/terrain = 2
2:4/0/physics_layer_0/linear_velocity = Vector2(0, 0)
2:4/0/physics_layer_0/angular_velocity = 0.0
2:4/0/terrains_peering_bit/right_side = 2
2:4/0/terrains_peering_bit/left_side = 2
2:4/0/terrains_peering_bit/top_left_corner = 2
2:4/0/terrains_peering_bit/top_side = 2
2:4/0/terrains_peering_bit/top_right_corner = 2
1:4/0 = 0
1:4/0/terrain_set = 0
1:4/0/terrain = 2
1:4/0/physics_layer_0/linear_velocity = Vector2(0, 0)
1:4/0/physics_layer_0/angular_velocity = 0.0
1:4/0/terrains_peering_bit/right_side = 2
1:4/0/terrains_peering_bit/left_side = 2
1:4/0/terrains_peering_bit/top_left_corner = 2
1:4/0/terrains_peering_bit/top_side = 2
1:4/0/terrains_peering_bit/top_right_corner = 2
0:4/0 = 0
0:4/0/terrain_set = 0
0:4/0/terrain = 2
0:4/0/physics_layer_0/linear_velocity = Vector2(0, 0)
0:4/0/physics_layer_0/angular_velocity = 0.0
0:4/0/terrains_peering_bit/right_side = 2
0:4/0/terrains_peering_bit/top_side = 2
0:4/0/terrains_peering_bit/top_right_corner = 2
0:3/0 = 0
0:3/0/terrain_set = 0
0:3/0/terrain = 2
0:3/0/physics_layer_0/linear_velocity = Vector2(0, 0)
0:3/0/physics_layer_0/angular_velocity = 0.0
0:3/0/terrains_peering_bit/right_side = 2
0:3/0/terrains_peering_bit/bottom_right_corner = 2
0:3/0/terrains_peering_bit/bottom_side = 2
0:3/0/terrains_peering_bit/top_side = 2
0:3/0/terrains_peering_bit/top_right_corner = 2
0:2/0 = 0
0:2/0/terrain_set = 0
0:2/0/terrain = 2
0:2/0/physics_layer_0/linear_velocity = Vector2(0, 0)
0:2/0/physics_layer_0/angular_velocity = 0.0
0:2/0/terrains_peering_bit/right_side = 2
0:2/0/terrains_peering_bit/bottom_right_corner = 2
0:2/0/terrains_peering_bit/bottom_side = 2
0:2/0/terrains_peering_bit/top_side = 2
0:2/0/terrains_peering_bit/top_right_corner = 2
0:1/0 = 0
0:1/0/terrain_set = 0
0:1/0/terrain = 2
0:1/0/physics_layer_0/linear_velocity = Vector2(0, 0)
0:1/0/physics_layer_0/angular_velocity = 0.0
0:1/0/terrains_peering_bit/right_side = 2
0:1/0/terrains_peering_bit/bottom_right_corner = 2
0:1/0/terrains_peering_bit/bottom_side = 2
0:1/0/terrains_peering_bit/top_side = 2
0:1/0/terrains_peering_bit/top_right_corner = 2
1:2/0 = 0
1:2/0/terrain_set = 0
1:2/0/terrain = 2
1:2/0/physics_layer_0/linear_velocity = Vector2(0, 0)
1:2/0/physics_layer_0/angular_velocity = 0.0
1:2/0/terrains_peering_bit/bottom_side = 2
1:2/0/terrains_peering_bit/bottom_left_corner = 2
1:2/0/terrains_peering_bit/left_side = 2
1:2/0/terrains_peering_bit/top_left_corner = 2
1:2/0/terrains_peering_bit/top_side = 2
1:3/0 = 0
1:3/0/terrain_set = 0
1:3/0/terrain = 2
1:3/0/physics_layer_0/linear_velocity = Vector2(0, 0)
1:3/0/physics_layer_0/angular_velocity = 0.0
1:3/0/terrains_peering_bit/right_side = 2
1:3/0/terrains_peering_bit/bottom_right_corner = 2
1:3/0/terrains_peering_bit/bottom_side = 2
1:3/0/terrains_peering_bit/bottom_left_corner = 2
1:3/0/terrains_peering_bit/left_side = 2
1:3/0/terrains_peering_bit/top_left_corner = 2
1:3/0/terrains_peering_bit/top_side = 2
2:3/0 = 0
2:3/0/terrain_set = 0
2:3/0/terrain = 2
2:3/0/physics_layer_0/linear_velocity = Vector2(0, 0)
2:3/0/physics_layer_0/angular_velocity = 0.0
2:3/0/terrains_peering_bit/right_side = 2
2:3/0/terrains_peering_bit/bottom_right_corner = 2
2:3/0/terrains_peering_bit/bottom_side = 2
2:3/0/terrains_peering_bit/bottom_left_corner = 2
2:3/0/terrains_peering_bit/left_side = 2
3:3/0 = 0
3:3/0/terrain_set = 0
3:3/0/terrain = 2
3:3/0/physics_layer_0/linear_velocity = Vector2(0, 0)
3:3/0/physics_layer_0/angular_velocity = 0.0
3:3/0/terrains_peering_bit/right_side = 2
3:3/0/terrains_peering_bit/bottom_right_corner = 2
3:3/0/terrains_peering_bit/bottom_side = 2
3:3/0/terrains_peering_bit/bottom_left_corner = 2
3:3/0/terrains_peering_bit/left_side = 2
3:3/0/terrains_peering_bit/top_side = 2
3:3/0/terrains_peering_bit/top_right_corner = 2
3:1/0 = 0
3:1/0/terrain_set = 0
3:1/0/terrain = 2
3:1/0/physics_layer_0/linear_velocity = Vector2(0, 0)
3:1/0/physics_layer_0/angular_velocity = 0.0
3:1/0/terrains_peering_bit/right_side = 2
3:1/0/terrains_peering_bit/bottom_right_corner = 2
3:1/0/terrains_peering_bit/bottom_side = 2
3:1/0/terrains_peering_bit/left_side = 2
3:1/0/terrains_peering_bit/top_left_corner = 2
3:1/0/terrains_peering_bit/top_side = 2
3:1/0/terrains_peering_bit/top_right_corner = 2
2:1/0 = 0
2:1/0/terrain_set = 0
2:1/0/terrain = 2
2:1/0/physics_layer_0/linear_velocity = Vector2(0, 0)
2:1/0/physics_layer_0/angular_velocity = 0.0
2:1/0/terrains_peering_bit/right_side = 2
2:1/0/terrains_peering_bit/left_side = 2
2:1/0/terrains_peering_bit/top_left_corner = 2
2:1/0/terrains_peering_bit/top_side = 2
2:1/0/terrains_peering_bit/top_right_corner = 2
2:2/0 = 0
2:2/0/terrain_set = 0
2:2/0/physics_layer_0/linear_velocity = Vector2(0, 0)
2:2/0/physics_layer_0/angular_velocity = 0.0
1:1/0 = 0
1:1/0/terrain_set = 0
1:1/0/terrain = 2
1:1/0/physics_layer_0/linear_velocity = Vector2(0, 0)
1:1/0/physics_layer_0/angular_velocity = 0.0
1:1/0/terrains_peering_bit/right_side = 2
1:1/0/terrains_peering_bit/bottom_side = 2
1:1/0/terrains_peering_bit/bottom_left_corner = 2
1:1/0/terrains_peering_bit/left_side = 2
1:1/0/terrains_peering_bit/top_left_corner = 2
1:1/0/terrains_peering_bit/top_side = 2
1:1/0/terrains_peering_bit/top_right_corner = 2
3:2/0 = 0
3:2/0/terrain_set = 0
3:2/0/terrain = 2
3:2/0/physics_layer_0/linear_velocity = Vector2(0, 0)
3:2/0/physics_layer_0/angular_velocity = 0.0
3:2/0/terrains_peering_bit/right_side = 2
3:2/0/terrains_peering_bit/bottom_right_corner = 2
3:2/0/terrains_peering_bit/bottom_side = 2
3:2/0/terrains_peering_bit/top_side = 2
3:2/0/terrains_peering_bit/top_right_corner = 2
0:5/0 = 0
0:5/0/physics_layer_0/linear_velocity = Vector2(0, 0)
0:5/0/physics_layer_0/angular_velocity = 0.0
0:6/0 = 0
0:6/0/physics_layer_0/linear_velocity = Vector2(0, 0)
0:6/0/physics_layer_0/angular_velocity = 0.0
0:7/0 = 0
0:7/0/physics_layer_0/linear_velocity = Vector2(0, 0)
0:7/0/physics_layer_0/angular_velocity = 0.0
0:8/0 = 0
0:8/0/physics_layer_0/linear_velocity = Vector2(0, 0)
0:8/0/physics_layer_0/angular_velocity = 0.0
4:5/0 = 0
4:5/0/terrain_set = 0
4:5/0/terrain = 2
4:5/0/physics_layer_0/linear_velocity = Vector2(0, 0)
4:5/0/physics_layer_0/angular_velocity = 0.0
4:5/0/terrains_peering_bit/right_side = 2
4:5/0/terrains_peering_bit/bottom_right_corner = 2
4:5/0/terrains_peering_bit/bottom_side = 2
4:5/0/terrains_peering_bit/bottom_left_corner = 2
4:5/0/terrains_peering_bit/left_side = 2
4:5/0/terrains_peering_bit/top_left_corner = 2
4:5/0/terrains_peering_bit/top_side = 2
4:5/0/terrains_peering_bit/top_right_corner = 2
1:5/0 = 0
1:5/0/physics_layer_0/linear_velocity = Vector2(0, 0)
1:5/0/physics_layer_0/angular_velocity = 0.0
2:5/0 = 0
2:5/0/physics_layer_0/linear_velocity = Vector2(0, 0)
2:5/0/physics_layer_0/angular_velocity = 0.0
3:5/0 = 0
3:5/0/physics_layer_0/linear_velocity = Vector2(0, 0)
3:5/0/physics_layer_0/angular_velocity = 0.0
1:6/0 = 0
1:6/0/physics_layer_0/linear_velocity = Vector2(0, 0)
1:6/0/physics_layer_0/angular_velocity = 0.0
3:6/0 = 0
3:6/0/physics_layer_0/linear_velocity = Vector2(0, 0)
3:6/0/physics_layer_0/angular_velocity = 0.0
2:6/0 = 0
2:6/0/physics_layer_0/linear_velocity = Vector2(0, 0)
2:6/0/physics_layer_0/angular_velocity = 0.0
1:7/0 = 0
1:7/0/physics_layer_0/linear_velocity = Vector2(0, 0)
1:7/0/physics_layer_0/angular_velocity = 0.0
2:7/0 = 0
2:7/0/physics_layer_0/linear_velocity = Vector2(0, 0)
2:7/0/physics_layer_0/angular_velocity = 0.0
3:7/0 = 0
3:7/0/physics_layer_0/linear_velocity = Vector2(0, 0)
3:7/0/physics_layer_0/angular_velocity = 0.0
1:8/0 = 0
1:8/0/physics_layer_0/linear_velocity = Vector2(0, 0)
1:8/0/physics_layer_0/angular_velocity = 0.0
2:8/0 = 0
2:8/0/physics_layer_0/linear_velocity = Vector2(0, 0)
2:8/0/physics_layer_0/angular_velocity = 0.0
3:8/0 = 0
3:8/0/physics_layer_0/linear_velocity = Vector2(0, 0)
3:8/0/physics_layer_0/angular_velocity = 0.0

[resource]
occlusion_layer_0/light_mask = 1
physics_layer_0/collision_layer = 1
physics_layer_0/collision_mask = 0
terrain_set_0/mode = 0
terrain_set_0/terrain_0/name = "ground"
terrain_set_0/terrain_0/color = Color(0.5, 0.34375, 0.25, 1)
terrain_set_0/terrain_1/name = "stone ground"
terrain_set_0/terrain_1/color = Color(0.431373, 0.760784, 1, 1)
terrain_set_0/terrain_2/name = "water"
terrain_set_0/terrain_2/color = Color(0.858824, 0.0156863, 0.443137, 1)
terrain_set_1/mode = 0
terrain_set_1/terrain_0/name = "ground top"
terrain_set_1/terrain_0/color = Color(0.670588, 0.192157, 0, 1)
terrain_set_1/terrain_1/name = "top mud"
terrain_set_1/terrain_1/color = Color(0.5, 0.4375, 0.25, 1)
terrain_set_2/mode = 0
terrain_set_2/terrain_0/name = "boundary"
terrain_set_2/terrain_0/color = Color(0.364706, 0.415686, 0, 1)
sources/0 = SubResource("TileSetAtlasSource_l6pj4")
sources/1 = SubResource("TileSetAtlasSource_vhbi2")
sources/2 = SubResource("TileSetAtlasSource_5mh8x")
sources/3 = SubResource("TileSetAtlasSource_awbrx")
sources/4 = SubResource("TileSetAtlasSource_h7x32")
