[gd_scene load_steps=2 format=3 uid="uid://dthqfke85g26l"]

[ext_resource type="Script" path="res://scenes/autoload/store/store.gd" id="1_dj8ka"]

[node name="Store" type="Node"]
script = ExtResource("1_dj8ka")
