[gd_resource type="ShaderMaterial" load_steps=4 format=3 uid="uid://c122nst7i7th"]

[ext_resource type="Shader" path="res://scenes/examples/dissolve/dissolve.gdshader" id="1_ph770"]

[sub_resource type="FastNoiseLite" id="FastNoiseLite_5bagu"]

[sub_resource type="NoiseTexture2D" id="NoiseTexture2D_aaf6v"]
width = 256
height = 256
seamless = true
seamless_blend_skirt = 0.25
noise = SubResource("FastNoiseLite_5bagu")

[resource]
shader = ExtResource("1_ph770")
shader_parameter/progress = 1.0
shader_parameter/pixel_size = 32.0
shader_parameter/noise_tex = SubResource("NoiseTexture2D_aaf6v")
shader_parameter/color = Color(0.176471, 0.690196, 0.576471, 1)
shader_parameter/color_width = 0.12
shader_parameter/twirl_strength = 0.0
shader_parameter/twirl_center = Vector2(0.5, 0.5)
