[gd_resource type="Resource" script_class="BasicStats" load_steps=2 format=3 uid="uid://nae6t65d5p1t"]

[ext_resource type="Script" path="res://resources/characters/character_data.gd" id="1_6n43u"]

[resource]
script = ExtResource("1_6n43u")
id = 520
object_name = ""
object_description = ""
stats_type = 1
HP = 10.0
AMMOR = 2.0
MP = 5.0
MP_REFILL = 0.0
MP_REFILL_INTERVAL = 0.0
DMG = 0.5
COOLDOWN = 0.0
ACTIVATE_TIME = 0.0
AREA = 0.0
CRIT_DMG = 0.02
CRIT_RATE = 0.01
MP_COST = 0.0
EXP_MULTIPLIER = 0.0
SPEED_MULTIPLIER = 0.0
FROZEN_RATE = 0.0
STUN_RATE = 0.0
SET_FIRE_RATE = 0.0
SLOW_FIRE_RATE = 0.0
PENETRATE_AMMOR_RATE = 0.0
ATTACK_SPEED = 0.05
BULLET_SPEED = 0.0
BULLET_PER_SHOT = 1
BULLET_DECAY = 1.0
BULLET_PENETRATION = 1
SHOOT_ANGLE = 0.0
EVADE = 0.05
MOVE_SPEED = 1.0
ACCELEBRATION = 0.0
EXP = 5.0
COIN = 5.0
passive = Array[ExtResource("1_6n43u")]([])
