[gd_scene load_steps=7 format=3 uid="uid://djp7kyxwow2k8"]

[ext_resource type="Script" path="res://scenes/autoload/screen_transition.gd" id="1_5jm7s"]
[ext_resource type="Shader" path="res://resources/shader/screen_transition.gdshader" id="1_xqp8n"]

[sub_resource type="ShaderMaterial" id="ShaderMaterial_jr347"]
shader = ExtResource("1_xqp8n")
shader_parameter/progress = 0.271
shader_parameter/diamondPixelSize = 25.0

[sub_resource type="Animation" id="Animation_g5f5w"]
length = 0.001
tracks/0/type = "value"
tracks/0/imported = false
tracks/0/enabled = true
tracks/0/path = NodePath("ColorRect:material:shader_parameter/progress")
tracks/0/interp = 1
tracks/0/loop_wrap = true
tracks/0/keys = {
"times": PackedFloat32Array(0),
"transitions": PackedFloat32Array(1),
"update": 0,
"values": [0.271]
}
tracks/1/type = "value"
tracks/1/imported = false
tracks/1/enabled = true
tracks/1/path = NodePath("ColorRect:visible")
tracks/1/interp = 1
tracks/1/loop_wrap = true
tracks/1/keys = {
"times": PackedFloat32Array(0),
"transitions": PackedFloat32Array(1),
"update": 1,
"values": [false]
}
tracks/2/type = "value"
tracks/2/imported = false
tracks/2/enabled = true
tracks/2/path = NodePath(".:visible")
tracks/2/interp = 1
tracks/2/loop_wrap = true
tracks/2/keys = {
"times": PackedFloat32Array(0),
"transitions": PackedFloat32Array(1),
"update": 1,
"values": [false]
}

[sub_resource type="Animation" id="Animation_ww8xm"]
resource_name = "fade_in"
length = 0.4
step = 0.02
tracks/0/type = "value"
tracks/0/imported = false
tracks/0/enabled = true
tracks/0/path = NodePath("ColorRect:material:shader_parameter/progress")
tracks/0/interp = 2
tracks/0/loop_wrap = true
tracks/0/keys = {
"times": PackedFloat32Array(0, 0.4),
"transitions": PackedFloat32Array(1, 1),
"update": 0,
"values": [0.0, 1.0]
}
tracks/1/type = "value"
tracks/1/imported = false
tracks/1/enabled = false
tracks/1/path = NodePath("ColorRect:visible")
tracks/1/interp = 1
tracks/1/loop_wrap = true
tracks/1/keys = {
"times": PackedFloat32Array(0, 0.02, 0.4),
"transitions": PackedFloat32Array(1, 1, 1),
"update": 1,
"values": [false, true, true]
}
tracks/2/type = "value"
tracks/2/imported = false
tracks/2/enabled = true
tracks/2/path = NodePath(".:visible")
tracks/2/interp = 1
tracks/2/loop_wrap = true
tracks/2/keys = {
"times": PackedFloat32Array(0, 0.02, 0.4),
"transitions": PackedFloat32Array(1, 1, 1),
"update": 1,
"values": [false, true, true]
}

[sub_resource type="AnimationLibrary" id="AnimationLibrary_abgjq"]
_data = {
"RESET": SubResource("Animation_g5f5w"),
"fade_in": SubResource("Animation_ww8xm")
}

[node name="SceneTransition" type="CanvasLayer"]
process_mode = 3
layer = 3
visible = false
script = ExtResource("1_5jm7s")

[node name="ColorRect" type="ColorRect" parent="."]
visible = false
material = SubResource("ShaderMaterial_jr347")
anchors_preset = 15
anchor_right = 1.0
anchor_bottom = 1.0
grow_horizontal = 2
grow_vertical = 2
color = Color(0.721569, 0.4, 0.172549, 1)

[node name="AnimationPlayer" type="AnimationPlayer" parent="."]
libraries = {
"": SubResource("AnimationLibrary_abgjq")
}
