[gd_scene load_steps=4 format=3 uid="uid://c7ia5g0srddt7"]

[ext_resource type="Shader" path="res://scenes/examples/uv_twirl/uv_twirl.gdshader" id="1_nia0o"]
[ext_resource type="Texture2D" uid="uid://e3y4xw1m01k1" path="res://icon.svg" id="2_hvaj8"]

[sub_resource type="ShaderMaterial" id="ShaderMaterial_0h63a"]
shader = ExtResource("1_nia0o")
shader_parameter/strength = 0.0
shader_parameter/center = Vector2(0.5, 0.5)
shader_parameter/offset = Vector2(0, 0)

[node name="UVTwirl" type="Node"]

[node name="Icon" type="Sprite2D" parent="."]
material = SubResource("ShaderMaterial_0h63a")
position = Vector2(137, 188)
texture = ExtResource("2_hvaj8")
